<?xml version="1.0" encoding="UTF-8" standalone="no"?>
<Configuration>
  <Configurator>
    <Name dnOrder="0" value="sam_c21n_xpro"/>
    <Processor dnOrder="1" value="ATSAMC21N18A"/>
    <Harmony dnOrder="2" path="../../../.."/>
    <Manifest dnOrder="3">
      <Files dnOrder="0">
        <File dnOrder="0">
          <Type dnOrder="0">SOURCE</Type>
          <Name dnOrder="1">exceptions.c</Name>
          <LogicalPath dnOrder="2">config/sam_c21n_xpro/</LogicalPath>
          <PhysicalPath dnOrder="3">/</PhysicalPath>
          <GeneratedChecksum dnOrder="4">9DE4051D799EAFEBF2B648E71E7FCDAA</GeneratedChecksum>
          <UserChecksum dnOrder="5">9DE4051D799EAFEBF2B648E71E7FCDAA</UserChecksum>
        </File>
        <File dnOrder="1">
          <Type dnOrder="0">SOURCE</Type>
          <Name dnOrder="1">initialization.c</Name>
          <LogicalPath dnOrder="2">config/sam_c21n_xpro/</LogicalPath>
          <PhysicalPath dnOrder="3">/</PhysicalPath>
          <GeneratedChecksum dnOrder="4">2F9F837943379C229399787C6C7518F6</GeneratedChecksum>
          <UserChecksum dnOrder="5">2F9F837943379C229399787C6C7518F6</UserChecksum>
        </File>
        <File dnOrder="2">
          <Type dnOrder="0">SOURCE</Type>
          <Name dnOrder="1">interrupts.c</Name>
          <LogicalPath dnOrder="2">config/sam_c21n_xpro/</LogicalPath>
          <PhysicalPath dnOrder="3">/</PhysicalPath>
          <GeneratedChecksum dnOrder="4">D83457BFFDDA3D3A5FED45385A3C3CB8</GeneratedChecksum>
          <UserChecksum dnOrder="5">D83457BFFDDA3D3A5FED45385A3C3CB8</UserChecksum>
        </File>
        <File dnOrder="3">
          <Type dnOrder="0">SOURCE</Type>
          <Name dnOrder="1">libc_syscalls.c</Name>
          <LogicalPath dnOrder="2">config/sam_c21n_xpro/</LogicalPath>
          <PhysicalPath dnOrder="3">/</PhysicalPath>
          <GeneratedChecksum dnOrder="4">0D061464696B9E5D276A90A352736879</GeneratedChecksum>
          <UserChecksum dnOrder="5">0D061464696B9E5D276A90A352736879</UserChecksum>
        </File>
        <File dnOrder="4">
          <Type dnOrder="0">SOURCE</Type>
          <Name dnOrder="1">main.c</Name>
          <LogicalPath dnOrder="2"/>
          <PhysicalPath dnOrder="3">/../../</PhysicalPath>
          <GeneratedChecksum dnOrder="4"/>
          <UserChecksum dnOrder="5"/>
        </File>
        <File dnOrder="5">
          <Type dnOrder="0">SOURCE</Type>
          <Name dnOrder="1">plib_clock.c</Name>
          <LogicalPath dnOrder="2">config/sam_c21n_xpro/peripheral/clock/</LogicalPath>
          <PhysicalPath dnOrder="3">/peripheral/clock/</PhysicalPath>
          <GeneratedChecksum dnOrder="4">021F2BA5869089E76EC61C7C377C8420</GeneratedChecksum>
          <UserChecksum dnOrder="5">021F2BA5869089E76EC61C7C377C8420</UserChecksum>
        </File>
        <File dnOrder="6">
          <Type dnOrder="0">SOURCE</Type>
          <Name dnOrder="1">plib_dac.c</Name>
          <LogicalPath dnOrder="2">config/sam_c21n_xpro/peripheral/dac/</LogicalPath>
          <PhysicalPath dnOrder="3">/peripheral/dac/</PhysicalPath>
          <GeneratedChecksum dnOrder="4">A5A2DD2136C3BFF88B8AF4203E601B3F</GeneratedChecksum>
          <UserChecksum dnOrder="5">A5A2DD2136C3BFF88B8AF4203E601B3F</UserChecksum>
        </File>
        <File dnOrder="7">
          <Type dnOrder="0">SOURCE</Type>
          <Name dnOrder="1">plib_eic.c</Name>
          <LogicalPath dnOrder="2">config/sam_c21n_xpro/peripheral/eic/</LogicalPath>
          <PhysicalPath dnOrder="3">/peripheral/eic/</PhysicalPath>
          <GeneratedChecksum dnOrder="4">7CB8827DE0C77001487629155C02E746</GeneratedChecksum>
          <UserChecksum dnOrder="5">7CB8827DE0C77001487629155C02E746</UserChecksum>
        </File>
        <File dnOrder="8">
          <Type dnOrder="0">SOURCE</Type>
          <Name dnOrder="1">plib_evsys.c</Name>
          <LogicalPath dnOrder="2">config/sam_c21n_xpro/peripheral/evsys</LogicalPath>
          <PhysicalPath dnOrder="3">/peripheral/evsys/</PhysicalPath>
          <GeneratedChecksum dnOrder="4">C99E6D9B9BA371EA749B7DC16BC2C209</GeneratedChecksum>
          <UserChecksum dnOrder="5">C99E6D9B9BA371EA749B7DC16BC2C209</UserChecksum>
        </File>
        <File dnOrder="9">
          <Type dnOrder="0">SOURCE</Type>
          <Name dnOrder="1">plib_nvic.c</Name>
          <LogicalPath dnOrder="2">config/sam_c21n_xpro/peripheral/nvic/</LogicalPath>
          <PhysicalPath dnOrder="3">/peripheral/nvic/</PhysicalPath>
          <GeneratedChecksum dnOrder="4">5A3E920EFCB4DD28258FBA21CFEEE5C2</GeneratedChecksum>
          <UserChecksum dnOrder="5">5A3E920EFCB4DD28258FBA21CFEEE5C2</UserChecksum>
        </File>
        <File dnOrder="10">
          <Type dnOrder="0">SOURCE</Type>
          <Name dnOrder="1">plib_nvmctrl.c</Name>
          <LogicalPath dnOrder="2">config/sam_c21n_xpro/peripheral/nvmctrl/</LogicalPath>
          <PhysicalPath dnOrder="3">/peripheral/nvmctrl/</PhysicalPath>
          <GeneratedChecksum dnOrder="4">1A276F1056D0517E6CEDAD9C16DBD026</GeneratedChecksum>
          <UserChecksum dnOrder="5">1A276F1056D0517E6CEDAD9C16DBD026</UserChecksum>
        </File>
        <File dnOrder="11">
          <Type dnOrder="0">SOURCE</Type>
          <Name dnOrder="1">plib_port.c</Name>
          <LogicalPath dnOrder="2">config/sam_c21n_xpro/peripheral/port/</LogicalPath>
          <PhysicalPath dnOrder="3">/peripheral/port/</PhysicalPath>
          <GeneratedChecksum dnOrder="4">6E2C07715629303E63C7BA61D3516A75</GeneratedChecksum>
          <UserChecksum dnOrder="5">6E2C07715629303E63C7BA61D3516A75</UserChecksum>
        </File>
        <File dnOrder="12">
          <Type dnOrder="0">SOURCE</Type>
          <Name dnOrder="1">plib_tc0.c</Name>
          <LogicalPath dnOrder="2">config/sam_c21n_xpro/peripheral/tc/</LogicalPath>
          <PhysicalPath dnOrder="3">/peripheral/tc/</PhysicalPath>
          <GeneratedChecksum dnOrder="4">561FF778B9F60B637E074EAE0B3CD01C</GeneratedChecksum>
          <UserChecksum dnOrder="5">561FF778B9F60B637E074EAE0B3CD01C</UserChecksum>
        </File>
        <File dnOrder="13">
          <Type dnOrder="0">SOURCE</Type>
          <Name dnOrder="1">startup_xc32.c</Name>
          <LogicalPath dnOrder="2">config/sam_c21n_xpro/</LogicalPath>
          <PhysicalPath dnOrder="3">/</PhysicalPath>
          <GeneratedChecksum dnOrder="4">1D663AF01040F617CC298F9373DE9B57</GeneratedChecksum>
          <UserChecksum dnOrder="5">1D663AF01040F617CC298F9373DE9B57</UserChecksum>
        </File>
        <File dnOrder="14">
          <Type dnOrder="0">SOURCE</Type>
          <Name dnOrder="1">xc32_monitor.c</Name>
          <LogicalPath dnOrder="2">config/sam_c21n_xpro/stdio/</LogicalPath>
          <PhysicalPath dnOrder="3">/stdio/</PhysicalPath>
          <GeneratedChecksum dnOrder="4">0CDCE9B6891797FCD2AEA243F841353F</GeneratedChecksum>
          <UserChecksum dnOrder="5">0CDCE9B6891797FCD2AEA243F841353F</UserChecksum>
        </File>
        <File dnOrder="15">
          <Type dnOrder="0">HEADER</Type>
          <Name dnOrder="1">ac.h</Name>
          <LogicalPath dnOrder="2">packs/ATSAMC21N18A_DFP/component/</LogicalPath>
          <PhysicalPath dnOrder="3">/../../packs/ATSAMC21N18A_DFP/component/</PhysicalPath>
          <GeneratedChecksum dnOrder="4">CE17BD0ABEEF5B2744D9CC1F271D4A3D</GeneratedChecksum>
          <UserChecksum dnOrder="5">CE17BD0ABEEF5B2744D9CC1F271D4A3D</UserChecksum>
        </File>
        <File dnOrder="16">
          <Type dnOrder="0">HEADER</Type>
          <Name dnOrder="1">adc.h</Name>
          <LogicalPath dnOrder="2">packs/ATSAMC21N18A_DFP/component/</LogicalPath>
          <PhysicalPath dnOrder="3">/../../packs/ATSAMC21N18A_DFP/component/</PhysicalPath>
          <GeneratedChecksum dnOrder="4">568FB4090A91F1929C0ECF687A9F1282</GeneratedChecksum>
          <UserChecksum dnOrder="5">568FB4090A91F1929C0ECF687A9F1282</UserChecksum>
        </File>
        <File dnOrder="17">
          <Type dnOrder="0">HEADER</Type>
          <Name dnOrder="1">arm_common_tables.h</Name>
          <LogicalPath dnOrder="2">packs/CMSIS/CMSIS/DSP/Include/</LogicalPath>
          <PhysicalPath dnOrder="3">/../../packs/CMSIS/CMSIS/DSP/Include/</PhysicalPath>
          <GeneratedChecksum dnOrder="4">ECE7DC494F56CE01D96DE918E61B7C02</GeneratedChecksum>
          <UserChecksum dnOrder="5">ECE7DC494F56CE01D96DE918E61B7C02</UserChecksum>
        </File>
        <File dnOrder="18">
          <Type dnOrder="0">HEADER</Type>
          <Name dnOrder="1">arm_const_structs.h</Name>
          <LogicalPath dnOrder="2">packs/CMSIS/CMSIS/DSP/Include/</LogicalPath>
          <PhysicalPath dnOrder="3">/../../packs/CMSIS/CMSIS/DSP/Include/</PhysicalPath>
          <GeneratedChecksum dnOrder="4">B99479A6A9F72E72C614DB59601DC762</GeneratedChecksum>
          <UserChecksum dnOrder="5">B99479A6A9F72E72C614DB59601DC762</UserChecksum>
        </File>
        <File dnOrder="19">
          <Type dnOrder="0">HEADER</Type>
          <Name dnOrder="1">arm_math.h</Name>
          <LogicalPath dnOrder="2">packs/CMSIS/CMSIS/DSP/Include/</LogicalPath>
          <PhysicalPath dnOrder="3">/../../packs/CMSIS/CMSIS/DSP/Include/</PhysicalPath>
          <GeneratedChecksum dnOrder="4">4726F6E7A3CDEDAE6075A88F3D16F093</GeneratedChecksum>
          <UserChecksum dnOrder="5">4726F6E7A3CDEDAE6075A88F3D16F093</UserChecksum>
        </File>
        <File dnOrder="20">
          <Type dnOrder="0">HEADER</Type>
          <Name dnOrder="1">atsamc21n18a.h</Name>
          <LogicalPath dnOrder="2">packs/ATSAMC21N18A_DFP/</LogicalPath>
          <PhysicalPath dnOrder="3">/../../packs/ATSAMC21N18A_DFP/</PhysicalPath>
          <GeneratedChecksum dnOrder="4">FD4231B830148B18B355A00EE703BE17</GeneratedChecksum>
          <UserChecksum dnOrder="5">FD4231B830148B18B355A00EE703BE17</UserChecksum>
        </File>
        <File dnOrder="21">
          <Type dnOrder="0">HEADER</Type>
          <Name dnOrder="1">can.h</Name>
          <LogicalPath dnOrder="2">packs/ATSAMC21N18A_DFP/component/</LogicalPath>
          <PhysicalPath dnOrder="3">/../../packs/ATSAMC21N18A_DFP/component/</PhysicalPath>
          <GeneratedChecksum dnOrder="4">57B5234D18C333DBB79CDEB62F02656C</GeneratedChecksum>
          <UserChecksum dnOrder="5">57B5234D18C333DBB79CDEB62F02656C</UserChecksum>
        </File>
        <File dnOrder="22">
          <Type dnOrder="0">HEADER</Type>
          <Name dnOrder="1">ccl.h</Name>
          <LogicalPath dnOrder="2">packs/ATSAMC21N18A_DFP/component/</LogicalPath>
          <PhysicalPath dnOrder="3">/../../packs/ATSAMC21N18A_DFP/component/</PhysicalPath>
          <GeneratedChecksum dnOrder="4">77692D86D089561EC8753D04E682FDA0</GeneratedChecksum>
          <UserChecksum dnOrder="5">77692D86D089561EC8753D04E682FDA0</UserChecksum>
        </File>
        <File dnOrder="23">
          <Type dnOrder="0">HEADER</Type>
          <Name dnOrder="1">cmsis_compiler.h</Name>
          <LogicalPath dnOrder="2">packs/CMSIS/CMSIS/Core/Include/</LogicalPath>
          <PhysicalPath dnOrder="3">/../../packs/CMSIS/CMSIS/Core/Include/</PhysicalPath>
          <GeneratedChecksum dnOrder="4">365C5BBEA54A0D27134F48D8CA4CAF51</GeneratedChecksum>
          <UserChecksum dnOrder="5">365C5BBEA54A0D27134F48D8CA4CAF51</UserChecksum>
        </File>
        <File dnOrder="24">
          <Type dnOrder="0">HEADER</Type>
          <Name dnOrder="1">cmsis_gcc.h</Name>
          <LogicalPath dnOrder="2">packs/CMSIS/CMSIS/Core/Include/</LogicalPath>
          <PhysicalPath dnOrder="3">/../../packs/CMSIS/CMSIS/Core/Include/</PhysicalPath>
          <GeneratedChecksum dnOrder="4">84913DBF2CD848CDB8F892E2ADC7EE77</GeneratedChecksum>
          <UserChecksum dnOrder="5">84913DBF2CD848CDB8F892E2ADC7EE77</UserChecksum>
        </File>
        <File dnOrder="25">
          <Type dnOrder="0">HEADER</Type>
          <Name dnOrder="1">cmsis_iccarm.h</Name>
          <LogicalPath dnOrder="2">packs/CMSIS/CMSIS/Core/Include/</LogicalPath>
          <PhysicalPath dnOrder="3">/../../packs/CMSIS/CMSIS/Core/Include/</PhysicalPath>
          <GeneratedChecksum dnOrder="4">200BD202EF9D260096788CB11E4BBA43</GeneratedChecksum>
          <UserChecksum dnOrder="5">200BD202EF9D260096788CB11E4BBA43</UserChecksum>
        </File>
        <File dnOrder="26">
          <Type dnOrder="0">HEADER</Type>
          <Name dnOrder="1">cmsis_version.h</Name>
          <LogicalPath dnOrder="2">packs/CMSIS/CMSIS/Core/Include/</LogicalPath>
          <PhysicalPath dnOrder="3">/../../packs/CMSIS/CMSIS/Core/Include/</PhysicalPath>
          <GeneratedChecksum dnOrder="4">C0876654D46C4217FC4F3AE616901992</GeneratedChecksum>
          <UserChecksum dnOrder="5">C0876654D46C4217FC4F3AE616901992</UserChecksum>
        </File>
        <File dnOrder="27">
          <Type dnOrder="0">HEADER</Type>
          <Name dnOrder="1">core_cm0plus.h</Name>
          <LogicalPath dnOrder="2">packs/CMSIS/CMSIS/Core/Include/</LogicalPath>
          <PhysicalPath dnOrder="3">/../../packs/CMSIS/CMSIS/Core/Include/</PhysicalPath>
          <GeneratedChecksum dnOrder="4">63779BE6AD357096992A29D1F2B4A359</GeneratedChecksum>
          <UserChecksum dnOrder="5">63779BE6AD357096992A29D1F2B4A359</UserChecksum>
        </File>
        <File dnOrder="28">
          <Type dnOrder="0">HEADER</Type>
          <Name dnOrder="1">dac.h</Name>
          <LogicalPath dnOrder="2">packs/ATSAMC21N18A_DFP/component/</LogicalPath>
          <PhysicalPath dnOrder="3">/../../packs/ATSAMC21N18A_DFP/component/</PhysicalPath>
          <GeneratedChecksum dnOrder="4">2F0859F67EC77C30FADE73B708F990EE</GeneratedChecksum>
          <UserChecksum dnOrder="5">2F0859F67EC77C30FADE73B708F990EE</UserChecksum>
        </File>
        <File dnOrder="29">
          <Type dnOrder="0">HEADER</Type>
          <Name dnOrder="1">definitions.h</Name>
          <LogicalPath dnOrder="2">config/sam_c21n_xpro/</LogicalPath>
          <PhysicalPath dnOrder="3">/</PhysicalPath>
          <GeneratedChecksum dnOrder="4">7FAB31C233F40AF77BB0A04168D97A18</GeneratedChecksum>
          <UserChecksum dnOrder="5">7FAB31C233F40AF77BB0A04168D97A18</UserChecksum>
        </File>
        <File dnOrder="30">
          <Type dnOrder="0">HEADER</Type>
          <Name dnOrder="1">device.h</Name>
          <LogicalPath dnOrder="2">packs/ATSAMC21N18A_DFP/</LogicalPath>
          <PhysicalPath dnOrder="3">/../../packs/ATSAMC21N18A_DFP/</PhysicalPath>
          <GeneratedChecksum dnOrder="4">29A894DD4F98ABB5DDFBE8B326EBB0E7</GeneratedChecksum>
          <UserChecksum dnOrder="5">29A894DD4F98ABB5DDFBE8B326EBB0E7</UserChecksum>
        </File>
        <File dnOrder="31">
          <Type dnOrder="0">HEADER</Type>
          <Name dnOrder="1">device_cache.h</Name>
          <LogicalPath dnOrder="2">config/sam_c21n_xpro/</LogicalPath>
          <PhysicalPath dnOrder="3">/</PhysicalPath>
          <GeneratedChecksum dnOrder="4">9ED2219AFB6FDB7A6E9A066E468DAE8B</GeneratedChecksum>
          <UserChecksum dnOrder="5">9ED2219AFB6FDB7A6E9A066E468DAE8B</UserChecksum>
        </File>
        <File dnOrder="32">
          <Type dnOrder="0">HEADER</Type>
          <Name dnOrder="1">divas.h</Name>
          <LogicalPath dnOrder="2">packs/ATSAMC21N18A_DFP/component/</LogicalPath>
          <PhysicalPath dnOrder="3">/../../packs/ATSAMC21N18A_DFP/component/</PhysicalPath>
          <GeneratedChecksum dnOrder="4">4FBF69DEDAC0AD9DE68CEDDCF40BBD74</GeneratedChecksum>
          <UserChecksum dnOrder="5">4FBF69DEDAC0AD9DE68CEDDCF40BBD74</UserChecksum>
        </File>
        <File dnOrder="33">
          <Type dnOrder="0">HEADER</Type>
          <Name dnOrder="1">dmac.h</Name>
          <LogicalPath dnOrder="2">packs/ATSAMC21N18A_DFP/component/</LogicalPath>
          <PhysicalPath dnOrder="3">/../../packs/ATSAMC21N18A_DFP/component/</PhysicalPath>
          <GeneratedChecksum dnOrder="4">C91A64C57EABE58F87537106F227C2CF</GeneratedChecksum>
          <UserChecksum dnOrder="5">C91A64C57EABE58F87537106F227C2CF</UserChecksum>
        </File>
        <File dnOrder="34">
          <Type dnOrder="0">HEADER</Type>
          <Name dnOrder="1">dsu.h</Name>
          <LogicalPath dnOrder="2">packs/ATSAMC21N18A_DFP/component/</LogicalPath>
          <PhysicalPath dnOrder="3">/../../packs/ATSAMC21N18A_DFP/component/</PhysicalPath>
          <GeneratedChecksum dnOrder="4">F7709EC558FD82C93ED47A2154573E4D</GeneratedChecksum>
          <UserChecksum dnOrder="5">F7709EC558FD82C93ED47A2154573E4D</UserChecksum>
        </File>
        <File dnOrder="35">
          <Type dnOrder="0">HEADER</Type>
          <Name dnOrder="1">eic.h</Name>
          <LogicalPath dnOrder="2">packs/ATSAMC21N18A_DFP/component/</LogicalPath>
          <PhysicalPath dnOrder="3">/../../packs/ATSAMC21N18A_DFP/component/</PhysicalPath>
          <GeneratedChecksum dnOrder="4">A562F08205F50E33E523F9EA217B2364</GeneratedChecksum>
          <UserChecksum dnOrder="5">A562F08205F50E33E523F9EA217B2364</UserChecksum>
        </File>
        <File dnOrder="36">
          <Type dnOrder="0">HEADER</Type>
          <Name dnOrder="1">evsys.h</Name>
          <LogicalPath dnOrder="2">packs/ATSAMC21N18A_DFP/component/</LogicalPath>
          <PhysicalPath dnOrder="3">/../../packs/ATSAMC21N18A_DFP/component/</PhysicalPath>
          <GeneratedChecksum dnOrder="4">F0B42A916C33C54EF29A31B2C75C9963</GeneratedChecksum>
          <UserChecksum dnOrder="5">F0B42A916C33C54EF29A31B2C75C9963</UserChecksum>
        </File>
        <File dnOrder="37">
          <Type dnOrder="0">HEADER</Type>
          <Name dnOrder="1">freqm.h</Name>
          <LogicalPath dnOrder="2">packs/ATSAMC21N18A_DFP/component/</LogicalPath>
          <PhysicalPath dnOrder="3">/../../packs/ATSAMC21N18A_DFP/component/</PhysicalPath>
          <GeneratedChecksum dnOrder="4">E1AA8A50B3057DB42B87CD9158F646BB</GeneratedChecksum>
          <UserChecksum dnOrder="5">E1AA8A50B3057DB42B87CD9158F646BB</UserChecksum>
        </File>
        <File dnOrder="38">
          <Type dnOrder="0">HEADER</Type>
          <Name dnOrder="1">gclk.h</Name>
          <LogicalPath dnOrder="2">packs/ATSAMC21N18A_DFP/component/</LogicalPath>
          <PhysicalPath dnOrder="3">/../../packs/ATSAMC21N18A_DFP/component/</PhysicalPath>
          <GeneratedChecksum dnOrder="4">97411C82FA74CC511D1A7ABF42888CF2</GeneratedChecksum>
          <UserChecksum dnOrder="5">97411C82FA74CC511D1A7ABF42888CF2</UserChecksum>
        </File>
        <File dnOrder="39">
          <Type dnOrder="0">HEADER</Type>
          <Name dnOrder="1">hmatrixb.h</Name>
          <LogicalPath dnOrder="2">packs/ATSAMC21N18A_DFP/component/</LogicalPath>
          <PhysicalPath dnOrder="3">/../../packs/ATSAMC21N18A_DFP/component/</PhysicalPath>
          <GeneratedChecksum dnOrder="4">4A6A8AF844FA3732BD6C437230E0DF26</GeneratedChecksum>
          <UserChecksum dnOrder="5">4A6A8AF844FA3732BD6C437230E0DF26</UserChecksum>
        </File>
        <File dnOrder="40">
          <Type dnOrder="0">HEADER</Type>
          <Name dnOrder="1">mclk.h</Name>
          <LogicalPath dnOrder="2">packs/ATSAMC21N18A_DFP/component/</LogicalPath>
          <PhysicalPath dnOrder="3">/../../packs/ATSAMC21N18A_DFP/component/</PhysicalPath>
          <GeneratedChecksum dnOrder="4">6BCEC3E7AEECBA4C23528A517284416C</GeneratedChecksum>
          <UserChecksum dnOrder="5">6BCEC3E7AEECBA4C23528A517284416C</UserChecksum>
        </File>
        <File dnOrder="41">
          <Type dnOrder="0">HEADER</Type>
          <Name dnOrder="1">mpu_armv7.h</Name>
          <LogicalPath dnOrder="2">packs/CMSIS/CMSIS/Core/Include/</LogicalPath>
          <PhysicalPath dnOrder="3">/../../packs/CMSIS/CMSIS/Core/Include/</PhysicalPath>
          <GeneratedChecksum dnOrder="4">A0246C3B848A6A45D54CE5DA8DF3B9C8</GeneratedChecksum>
          <UserChecksum dnOrder="5">A0246C3B848A6A45D54CE5DA8DF3B9C8</UserChecksum>
        </File>
        <File dnOrder="42">
          <Type dnOrder="0">HEADER</Type>
          <Name dnOrder="1">mtb.h</Name>
          <LogicalPath dnOrder="2">packs/ATSAMC21N18A_DFP/component/</LogicalPath>
          <PhysicalPath dnOrder="3">/../../packs/ATSAMC21N18A_DFP/component/</PhysicalPath>
          <GeneratedChecksum dnOrder="4">09B30E10414E2CBDDF88401E4D44FA8B</GeneratedChecksum>
          <UserChecksum dnOrder="5">09B30E10414E2CBDDF88401E4D44FA8B</UserChecksum>
        </File>
        <File dnOrder="43">
          <Type dnOrder="0">HEADER</Type>
          <Name dnOrder="1">nvmctrl.h</Name>
          <LogicalPath dnOrder="2">packs/ATSAMC21N18A_DFP/component/</LogicalPath>
          <PhysicalPath dnOrder="3">/../../packs/ATSAMC21N18A_DFP/component/</PhysicalPath>
          <GeneratedChecksum dnOrder="4">31EF6054F317EE35FADB66F53E8D45E0</GeneratedChecksum>
          <UserChecksum dnOrder="5">31EF6054F317EE35FADB66F53E8D45E0</UserChecksum>
        </File>
        <File dnOrder="44">
          <Type dnOrder="0">HEADER</Type>
          <Name dnOrder="1">osc32kctrl.h</Name>
          <LogicalPath dnOrder="2">packs/ATSAMC21N18A_DFP/component/</LogicalPath>
          <PhysicalPath dnOrder="3">/../../packs/ATSAMC21N18A_DFP/component/</PhysicalPath>
          <GeneratedChecksum dnOrder="4">E02984CF632A72D9BE561754404ECF74</GeneratedChecksum>
          <UserChecksum dnOrder="5">E02984CF632A72D9BE561754404ECF74</UserChecksum>
        </File>
        <File dnOrder="45">
          <Type dnOrder="0">HEADER</Type>
          <Name dnOrder="1">oscctrl.h</Name>
          <LogicalPath dnOrder="2">packs/ATSAMC21N18A_DFP/component/</LogicalPath>
          <PhysicalPath dnOrder="3">/../../packs/ATSAMC21N18A_DFP/component/</PhysicalPath>
          <GeneratedChecksum dnOrder="4">5087B01604ABE59337E39B94AA3B7020</GeneratedChecksum>
          <UserChecksum dnOrder="5">5087B01604ABE59337E39B94AA3B7020</UserChecksum>
        </File>
        <File dnOrder="46">
          <Type dnOrder="0">HEADER</Type>
          <Name dnOrder="1">pac.h</Name>
          <LogicalPath dnOrder="2">packs/ATSAMC21N18A_DFP/component/</LogicalPath>
          <PhysicalPath dnOrder="3">/../../packs/ATSAMC21N18A_DFP/component/</PhysicalPath>
          <GeneratedChecksum dnOrder="4">4DEA9CE93BE7DF95A03ADCDFE3825246</GeneratedChecksum>
          <UserChecksum dnOrder="5">4DEA9CE93BE7DF95A03ADCDFE3825246</UserChecksum>
        </File>
        <File dnOrder="47">
          <Type dnOrder="0">HEADER</Type>
          <Name dnOrder="1">plib_clock.h</Name>
          <LogicalPath dnOrder="2">config/sam_c21n_xpro/peripheral/clock/</LogicalPath>
          <PhysicalPath dnOrder="3">/peripheral/clock/</PhysicalPath>
          <GeneratedChecksum dnOrder="4">0416F129713FDF989ACC1FC57065125C</GeneratedChecksum>
          <UserChecksum dnOrder="5">0416F129713FDF989ACC1FC57065125C</UserChecksum>
        </File>
        <File dnOrder="48">
          <Type dnOrder="0">HEADER</Type>
          <Name dnOrder="1">plib_dac.h</Name>
          <LogicalPath dnOrder="2">config/sam_c21n_xpro/peripheral/dac/</LogicalPath>
          <PhysicalPath dnOrder="3">/peripheral/dac/</PhysicalPath>
          <GeneratedChecksum dnOrder="4">C8003040760D24C552F23C2E260A0786</GeneratedChecksum>
          <UserChecksum dnOrder="5">C8003040760D24C552F23C2E260A0786</UserChecksum>
        </File>
        <File dnOrder="49">
          <Type dnOrder="0">HEADER</Type>
          <Name dnOrder="1">plib_eic.h</Name>
          <LogicalPath dnOrder="2">config/sam_c21n_xpro/peripheral/eic/</LogicalPath>
          <PhysicalPath dnOrder="3">/peripheral/eic/</PhysicalPath>
          <GeneratedChecksum dnOrder="4">FD65B2BA9404568F871ACF2F1E620C11</GeneratedChecksum>
          <UserChecksum dnOrder="5">FD65B2BA9404568F871ACF2F1E620C11</UserChecksum>
        </File>
        <File dnOrder="50">
          <Type dnOrder="0">HEADER</Type>
          <Name dnOrder="1">plib_evsys.h</Name>
          <LogicalPath dnOrder="2">config/sam_c21n_xpro/peripheral/evsys</LogicalPath>
          <PhysicalPath dnOrder="3">/peripheral/evsys/</PhysicalPath>
          <GeneratedChecksum dnOrder="4">CCAEF942C66AF995876DFD85CEFF611F</GeneratedChecksum>
          <UserChecksum dnOrder="5">CCAEF942C66AF995876DFD85CEFF611F</UserChecksum>
        </File>
        <File dnOrder="51">
          <Type dnOrder="0">HEADER</Type>
          <Name dnOrder="1">plib_nvic.h</Name>
          <LogicalPath dnOrder="2">config/sam_c21n_xpro/peripheral/nvic/</LogicalPath>
          <PhysicalPath dnOrder="3">/peripheral/nvic/</PhysicalPath>
          <GeneratedChecksum dnOrder="4">E95AB23B866AA0CE6F0ABF637E9E2C83</GeneratedChecksum>
          <UserChecksum dnOrder="5">E95AB23B866AA0CE6F0ABF637E9E2C83</UserChecksum>
        </File>
        <File dnOrder="52">
          <Type dnOrder="0">HEADER</Type>
          <Name dnOrder="1">plib_nvmctrl.h</Name>
          <LogicalPath dnOrder="2">config/sam_c21n_xpro/peripheral/nvmctrl/</LogicalPath>
          <PhysicalPath dnOrder="3">/peripheral/nvmctrl/</PhysicalPath>
          <GeneratedChecksum dnOrder="4">E94C2F2827F3CB08C565ADF200C747B6</GeneratedChecksum>
          <UserChecksum dnOrder="5">E94C2F2827F3CB08C565ADF200C747B6</UserChecksum>
        </File>
        <File dnOrder="53">
          <Type dnOrder="0">HEADER</Type>
          <Name dnOrder="1">plib_port.h</Name>
          <LogicalPath dnOrder="2">config/sam_c21n_xpro/peripheral/port/</LogicalPath>
          <PhysicalPath dnOrder="3">/peripheral/port/</PhysicalPath>
          <GeneratedChecksum dnOrder="4">CF296F1C0F2D46E3E0DA307E5E3DEDF2</GeneratedChecksum>
          <UserChecksum dnOrder="5">CF296F1C0F2D46E3E0DA307E5E3DEDF2</UserChecksum>
        </File>
        <File dnOrder="54">
          <Type dnOrder="0">HEADER</Type>
          <Name dnOrder="1">plib_tc0.h</Name>
          <LogicalPath dnOrder="2">config/sam_c21n_xpro/peripheral/tc/</LogicalPath>
          <PhysicalPath dnOrder="3">/peripheral/tc/</PhysicalPath>
          <GeneratedChecksum dnOrder="4">616736CF4B65DE75C0CB3CDA7F10AFA7</GeneratedChecksum>
          <UserChecksum dnOrder="5">616736CF4B65DE75C0CB3CDA7F10AFA7</UserChecksum>
        </File>
        <File dnOrder="55">
          <Type dnOrder="0">HEADER</Type>
          <Name dnOrder="1">plib_tc_common.h</Name>
          <LogicalPath dnOrder="2">config/sam_c21n_xpro/peripheral/tc/</LogicalPath>
          <PhysicalPath dnOrder="3">/peripheral/tc/</PhysicalPath>
          <GeneratedChecksum dnOrder="4">8FFED42979E9560DBD315A966A8D551E</GeneratedChecksum>
          <UserChecksum dnOrder="5">8FFED42979E9560DBD315A966A8D551E</UserChecksum>
        </File>
        <File dnOrder="56">
          <Type dnOrder="0">HEADER</Type>
          <Name dnOrder="1">pm.h</Name>
          <LogicalPath dnOrder="2">packs/ATSAMC21N18A_DFP/component/</LogicalPath>
          <PhysicalPath dnOrder="3">/../../packs/ATSAMC21N18A_DFP/component/</PhysicalPath>
          <GeneratedChecksum dnOrder="4">D22FB406C47E6024A41B8EF421C88E9E</GeneratedChecksum>
          <UserChecksum dnOrder="5">D22FB406C47E6024A41B8EF421C88E9E</UserChecksum>
        </File>
        <File dnOrder="57">
          <Type dnOrder="0">HEADER</Type>
          <Name dnOrder="1">port.h</Name>
          <LogicalPath dnOrder="2">packs/ATSAMC21N18A_DFP/component/</LogicalPath>
          <PhysicalPath dnOrder="3">/../../packs/ATSAMC21N18A_DFP/component/</PhysicalPath>
          <GeneratedChecksum dnOrder="4">2025A352D6D7ABF743046017C8CCB773</GeneratedChecksum>
          <UserChecksum dnOrder="5">2025A352D6D7ABF743046017C8CCB773</UserChecksum>
        </File>
        <File dnOrder="58">
          <Type dnOrder="0">HEADER</Type>
          <Name dnOrder="1">ptc.h</Name>
          <LogicalPath dnOrder="2">packs/ATSAMC21N18A_DFP/component/</LogicalPath>
          <PhysicalPath dnOrder="3">/../../packs/ATSAMC21N18A_DFP/component/</PhysicalPath>
          <GeneratedChecksum dnOrder="4">213A57D4FE81AE3C2A26D954FFDAE1EB</GeneratedChecksum>
          <UserChecksum dnOrder="5">213A57D4FE81AE3C2A26D954FFDAE1EB</UserChecksum>
        </File>
        <File dnOrder="59">
          <Type dnOrder="0">HEADER</Type>
          <Name dnOrder="1">rstc.h</Name>
          <LogicalPath dnOrder="2">packs/ATSAMC21N18A_DFP/component/</LogicalPath>
          <PhysicalPath dnOrder="3">/../../packs/ATSAMC21N18A_DFP/component/</PhysicalPath>
          <GeneratedChecksum dnOrder="4">DB68B5A783063DE8B09B853E6C6C3B52</GeneratedChecksum>
          <UserChecksum dnOrder="5">DB68B5A783063DE8B09B853E6C6C3B52</UserChecksum>
        </File>
        <File dnOrder="60">
          <Type dnOrder="0">HEADER</Type>
          <Name dnOrder="1">rtc.h</Name>
          <LogicalPath dnOrder="2">packs/ATSAMC21N18A_DFP/component/</LogicalPath>
          <PhysicalPath dnOrder="3">/../../packs/ATSAMC21N18A_DFP/component/</PhysicalPath>
          <GeneratedChecksum dnOrder="4">73F89942A8CC91056E2BC2425A80FA95</GeneratedChecksum>
          <UserChecksum dnOrder="5">73F89942A8CC91056E2BC2425A80FA95</UserChecksum>
        </File>
        <File dnOrder="61">
          <Type dnOrder="0">HEADER</Type>
          <Name dnOrder="1">samc21n18a.h</Name>
          <LogicalPath dnOrder="2">packs/ATSAMC21N18A_DFP/pio/</LogicalPath>
          <PhysicalPath dnOrder="3">/../../packs/ATSAMC21N18A_DFP/pio/</PhysicalPath>
          <GeneratedChecksum dnOrder="4">704118CCF02714249D89B994F43BD87F</GeneratedChecksum>
          <UserChecksum dnOrder="5">704118CCF02714249D89B994F43BD87F</UserChecksum>
        </File>
        <File dnOrder="62">
          <Type dnOrder="0">HEADER</Type>
          <Name dnOrder="1">sdadc.h</Name>
          <LogicalPath dnOrder="2">packs/ATSAMC21N18A_DFP/component/</LogicalPath>
          <PhysicalPath dnOrder="3">/../../packs/ATSAMC21N18A_DFP/component/</PhysicalPath>
          <GeneratedChecksum dnOrder="4">62C8141571E423EC059B661551A43728</GeneratedChecksum>
          <UserChecksum dnOrder="5">62C8141571E423EC059B661551A43728</UserChecksum>
        </File>
        <File dnOrder="63">
          <Type dnOrder="0">HEADER</Type>
          <Name dnOrder="1">sercom.h</Name>
          <LogicalPath dnOrder="2">packs/ATSAMC21N18A_DFP/component/</LogicalPath>
          <PhysicalPath dnOrder="3">/../../packs/ATSAMC21N18A_DFP/component/</PhysicalPath>
          <GeneratedChecksum dnOrder="4">15B430C039322F1CE673299F2BA16A77</GeneratedChecksum>
          <UserChecksum dnOrder="5">15B430C039322F1CE673299F2BA16A77</UserChecksum>
        </File>
        <File dnOrder="64">
          <Type dnOrder="0">HEADER</Type>
          <Name dnOrder="1">supc.h</Name>
          <LogicalPath dnOrder="2">packs/ATSAMC21N18A_DFP/component/</LogicalPath>
          <PhysicalPath dnOrder="3">/../../packs/ATSAMC21N18A_DFP/component/</PhysicalPath>
          <GeneratedChecksum dnOrder="4">D735D1E4FAE11192ED39F6D18AEDBABB</GeneratedChecksum>
          <UserChecksum dnOrder="5">D735D1E4FAE11192ED39F6D18AEDBABB</UserChecksum>
        </File>
        <File dnOrder="65">
          <Type dnOrder="0">HEADER</Type>
          <Name dnOrder="1">tc.h</Name>
          <LogicalPath dnOrder="2">packs/ATSAMC21N18A_DFP/component/</LogicalPath>
          <PhysicalPath dnOrder="3">/../../packs/ATSAMC21N18A_DFP/component/</PhysicalPath>
          <GeneratedChecksum dnOrder="4">0DB33A4D2628B70E94AA10CB4FFE2800</GeneratedChecksum>
          <UserChecksum dnOrder="5">0DB33A4D2628B70E94AA10CB4FFE2800</UserChecksum>
        </File>
        <File dnOrder="66">
          <Type dnOrder="0">HEADER</Type>
          <Name dnOrder="1">tcc.h</Name>
          <LogicalPath dnOrder="2">packs/ATSAMC21N18A_DFP/component/</LogicalPath>
          <PhysicalPath dnOrder="3">/../../packs/ATSAMC21N18A_DFP/component/</PhysicalPath>
          <GeneratedChecksum dnOrder="4">79B26E4FFF6C848648E5D0A809789194</GeneratedChecksum>
          <UserChecksum dnOrder="5">79B26E4FFF6C848648E5D0A809789194</UserChecksum>
        </File>
        <File dnOrder="67">
          <Type dnOrder="0">HEADER</Type>
          <Name dnOrder="1">toolchain_specifics.h</Name>
          <LogicalPath dnOrder="2">config/sam_c21n_xpro/</LogicalPath>
          <PhysicalPath dnOrder="3">/</PhysicalPath>
          <GeneratedChecksum dnOrder="4">4F3C5B6A299E310404C004FB60312B4A</GeneratedChecksum>
          <UserChecksum dnOrder="5">4F3C5B6A299E310404C004FB60312B4A</UserChecksum>
        </File>
        <File dnOrder="68">
          <Type dnOrder="0">HEADER</Type>
          <Name dnOrder="1">tsens.h</Name>
          <LogicalPath dnOrder="2">packs/ATSAMC21N18A_DFP/component/</LogicalPath>
          <PhysicalPath dnOrder="3">/../../packs/ATSAMC21N18A_DFP/component/</PhysicalPath>
          <GeneratedChecksum dnOrder="4">26397CB03E5478FE0E55E6110111235E</GeneratedChecksum>
          <UserChecksum dnOrder="5">26397CB03E5478FE0E55E6110111235E</UserChecksum>
        </File>
        <File dnOrder="69">
          <Type dnOrder="0">HEADER</Type>
          <Name dnOrder="1">tz_context.h</Name>
          <LogicalPath dnOrder="2">packs/CMSIS/CMSIS/Core/Include/</LogicalPath>
          <PhysicalPath dnOrder="3">/../../packs/CMSIS/CMSIS/Core/Include/</PhysicalPath>
          <GeneratedChecksum dnOrder="4">8710F2682DA1C97558850902DABA38BA</GeneratedChecksum>
          <UserChecksum dnOrder="5">8710F2682DA1C97558850902DABA38BA</UserChecksum>
        </File>
        <File dnOrder="70">
          <Type dnOrder="0">HEADER</Type>
          <Name dnOrder="1">wdt.h</Name>
          <LogicalPath dnOrder="2">packs/ATSAMC21N18A_DFP/component/</LogicalPath>
          <PhysicalPath dnOrder="3">/../../packs/ATSAMC21N18A_DFP/component/</PhysicalPath>
          <GeneratedChecksum dnOrder="4">8F41FDF0D9A9DDA3AC47D3D3F9E2FA94</GeneratedChecksum>
          <UserChecksum dnOrder="5">8F41FDF0D9A9DDA3AC47D3D3F9E2FA94</UserChecksum>
        </File>
      </Files>
      <Settings dnOrder="1">
        <Setting append="true" category="C32" delimiter=";" dnOrder="0" key="extra-include-directories" value="../src;../src/config/sam_c21n_xpro;../src/packs/ATSAMC21N18A_DFP;../src/packs/CMSIS/CMSIS/Core/Include;../src/packs/CMSIS/;../src/arm"/>
        <Setting category="C32-LD" dnOrder="1" key="heap-size" value="512"/>
        <Setting category="C32-LD" dnOrder="2" key="no-device-startup-code" value="true"/>
        <Setting category="C32-LD" dnOrder="3" key="preprocessor-macros" value=""/>
      </Settings>
    </Manifest>
    <Settings dnOrder="4">
      <Setting dnOrder="0" key="CMSISPath" value=".\dev_packs\arm\CMSIS\5.5.1"/>
      <Setting dnOrder="1" key="DFPPath" value=".\dev_packs\Microchip\SAMC21_DFP\3.0.26\samc21n\atdf\ATSAMC21N18A.atdf"/>
      <Setting dnOrder="2" key="FORCE_OPTIMIZATION" value="false"/>
      <Setting dnOrder="3" key="GENERATE_BACKUP" value="true"/>
      <Setting dnOrder="4" key="MERGE_STRATEGY" value="USER_ALL"/>
      <Setting dnOrder="5" key="PackageFilter" value="csp;"/>
    </Settings>
  </Configurator>
</Configuration>
