<?xml version="1.0" encoding="UTF-8" standalone="no"?>
<Configuration>
  <Configurator>
    <Name dnOrder="0" value="sam_e54_xpro"/>
    <Processor dnOrder="1" value="ATSAME54P20A"/>
    <Harmony dnOrder="2" path="../../../.."/>
    <Manifest dnOrder="3">
      <Files dnOrder="0">
        <File dnOrder="0">
          <Type dnOrder="0">SOURCE</Type>
          <Name dnOrder="1">exceptions.c</Name>
          <LogicalPath dnOrder="2">config/sam_e54_xpro/</LogicalPath>
          <PhysicalPath dnOrder="3">/</PhysicalPath>
          <GeneratedChecksum dnOrder="4">3C64B0B744B67F634A4B2C0AF49B32A8</GeneratedChecksum>
          <UserChecksum dnOrder="5">3C64B0B744B67F634A4B2C0AF49B32A8</UserChecksum>
        </File>
        <File dnOrder="1">
          <Type dnOrder="0">SOURCE</Type>
          <Name dnOrder="1">initialization.c</Name>
          <LogicalPath dnOrder="2">config/sam_e54_xpro/</LogicalPath>
          <PhysicalPath dnOrder="3">/</PhysicalPath>
          <GeneratedChecksum dnOrder="4">F78CF32CD8402974C0A94F4F788C5CF6</GeneratedChecksum>
          <UserChecksum dnOrder="5">F78CF32CD8402974C0A94F4F788C5CF6</UserChecksum>
        </File>
        <File dnOrder="2">
          <Type dnOrder="0">SOURCE</Type>
          <Name dnOrder="1">interrupts.c</Name>
          <LogicalPath dnOrder="2">config/sam_e54_xpro/</LogicalPath>
          <PhysicalPath dnOrder="3">/</PhysicalPath>
          <GeneratedChecksum dnOrder="4">757FB04D049CC9EB29434D4B60EC429C</GeneratedChecksum>
          <UserChecksum dnOrder="5">757FB04D049CC9EB29434D4B60EC429C</UserChecksum>
        </File>
        <File dnOrder="3">
          <Type dnOrder="0">SOURCE</Type>
          <Name dnOrder="1">libc_syscalls.c</Name>
          <LogicalPath dnOrder="2">config/sam_e54_xpro/</LogicalPath>
          <PhysicalPath dnOrder="3">/</PhysicalPath>
          <GeneratedChecksum dnOrder="4">0D061464696B9E5D276A90A352736879</GeneratedChecksum>
          <UserChecksum dnOrder="5">0D061464696B9E5D276A90A352736879</UserChecksum>
        </File>
        <File dnOrder="4">
          <Type dnOrder="0">SOURCE</Type>
          <Name dnOrder="1">main_e54.c</Name>
          <LogicalPath dnOrder="2"/>
          <PhysicalPath dnOrder="3">/../../</PhysicalPath>
          <GeneratedChecksum dnOrder="4"/>
          <UserChecksum dnOrder="5"/>
        </File>
        <File dnOrder="5">
          <Type dnOrder="0">SOURCE</Type>
          <Name dnOrder="1">plib_clock.c</Name>
          <LogicalPath dnOrder="2">config/sam_e54_xpro/peripheral/clock/</LogicalPath>
          <PhysicalPath dnOrder="3">/peripheral/clock/</PhysicalPath>
          <GeneratedChecksum dnOrder="4">435FB5C6BC813CEF61B32EF42960EE6D</GeneratedChecksum>
          <UserChecksum dnOrder="5">435FB5C6BC813CEF61B32EF42960EE6D</UserChecksum>
        </File>
        <File dnOrder="6">
          <Type dnOrder="0">SOURCE</Type>
          <Name dnOrder="1">plib_cmcc.c</Name>
          <LogicalPath dnOrder="2">config/sam_e54_xpro/peripheral/cmcc/</LogicalPath>
          <PhysicalPath dnOrder="3">/peripheral/cmcc/</PhysicalPath>
          <GeneratedChecksum dnOrder="4">FD8CCFC86D63BF1AC9F15EBA909D181D</GeneratedChecksum>
          <UserChecksum dnOrder="5">FD8CCFC86D63BF1AC9F15EBA909D181D</UserChecksum>
        </File>
        <File dnOrder="7">
          <Type dnOrder="0">SOURCE</Type>
          <Name dnOrder="1">plib_evsys.c</Name>
          <LogicalPath dnOrder="2">config/sam_e54_xpro/peripheral/evsys</LogicalPath>
          <PhysicalPath dnOrder="3">/peripheral/evsys/</PhysicalPath>
          <GeneratedChecksum dnOrder="4">C99E6D9B9BA371EA749B7DC16BC2C209</GeneratedChecksum>
          <UserChecksum dnOrder="5">C99E6D9B9BA371EA749B7DC16BC2C209</UserChecksum>
        </File>
        <File dnOrder="8">
          <Type dnOrder="0">SOURCE</Type>
          <Name dnOrder="1">plib_nvic.c</Name>
          <LogicalPath dnOrder="2">config/sam_e54_xpro/peripheral/nvic/</LogicalPath>
          <PhysicalPath dnOrder="3">/peripheral/nvic/</PhysicalPath>
          <GeneratedChecksum dnOrder="4">FF7C695D795EE99604729FC4BC2D9996</GeneratedChecksum>
          <UserChecksum dnOrder="5">FF7C695D795EE99604729FC4BC2D9996</UserChecksum>
        </File>
        <File dnOrder="9">
          <Type dnOrder="0">SOURCE</Type>
          <Name dnOrder="1">plib_nvmctrl.c</Name>
          <LogicalPath dnOrder="2">config/sam_e54_xpro/peripheral/nvmctrl/</LogicalPath>
          <PhysicalPath dnOrder="3">/peripheral/nvmctrl/</PhysicalPath>
          <GeneratedChecksum dnOrder="4">4D87AA590411EFCF464FFED838D01C7B</GeneratedChecksum>
          <UserChecksum dnOrder="5">4D87AA590411EFCF464FFED838D01C7B</UserChecksum>
        </File>
        <File dnOrder="10">
          <Type dnOrder="0">SOURCE</Type>
          <Name dnOrder="1">plib_port.c</Name>
          <LogicalPath dnOrder="2">config/sam_e54_xpro/peripheral/port/</LogicalPath>
          <PhysicalPath dnOrder="3">/peripheral/port/</PhysicalPath>
          <GeneratedChecksum dnOrder="4">D98E63D1159D539A31ABF55C1DD01DC4</GeneratedChecksum>
          <UserChecksum dnOrder="5">D98E63D1159D539A31ABF55C1DD01DC4</UserChecksum>
        </File>
        <File dnOrder="11">
          <Type dnOrder="0">SOURCE</Type>
          <Name dnOrder="1">plib_tc0.c</Name>
          <LogicalPath dnOrder="2">config/sam_e54_xpro/peripheral/tc/</LogicalPath>
          <PhysicalPath dnOrder="3">/peripheral/tc/</PhysicalPath>
          <GeneratedChecksum dnOrder="4">80109AE3BB29DC7B24D3F44EADF7F811</GeneratedChecksum>
          <UserChecksum dnOrder="5">80109AE3BB29DC7B24D3F44EADF7F811</UserChecksum>
        </File>
        <File dnOrder="12">
          <Type dnOrder="0">SOURCE</Type>
          <Name dnOrder="1">startup_xc32.c</Name>
          <LogicalPath dnOrder="2">config/sam_e54_xpro/</LogicalPath>
          <PhysicalPath dnOrder="3">/</PhysicalPath>
          <GeneratedChecksum dnOrder="4">DE05C76F60A7F484385BC57EA7A9E728</GeneratedChecksum>
          <UserChecksum dnOrder="5">DE05C76F60A7F484385BC57EA7A9E728</UserChecksum>
        </File>
        <File dnOrder="13">
          <Type dnOrder="0">SOURCE</Type>
          <Name dnOrder="1">xc32_monitor.c</Name>
          <LogicalPath dnOrder="2">config/sam_e54_xpro/stdio/</LogicalPath>
          <PhysicalPath dnOrder="3">/stdio/</PhysicalPath>
          <GeneratedChecksum dnOrder="4">0CDCE9B6891797FCD2AEA243F841353F</GeneratedChecksum>
          <UserChecksum dnOrder="5">0CDCE9B6891797FCD2AEA243F841353F</UserChecksum>
        </File>
        <File dnOrder="14">
          <Type dnOrder="0">HEADER</Type>
          <Name dnOrder="1">ac.h</Name>
          <LogicalPath dnOrder="2">packs/ATSAME54P20A_DFP/component/</LogicalPath>
          <PhysicalPath dnOrder="3">/../../packs/ATSAME54P20A_DFP/component/</PhysicalPath>
          <GeneratedChecksum dnOrder="4">5FDC4E625663D9463D10545A5C4B5037</GeneratedChecksum>
          <UserChecksum dnOrder="5">5FDC4E625663D9463D10545A5C4B5037</UserChecksum>
        </File>
        <File dnOrder="15">
          <Type dnOrder="0">HEADER</Type>
          <Name dnOrder="1">adc.h</Name>
          <LogicalPath dnOrder="2">packs/ATSAME54P20A_DFP/component/</LogicalPath>
          <PhysicalPath dnOrder="3">/../../packs/ATSAME54P20A_DFP/component/</PhysicalPath>
          <GeneratedChecksum dnOrder="4">AFD9CD33D82587E763FD88EAF4A6368B</GeneratedChecksum>
          <UserChecksum dnOrder="5">AFD9CD33D82587E763FD88EAF4A6368B</UserChecksum>
        </File>
        <File dnOrder="16">
          <Type dnOrder="0">HEADER</Type>
          <Name dnOrder="1">aes.h</Name>
          <LogicalPath dnOrder="2">packs/ATSAME54P20A_DFP/component/</LogicalPath>
          <PhysicalPath dnOrder="3">/../../packs/ATSAME54P20A_DFP/component/</PhysicalPath>
          <GeneratedChecksum dnOrder="4">7079002CD65660B86C9021AEE8205109</GeneratedChecksum>
          <UserChecksum dnOrder="5">7079002CD65660B86C9021AEE8205109</UserChecksum>
        </File>
        <File dnOrder="17">
          <Type dnOrder="0">HEADER</Type>
          <Name dnOrder="1">arm_common_tables.h</Name>
          <LogicalPath dnOrder="2">packs/CMSIS/CMSIS/DSP/Include/</LogicalPath>
          <PhysicalPath dnOrder="3">/../../packs/CMSIS/CMSIS/DSP/Include/</PhysicalPath>
          <GeneratedChecksum dnOrder="4">ECE7DC494F56CE01D96DE918E61B7C02</GeneratedChecksum>
          <UserChecksum dnOrder="5">ECE7DC494F56CE01D96DE918E61B7C02</UserChecksum>
        </File>
        <File dnOrder="18">
          <Type dnOrder="0">HEADER</Type>
          <Name dnOrder="1">arm_const_structs.h</Name>
          <LogicalPath dnOrder="2">packs/CMSIS/CMSIS/DSP/Include/</LogicalPath>
          <PhysicalPath dnOrder="3">/../../packs/CMSIS/CMSIS/DSP/Include/</PhysicalPath>
          <GeneratedChecksum dnOrder="4">B99479A6A9F72E72C614DB59601DC762</GeneratedChecksum>
          <UserChecksum dnOrder="5">B99479A6A9F72E72C614DB59601DC762</UserChecksum>
        </File>
        <File dnOrder="19">
          <Type dnOrder="0">HEADER</Type>
          <Name dnOrder="1">arm_math.h</Name>
          <LogicalPath dnOrder="2">packs/CMSIS/CMSIS/DSP/Include/</LogicalPath>
          <PhysicalPath dnOrder="3">/../../packs/CMSIS/CMSIS/DSP/Include/</PhysicalPath>
          <GeneratedChecksum dnOrder="4">4726F6E7A3CDEDAE6075A88F3D16F093</GeneratedChecksum>
          <UserChecksum dnOrder="5">4726F6E7A3CDEDAE6075A88F3D16F093</UserChecksum>
        </File>
        <File dnOrder="20">
          <Type dnOrder="0">HEADER</Type>
          <Name dnOrder="1">atsame54p20a.h</Name>
          <LogicalPath dnOrder="2">packs/ATSAME54P20A_DFP/</LogicalPath>
          <PhysicalPath dnOrder="3">/../../packs/ATSAME54P20A_DFP/</PhysicalPath>
          <GeneratedChecksum dnOrder="4">14E6AE1C3F808822C2BA8472AD5B96B8</GeneratedChecksum>
          <UserChecksum dnOrder="5">14E6AE1C3F808822C2BA8472AD5B96B8</UserChecksum>
        </File>
        <File dnOrder="21">
          <Type dnOrder="0">HEADER</Type>
          <Name dnOrder="1">can.h</Name>
          <LogicalPath dnOrder="2">packs/ATSAME54P20A_DFP/component/</LogicalPath>
          <PhysicalPath dnOrder="3">/../../packs/ATSAME54P20A_DFP/component/</PhysicalPath>
          <GeneratedChecksum dnOrder="4">FD3FF3F0A0AA3DEDF2028A54BD5E1D04</GeneratedChecksum>
          <UserChecksum dnOrder="5">FD3FF3F0A0AA3DEDF2028A54BD5E1D04</UserChecksum>
        </File>
        <File dnOrder="22">
          <Type dnOrder="0">HEADER</Type>
          <Name dnOrder="1">ccl.h</Name>
          <LogicalPath dnOrder="2">packs/ATSAME54P20A_DFP/component/</LogicalPath>
          <PhysicalPath dnOrder="3">/../../packs/ATSAME54P20A_DFP/component/</PhysicalPath>
          <GeneratedChecksum dnOrder="4">1CCDE05C92ECAB8665EB80FA3ACFCB84</GeneratedChecksum>
          <UserChecksum dnOrder="5">1CCDE05C92ECAB8665EB80FA3ACFCB84</UserChecksum>
        </File>
        <File dnOrder="23">
          <Type dnOrder="0">HEADER</Type>
          <Name dnOrder="1">cmcc.h</Name>
          <LogicalPath dnOrder="2">packs/ATSAME54P20A_DFP/component/</LogicalPath>
          <PhysicalPath dnOrder="3">/../../packs/ATSAME54P20A_DFP/component/</PhysicalPath>
          <GeneratedChecksum dnOrder="4">322CCE1E75B02B6F058D02ACD20D07F6</GeneratedChecksum>
          <UserChecksum dnOrder="5">322CCE1E75B02B6F058D02ACD20D07F6</UserChecksum>
        </File>
        <File dnOrder="24">
          <Type dnOrder="0">HEADER</Type>
          <Name dnOrder="1">cmsis_compiler.h</Name>
          <LogicalPath dnOrder="2">packs/CMSIS/CMSIS/Core/Include/</LogicalPath>
          <PhysicalPath dnOrder="3">/../../packs/CMSIS/CMSIS/Core/Include/</PhysicalPath>
          <GeneratedChecksum dnOrder="4">365C5BBEA54A0D27134F48D8CA4CAF51</GeneratedChecksum>
          <UserChecksum dnOrder="5">365C5BBEA54A0D27134F48D8CA4CAF51</UserChecksum>
        </File>
        <File dnOrder="25">
          <Type dnOrder="0">HEADER</Type>
          <Name dnOrder="1">cmsis_gcc.h</Name>
          <LogicalPath dnOrder="2">packs/CMSIS/CMSIS/Core/Include/</LogicalPath>
          <PhysicalPath dnOrder="3">/../../packs/CMSIS/CMSIS/Core/Include/</PhysicalPath>
          <GeneratedChecksum dnOrder="4">84913DBF2CD848CDB8F892E2ADC7EE77</GeneratedChecksum>
          <UserChecksum dnOrder="5">84913DBF2CD848CDB8F892E2ADC7EE77</UserChecksum>
        </File>
        <File dnOrder="26">
          <Type dnOrder="0">HEADER</Type>
          <Name dnOrder="1">cmsis_iccarm.h</Name>
          <LogicalPath dnOrder="2">packs/CMSIS/CMSIS/Core/Include/</LogicalPath>
          <PhysicalPath dnOrder="3">/../../packs/CMSIS/CMSIS/Core/Include/</PhysicalPath>
          <GeneratedChecksum dnOrder="4">200BD202EF9D260096788CB11E4BBA43</GeneratedChecksum>
          <UserChecksum dnOrder="5">200BD202EF9D260096788CB11E4BBA43</UserChecksum>
        </File>
        <File dnOrder="27">
          <Type dnOrder="0">HEADER</Type>
          <Name dnOrder="1">cmsis_version.h</Name>
          <LogicalPath dnOrder="2">packs/CMSIS/CMSIS/Core/Include/</LogicalPath>
          <PhysicalPath dnOrder="3">/../../packs/CMSIS/CMSIS/Core/Include/</PhysicalPath>
          <GeneratedChecksum dnOrder="4">C0876654D46C4217FC4F3AE616901992</GeneratedChecksum>
          <UserChecksum dnOrder="5">C0876654D46C4217FC4F3AE616901992</UserChecksum>
        </File>
        <File dnOrder="28">
          <Type dnOrder="0">HEADER</Type>
          <Name dnOrder="1">core_cm4.h</Name>
          <LogicalPath dnOrder="2">packs/CMSIS/CMSIS/Core/Include/</LogicalPath>
          <PhysicalPath dnOrder="3">/../../packs/CMSIS/CMSIS/Core/Include/</PhysicalPath>
          <GeneratedChecksum dnOrder="4">9258EDF81D2C9944D66AB21495370609</GeneratedChecksum>
          <UserChecksum dnOrder="5">9258EDF81D2C9944D66AB21495370609</UserChecksum>
        </File>
        <File dnOrder="29">
          <Type dnOrder="0">HEADER</Type>
          <Name dnOrder="1">dac.h</Name>
          <LogicalPath dnOrder="2">packs/ATSAME54P20A_DFP/component/</LogicalPath>
          <PhysicalPath dnOrder="3">/../../packs/ATSAME54P20A_DFP/component/</PhysicalPath>
          <GeneratedChecksum dnOrder="4">38A842EF3876436B24077928DEA00383</GeneratedChecksum>
          <UserChecksum dnOrder="5">38A842EF3876436B24077928DEA00383</UserChecksum>
        </File>
        <File dnOrder="30">
          <Type dnOrder="0">HEADER</Type>
          <Name dnOrder="1">definitions.h</Name>
          <LogicalPath dnOrder="2">config/sam_e54_xpro/</LogicalPath>
          <PhysicalPath dnOrder="3">/</PhysicalPath>
          <GeneratedChecksum dnOrder="4">474553DE12F75DB804A5396F30FC94CD</GeneratedChecksum>
          <UserChecksum dnOrder="5">474553DE12F75DB804A5396F30FC94CD</UserChecksum>
        </File>
        <File dnOrder="31">
          <Type dnOrder="0">HEADER</Type>
          <Name dnOrder="1">device.h</Name>
          <LogicalPath dnOrder="2">packs/ATSAME54P20A_DFP/</LogicalPath>
          <PhysicalPath dnOrder="3">/../../packs/ATSAME54P20A_DFP/</PhysicalPath>
          <GeneratedChecksum dnOrder="4">21F486E52CA55F38E7CEF72A10139F09</GeneratedChecksum>
          <UserChecksum dnOrder="5">21F486E52CA55F38E7CEF72A10139F09</UserChecksum>
        </File>
        <File dnOrder="32">
          <Type dnOrder="0">HEADER</Type>
          <Name dnOrder="1">device_cache.h</Name>
          <LogicalPath dnOrder="2">config/sam_e54_xpro/</LogicalPath>
          <PhysicalPath dnOrder="3">/</PhysicalPath>
          <GeneratedChecksum dnOrder="4">9ED2219AFB6FDB7A6E9A066E468DAE8B</GeneratedChecksum>
          <UserChecksum dnOrder="5">9ED2219AFB6FDB7A6E9A066E468DAE8B</UserChecksum>
        </File>
        <File dnOrder="33">
          <Type dnOrder="0">HEADER</Type>
          <Name dnOrder="1">dmac.h</Name>
          <LogicalPath dnOrder="2">packs/ATSAME54P20A_DFP/component/</LogicalPath>
          <PhysicalPath dnOrder="3">/../../packs/ATSAME54P20A_DFP/component/</PhysicalPath>
          <GeneratedChecksum dnOrder="4">E2B89E0F74E13DC27C77BA82C4B5857A</GeneratedChecksum>
          <UserChecksum dnOrder="5">E2B89E0F74E13DC27C77BA82C4B5857A</UserChecksum>
        </File>
        <File dnOrder="34">
          <Type dnOrder="0">HEADER</Type>
          <Name dnOrder="1">dsu.h</Name>
          <LogicalPath dnOrder="2">packs/ATSAME54P20A_DFP/component/</LogicalPath>
          <PhysicalPath dnOrder="3">/../../packs/ATSAME54P20A_DFP/component/</PhysicalPath>
          <GeneratedChecksum dnOrder="4">66E7E4F4FDF889D5162B9764B29303D9</GeneratedChecksum>
          <UserChecksum dnOrder="5">66E7E4F4FDF889D5162B9764B29303D9</UserChecksum>
        </File>
        <File dnOrder="35">
          <Type dnOrder="0">HEADER</Type>
          <Name dnOrder="1">eic.h</Name>
          <LogicalPath dnOrder="2">packs/ATSAME54P20A_DFP/component/</LogicalPath>
          <PhysicalPath dnOrder="3">/../../packs/ATSAME54P20A_DFP/component/</PhysicalPath>
          <GeneratedChecksum dnOrder="4">3FA7E3B2AB8E4A78F389EE4EFAC9C7E2</GeneratedChecksum>
          <UserChecksum dnOrder="5">3FA7E3B2AB8E4A78F389EE4EFAC9C7E2</UserChecksum>
        </File>
        <File dnOrder="36">
          <Type dnOrder="0">HEADER</Type>
          <Name dnOrder="1">evsys.h</Name>
          <LogicalPath dnOrder="2">packs/ATSAME54P20A_DFP/component/</LogicalPath>
          <PhysicalPath dnOrder="3">/../../packs/ATSAME54P20A_DFP/component/</PhysicalPath>
          <GeneratedChecksum dnOrder="4">E06952629CBE2B25ED7AA378190814E2</GeneratedChecksum>
          <UserChecksum dnOrder="5">E06952629CBE2B25ED7AA378190814E2</UserChecksum>
        </File>
        <File dnOrder="37">
          <Type dnOrder="0">HEADER</Type>
          <Name dnOrder="1">freqm.h</Name>
          <LogicalPath dnOrder="2">packs/ATSAME54P20A_DFP/component/</LogicalPath>
          <PhysicalPath dnOrder="3">/../../packs/ATSAME54P20A_DFP/component/</PhysicalPath>
          <GeneratedChecksum dnOrder="4">6F3251BF992EA6FBCB4EF3AF81A45799</GeneratedChecksum>
          <UserChecksum dnOrder="5">6F3251BF992EA6FBCB4EF3AF81A45799</UserChecksum>
        </File>
        <File dnOrder="38">
          <Type dnOrder="0">HEADER</Type>
          <Name dnOrder="1">gclk.h</Name>
          <LogicalPath dnOrder="2">packs/ATSAME54P20A_DFP/component/</LogicalPath>
          <PhysicalPath dnOrder="3">/../../packs/ATSAME54P20A_DFP/component/</PhysicalPath>
          <GeneratedChecksum dnOrder="4">AAD0AA44832371A864BB97A110CB6FFE</GeneratedChecksum>
          <UserChecksum dnOrder="5">AAD0AA44832371A864BB97A110CB6FFE</UserChecksum>
        </File>
        <File dnOrder="39">
          <Type dnOrder="0">HEADER</Type>
          <Name dnOrder="1">gmac.h</Name>
          <LogicalPath dnOrder="2">packs/ATSAME54P20A_DFP/component/</LogicalPath>
          <PhysicalPath dnOrder="3">/../../packs/ATSAME54P20A_DFP/component/</PhysicalPath>
          <GeneratedChecksum dnOrder="4">1E3716F634BB2D457AEFE063D7004E27</GeneratedChecksum>
          <UserChecksum dnOrder="5">1E3716F634BB2D457AEFE063D7004E27</UserChecksum>
        </File>
        <File dnOrder="40">
          <Type dnOrder="0">HEADER</Type>
          <Name dnOrder="1">hmatrixb.h</Name>
          <LogicalPath dnOrder="2">packs/ATSAME54P20A_DFP/component/</LogicalPath>
          <PhysicalPath dnOrder="3">/../../packs/ATSAME54P20A_DFP/component/</PhysicalPath>
          <GeneratedChecksum dnOrder="4">C9AB4A7E765B1B03F222F8D01F3F9962</GeneratedChecksum>
          <UserChecksum dnOrder="5">C9AB4A7E765B1B03F222F8D01F3F9962</UserChecksum>
        </File>
        <File dnOrder="41">
          <Type dnOrder="0">HEADER</Type>
          <Name dnOrder="1">i2s.h</Name>
          <LogicalPath dnOrder="2">packs/ATSAME54P20A_DFP/component/</LogicalPath>
          <PhysicalPath dnOrder="3">/../../packs/ATSAME54P20A_DFP/component/</PhysicalPath>
          <GeneratedChecksum dnOrder="4">8A34690E46B582DFC4F956E562CCCEC8</GeneratedChecksum>
          <UserChecksum dnOrder="5">8A34690E46B582DFC4F956E562CCCEC8</UserChecksum>
        </File>
        <File dnOrder="42">
          <Type dnOrder="0">HEADER</Type>
          <Name dnOrder="1">icm.h</Name>
          <LogicalPath dnOrder="2">packs/ATSAME54P20A_DFP/component/</LogicalPath>
          <PhysicalPath dnOrder="3">/../../packs/ATSAME54P20A_DFP/component/</PhysicalPath>
          <GeneratedChecksum dnOrder="4">74EDF2C0D9D474AD3995EED3CC4E91D8</GeneratedChecksum>
          <UserChecksum dnOrder="5">74EDF2C0D9D474AD3995EED3CC4E91D8</UserChecksum>
        </File>
        <File dnOrder="43">
          <Type dnOrder="0">HEADER</Type>
          <Name dnOrder="1">mclk.h</Name>
          <LogicalPath dnOrder="2">packs/ATSAME54P20A_DFP/component/</LogicalPath>
          <PhysicalPath dnOrder="3">/../../packs/ATSAME54P20A_DFP/component/</PhysicalPath>
          <GeneratedChecksum dnOrder="4">DAC719699D3307E8270819CD048970DF</GeneratedChecksum>
          <UserChecksum dnOrder="5">DAC719699D3307E8270819CD048970DF</UserChecksum>
        </File>
        <File dnOrder="44">
          <Type dnOrder="0">HEADER</Type>
          <Name dnOrder="1">mpu_armv7.h</Name>
          <LogicalPath dnOrder="2">packs/CMSIS/CMSIS/Core/Include/</LogicalPath>
          <PhysicalPath dnOrder="3">/../../packs/CMSIS/CMSIS/Core/Include/</PhysicalPath>
          <GeneratedChecksum dnOrder="4">A0246C3B848A6A45D54CE5DA8DF3B9C8</GeneratedChecksum>
          <UserChecksum dnOrder="5">A0246C3B848A6A45D54CE5DA8DF3B9C8</UserChecksum>
        </File>
        <File dnOrder="45">
          <Type dnOrder="0">HEADER</Type>
          <Name dnOrder="1">nvmctrl.h</Name>
          <LogicalPath dnOrder="2">packs/ATSAME54P20A_DFP/component/</LogicalPath>
          <PhysicalPath dnOrder="3">/../../packs/ATSAME54P20A_DFP/component/</PhysicalPath>
          <GeneratedChecksum dnOrder="4">1BD36F632CBAF634FE7715B6088A3188</GeneratedChecksum>
          <UserChecksum dnOrder="5">1BD36F632CBAF634FE7715B6088A3188</UserChecksum>
        </File>
        <File dnOrder="46">
          <Type dnOrder="0">HEADER</Type>
          <Name dnOrder="1">osc32kctrl.h</Name>
          <LogicalPath dnOrder="2">packs/ATSAME54P20A_DFP/component/</LogicalPath>
          <PhysicalPath dnOrder="3">/../../packs/ATSAME54P20A_DFP/component/</PhysicalPath>
          <GeneratedChecksum dnOrder="4">79901F54ABB61415DF5CF4B1E581DDCD</GeneratedChecksum>
          <UserChecksum dnOrder="5">79901F54ABB61415DF5CF4B1E581DDCD</UserChecksum>
        </File>
        <File dnOrder="47">
          <Type dnOrder="0">HEADER</Type>
          <Name dnOrder="1">oscctrl.h</Name>
          <LogicalPath dnOrder="2">packs/ATSAME54P20A_DFP/component/</LogicalPath>
          <PhysicalPath dnOrder="3">/../../packs/ATSAME54P20A_DFP/component/</PhysicalPath>
          <GeneratedChecksum dnOrder="4">F807DAEE6D6C04BEE226361C202EEC53</GeneratedChecksum>
          <UserChecksum dnOrder="5">F807DAEE6D6C04BEE226361C202EEC53</UserChecksum>
        </File>
        <File dnOrder="48">
          <Type dnOrder="0">HEADER</Type>
          <Name dnOrder="1">pac.h</Name>
          <LogicalPath dnOrder="2">packs/ATSAME54P20A_DFP/component/</LogicalPath>
          <PhysicalPath dnOrder="3">/../../packs/ATSAME54P20A_DFP/component/</PhysicalPath>
          <GeneratedChecksum dnOrder="4">1A8D70DA2CEFF7449459E99A961CF4C1</GeneratedChecksum>
          <UserChecksum dnOrder="5">1A8D70DA2CEFF7449459E99A961CF4C1</UserChecksum>
        </File>
        <File dnOrder="49">
          <Type dnOrder="0">HEADER</Type>
          <Name dnOrder="1">pcc.h</Name>
          <LogicalPath dnOrder="2">packs/ATSAME54P20A_DFP/component/</LogicalPath>
          <PhysicalPath dnOrder="3">/../../packs/ATSAME54P20A_DFP/component/</PhysicalPath>
          <GeneratedChecksum dnOrder="4">1D1BD98D291BB6CEB98AD9E630999787</GeneratedChecksum>
          <UserChecksum dnOrder="5">1D1BD98D291BB6CEB98AD9E630999787</UserChecksum>
        </File>
        <File dnOrder="50">
          <Type dnOrder="0">HEADER</Type>
          <Name dnOrder="1">pdec.h</Name>
          <LogicalPath dnOrder="2">packs/ATSAME54P20A_DFP/component/</LogicalPath>
          <PhysicalPath dnOrder="3">/../../packs/ATSAME54P20A_DFP/component/</PhysicalPath>
          <GeneratedChecksum dnOrder="4">B1B750C9BB5AA71C3B54F1B295D00A46</GeneratedChecksum>
          <UserChecksum dnOrder="5">B1B750C9BB5AA71C3B54F1B295D00A46</UserChecksum>
        </File>
        <File dnOrder="51">
          <Type dnOrder="0">HEADER</Type>
          <Name dnOrder="1">plib_clock.h</Name>
          <LogicalPath dnOrder="2">config/sam_e54_xpro/peripheral/clock/</LogicalPath>
          <PhysicalPath dnOrder="3">/peripheral/clock/</PhysicalPath>
          <GeneratedChecksum dnOrder="4">0416F129713FDF989ACC1FC57065125C</GeneratedChecksum>
          <UserChecksum dnOrder="5">0416F129713FDF989ACC1FC57065125C</UserChecksum>
        </File>
        <File dnOrder="52">
          <Type dnOrder="0">HEADER</Type>
          <Name dnOrder="1">plib_cmcc.h</Name>
          <LogicalPath dnOrder="2">config/sam_e54_xpro/peripheral/cmcc/</LogicalPath>
          <PhysicalPath dnOrder="3">/peripheral/cmcc/</PhysicalPath>
          <GeneratedChecksum dnOrder="4">4209AA8D29CCA5F4F705D4A6C8722DDB</GeneratedChecksum>
          <UserChecksum dnOrder="5">4209AA8D29CCA5F4F705D4A6C8722DDB</UserChecksum>
        </File>
        <File dnOrder="53">
          <Type dnOrder="0">HEADER</Type>
          <Name dnOrder="1">plib_evsys.h</Name>
          <LogicalPath dnOrder="2">config/sam_e54_xpro/peripheral/evsys</LogicalPath>
          <PhysicalPath dnOrder="3">/peripheral/evsys/</PhysicalPath>
          <GeneratedChecksum dnOrder="4">CCAEF942C66AF995876DFD85CEFF611F</GeneratedChecksum>
          <UserChecksum dnOrder="5">CCAEF942C66AF995876DFD85CEFF611F</UserChecksum>
        </File>
        <File dnOrder="54">
          <Type dnOrder="0">HEADER</Type>
          <Name dnOrder="1">plib_nvic.h</Name>
          <LogicalPath dnOrder="2">config/sam_e54_xpro/peripheral/nvic/</LogicalPath>
          <PhysicalPath dnOrder="3">/peripheral/nvic/</PhysicalPath>
          <GeneratedChecksum dnOrder="4">E95AB23B866AA0CE6F0ABF637E9E2C83</GeneratedChecksum>
          <UserChecksum dnOrder="5">E95AB23B866AA0CE6F0ABF637E9E2C83</UserChecksum>
        </File>
        <File dnOrder="55">
          <Type dnOrder="0">HEADER</Type>
          <Name dnOrder="1">plib_nvmctrl.h</Name>
          <LogicalPath dnOrder="2">config/sam_e54_xpro/peripheral/nvmctrl/</LogicalPath>
          <PhysicalPath dnOrder="3">/peripheral/nvmctrl/</PhysicalPath>
          <GeneratedChecksum dnOrder="4">8E132C8F893860D4CF81486D721BBC5D</GeneratedChecksum>
          <UserChecksum dnOrder="5">8E132C8F893860D4CF81486D721BBC5D</UserChecksum>
        </File>
        <File dnOrder="56">
          <Type dnOrder="0">HEADER</Type>
          <Name dnOrder="1">plib_port.h</Name>
          <LogicalPath dnOrder="2">config/sam_e54_xpro/peripheral/port/</LogicalPath>
          <PhysicalPath dnOrder="3">/peripheral/port/</PhysicalPath>
          <GeneratedChecksum dnOrder="4">F3B53A3973DE9EBEBB44A8602DF3F151</GeneratedChecksum>
          <UserChecksum dnOrder="5">F3B53A3973DE9EBEBB44A8602DF3F151</UserChecksum>
        </File>
        <File dnOrder="57">
          <Type dnOrder="0">HEADER</Type>
          <Name dnOrder="1">plib_tc0.h</Name>
          <LogicalPath dnOrder="2">config/sam_e54_xpro/peripheral/tc/</LogicalPath>
          <PhysicalPath dnOrder="3">/peripheral/tc/</PhysicalPath>
          <GeneratedChecksum dnOrder="4">87B1D1F3325C25B69F7BFBC13EFD0836</GeneratedChecksum>
          <UserChecksum dnOrder="5">87B1D1F3325C25B69F7BFBC13EFD0836</UserChecksum>
        </File>
        <File dnOrder="58">
          <Type dnOrder="0">HEADER</Type>
          <Name dnOrder="1">plib_tc_common.h</Name>
          <LogicalPath dnOrder="2">config/sam_e54_xpro/peripheral/tc/</LogicalPath>
          <PhysicalPath dnOrder="3">/peripheral/tc/</PhysicalPath>
          <GeneratedChecksum dnOrder="4">8FFED42979E9560DBD315A966A8D551E</GeneratedChecksum>
          <UserChecksum dnOrder="5">8FFED42979E9560DBD315A966A8D551E</UserChecksum>
        </File>
        <File dnOrder="59">
          <Type dnOrder="0">HEADER</Type>
          <Name dnOrder="1">pm.h</Name>
          <LogicalPath dnOrder="2">packs/ATSAME54P20A_DFP/component/</LogicalPath>
          <PhysicalPath dnOrder="3">/../../packs/ATSAME54P20A_DFP/component/</PhysicalPath>
          <GeneratedChecksum dnOrder="4">FE3C975562B9E187338B51CC4AC8EBCA</GeneratedChecksum>
          <UserChecksum dnOrder="5">FE3C975562B9E187338B51CC4AC8EBCA</UserChecksum>
        </File>
        <File dnOrder="60">
          <Type dnOrder="0">HEADER</Type>
          <Name dnOrder="1">port.h</Name>
          <LogicalPath dnOrder="2">packs/ATSAME54P20A_DFP/component/</LogicalPath>
          <PhysicalPath dnOrder="3">/../../packs/ATSAME54P20A_DFP/component/</PhysicalPath>
          <GeneratedChecksum dnOrder="4">D198FF03054369C3CD91BD7021EDCDE9</GeneratedChecksum>
          <UserChecksum dnOrder="5">D198FF03054369C3CD91BD7021EDCDE9</UserChecksum>
        </File>
        <File dnOrder="61">
          <Type dnOrder="0">HEADER</Type>
          <Name dnOrder="1">pukcc.h</Name>
          <LogicalPath dnOrder="2">packs/ATSAME54P20A_DFP/component/</LogicalPath>
          <PhysicalPath dnOrder="3">/../../packs/ATSAME54P20A_DFP/component/</PhysicalPath>
          <GeneratedChecksum dnOrder="4">11AACB99F58636BA9E212973306893FB</GeneratedChecksum>
          <UserChecksum dnOrder="5">11AACB99F58636BA9E212973306893FB</UserChecksum>
        </File>
        <File dnOrder="62">
          <Type dnOrder="0">HEADER</Type>
          <Name dnOrder="1">qspi.h</Name>
          <LogicalPath dnOrder="2">packs/ATSAME54P20A_DFP/component/</LogicalPath>
          <PhysicalPath dnOrder="3">/../../packs/ATSAME54P20A_DFP/component/</PhysicalPath>
          <GeneratedChecksum dnOrder="4">5FB3FB2B4FE9B33665770598F46E3393</GeneratedChecksum>
          <UserChecksum dnOrder="5">5FB3FB2B4FE9B33665770598F46E3393</UserChecksum>
        </File>
        <File dnOrder="63">
          <Type dnOrder="0">HEADER</Type>
          <Name dnOrder="1">ramecc.h</Name>
          <LogicalPath dnOrder="2">packs/ATSAME54P20A_DFP/component/</LogicalPath>
          <PhysicalPath dnOrder="3">/../../packs/ATSAME54P20A_DFP/component/</PhysicalPath>
          <GeneratedChecksum dnOrder="4">34CE9E52A9747B379936B793096F868A</GeneratedChecksum>
          <UserChecksum dnOrder="5">34CE9E52A9747B379936B793096F868A</UserChecksum>
        </File>
        <File dnOrder="64">
          <Type dnOrder="0">HEADER</Type>
          <Name dnOrder="1">rstc.h</Name>
          <LogicalPath dnOrder="2">packs/ATSAME54P20A_DFP/component/</LogicalPath>
          <PhysicalPath dnOrder="3">/../../packs/ATSAME54P20A_DFP/component/</PhysicalPath>
          <GeneratedChecksum dnOrder="4">68EACDBA8F1C4031CB592E20AB497D78</GeneratedChecksum>
          <UserChecksum dnOrder="5">68EACDBA8F1C4031CB592E20AB497D78</UserChecksum>
        </File>
        <File dnOrder="65">
          <Type dnOrder="0">HEADER</Type>
          <Name dnOrder="1">rtc.h</Name>
          <LogicalPath dnOrder="2">packs/ATSAME54P20A_DFP/component/</LogicalPath>
          <PhysicalPath dnOrder="3">/../../packs/ATSAME54P20A_DFP/component/</PhysicalPath>
          <GeneratedChecksum dnOrder="4">2B6714425D86A0A67BCAEBB7225370AE</GeneratedChecksum>
          <UserChecksum dnOrder="5">2B6714425D86A0A67BCAEBB7225370AE</UserChecksum>
        </File>
        <File dnOrder="66">
          <Type dnOrder="0">HEADER</Type>
          <Name dnOrder="1">same54p20a.h</Name>
          <LogicalPath dnOrder="2">packs/ATSAME54P20A_DFP/pio/</LogicalPath>
          <PhysicalPath dnOrder="3">/../../packs/ATSAME54P20A_DFP/pio/</PhysicalPath>
          <GeneratedChecksum dnOrder="4">BC3C35F731598BBE000BCEBD88CC4B56</GeneratedChecksum>
          <UserChecksum dnOrder="5">BC3C35F731598BBE000BCEBD88CC4B56</UserChecksum>
        </File>
        <File dnOrder="67">
          <Type dnOrder="0">HEADER</Type>
          <Name dnOrder="1">sdhc.h</Name>
          <LogicalPath dnOrder="2">packs/ATSAME54P20A_DFP/component/</LogicalPath>
          <PhysicalPath dnOrder="3">/../../packs/ATSAME54P20A_DFP/component/</PhysicalPath>
          <GeneratedChecksum dnOrder="4">9D1F13681A11BB1A3DB7842BC1FF9C2B</GeneratedChecksum>
          <UserChecksum dnOrder="5">9D1F13681A11BB1A3DB7842BC1FF9C2B</UserChecksum>
        </File>
        <File dnOrder="68">
          <Type dnOrder="0">HEADER</Type>
          <Name dnOrder="1">sercom.h</Name>
          <LogicalPath dnOrder="2">packs/ATSAME54P20A_DFP/component/</LogicalPath>
          <PhysicalPath dnOrder="3">/../../packs/ATSAME54P20A_DFP/component/</PhysicalPath>
          <GeneratedChecksum dnOrder="4">DD8004BEF7C9C0D4B968824990EA61FC</GeneratedChecksum>
          <UserChecksum dnOrder="5">DD8004BEF7C9C0D4B968824990EA61FC</UserChecksum>
        </File>
        <File dnOrder="69">
          <Type dnOrder="0">HEADER</Type>
          <Name dnOrder="1">supc.h</Name>
          <LogicalPath dnOrder="2">packs/ATSAME54P20A_DFP/component/</LogicalPath>
          <PhysicalPath dnOrder="3">/../../packs/ATSAME54P20A_DFP/component/</PhysicalPath>
          <GeneratedChecksum dnOrder="4">20178FD158BF5C2D8AE55BE69EA16E3D</GeneratedChecksum>
          <UserChecksum dnOrder="5">20178FD158BF5C2D8AE55BE69EA16E3D</UserChecksum>
        </File>
        <File dnOrder="70">
          <Type dnOrder="0">HEADER</Type>
          <Name dnOrder="1">tc.h</Name>
          <LogicalPath dnOrder="2">packs/ATSAME54P20A_DFP/component/</LogicalPath>
          <PhysicalPath dnOrder="3">/../../packs/ATSAME54P20A_DFP/component/</PhysicalPath>
          <GeneratedChecksum dnOrder="4">6E0FE3A779D066853F2C08339D676BC7</GeneratedChecksum>
          <UserChecksum dnOrder="5">6E0FE3A779D066853F2C08339D676BC7</UserChecksum>
        </File>
        <File dnOrder="71">
          <Type dnOrder="0">HEADER</Type>
          <Name dnOrder="1">tcc.h</Name>
          <LogicalPath dnOrder="2">packs/ATSAME54P20A_DFP/component/</LogicalPath>
          <PhysicalPath dnOrder="3">/../../packs/ATSAME54P20A_DFP/component/</PhysicalPath>
          <GeneratedChecksum dnOrder="4">0A93BC8AEC98819955E47915AAFABF8C</GeneratedChecksum>
          <UserChecksum dnOrder="5">0A93BC8AEC98819955E47915AAFABF8C</UserChecksum>
        </File>
        <File dnOrder="72">
          <Type dnOrder="0">HEADER</Type>
          <Name dnOrder="1">toolchain_specifics.h</Name>
          <LogicalPath dnOrder="2">config/sam_e54_xpro/</LogicalPath>
          <PhysicalPath dnOrder="3">/</PhysicalPath>
          <GeneratedChecksum dnOrder="4">6AFF17EB43477034115ED7E02FBB7E69</GeneratedChecksum>
          <UserChecksum dnOrder="5">6AFF17EB43477034115ED7E02FBB7E69</UserChecksum>
        </File>
        <File dnOrder="73">
          <Type dnOrder="0">HEADER</Type>
          <Name dnOrder="1">trng.h</Name>
          <LogicalPath dnOrder="2">packs/ATSAME54P20A_DFP/component/</LogicalPath>
          <PhysicalPath dnOrder="3">/../../packs/ATSAME54P20A_DFP/component/</PhysicalPath>
          <GeneratedChecksum dnOrder="4">EC06FF393FA18138030D66D79B74AEE6</GeneratedChecksum>
          <UserChecksum dnOrder="5">EC06FF393FA18138030D66D79B74AEE6</UserChecksum>
        </File>
        <File dnOrder="74">
          <Type dnOrder="0">HEADER</Type>
          <Name dnOrder="1">tz_context.h</Name>
          <LogicalPath dnOrder="2">packs/CMSIS/CMSIS/Core/Include/</LogicalPath>
          <PhysicalPath dnOrder="3">/../../packs/CMSIS/CMSIS/Core/Include/</PhysicalPath>
          <GeneratedChecksum dnOrder="4">8710F2682DA1C97558850902DABA38BA</GeneratedChecksum>
          <UserChecksum dnOrder="5">8710F2682DA1C97558850902DABA38BA</UserChecksum>
        </File>
        <File dnOrder="75">
          <Type dnOrder="0">HEADER</Type>
          <Name dnOrder="1">usb.h</Name>
          <LogicalPath dnOrder="2">packs/ATSAME54P20A_DFP/component/</LogicalPath>
          <PhysicalPath dnOrder="3">/../../packs/ATSAME54P20A_DFP/component/</PhysicalPath>
          <GeneratedChecksum dnOrder="4">75BF22028535B3755C572AC71F077D00</GeneratedChecksum>
          <UserChecksum dnOrder="5">75BF22028535B3755C572AC71F077D00</UserChecksum>
        </File>
        <File dnOrder="76">
          <Type dnOrder="0">HEADER</Type>
          <Name dnOrder="1">wdt.h</Name>
          <LogicalPath dnOrder="2">packs/ATSAME54P20A_DFP/component/</LogicalPath>
          <PhysicalPath dnOrder="3">/../../packs/ATSAME54P20A_DFP/component/</PhysicalPath>
          <GeneratedChecksum dnOrder="4">560E3F593DF28CEE9DFBB758601E363C</GeneratedChecksum>
          <UserChecksum dnOrder="5">560E3F593DF28CEE9DFBB758601E363C</UserChecksum>
        </File>
      </Files>
      <Settings dnOrder="1">
        <Setting append="true" category="C32" delimiter=";" dnOrder="0" key="extra-include-directories" value="../src;../src/config/sam_e54_xpro;../src/packs/ATSAME54P20A_DFP;../src/packs/CMSIS/CMSIS/Core/Include;../src/packs/CMSIS/;../src/arm"/>
        <Setting category="C32-LD" dnOrder="1" key="heap-size" value="512"/>
        <Setting category="C32-LD" dnOrder="2" key="no-device-startup-code" value="true"/>
        <Setting category="C32-LD" dnOrder="3" key="preprocessor-macros" value=""/>
        <Setting category="C32Global" dnOrder="4" key="mdtcm" value=""/>
        <Setting category="C32Global" dnOrder="5" key="mitcm" value=""/>
        <Setting category="C32Global" dnOrder="6" key="mstacktcm" value="false"/>
      </Settings>
    </Manifest>
    <Settings dnOrder="4">
      <Setting dnOrder="0" key="CMSISPath" value=".\dev_packs\arm\CMSIS\5.5.1"/>
      <Setting dnOrder="1" key="DFPPath" value=".\dev_packs\Microchip\SAME54_DFP\3.0.30\atdf\ATSAME54P20A.atdf"/>
      <Setting dnOrder="2" key="FORCE_OPTIMIZATION" value="false"/>
      <Setting dnOrder="3" key="GENERATE_BACKUP" value="true"/>
      <Setting dnOrder="4" key="MERGE_STRATEGY" value="USER_ALL"/>
      <Setting dnOrder="5" key="PackageFilter" value="csp;"/>
    </Settings>
  </Configurator>
</Configuration>
