<?xml version="1.0" encoding="UTF-8" standalone="no"?>
<Configuration>
  <Configurator>
    <Name dnOrder="0" value="sam_l10_xpro"/>
    <Processor dnOrder="1" value="ATSAML10E16A"/>
    <Harmony dnOrder="2" path="../../../.."/>
    <Manifest dnOrder="3">
      <Files dnOrder="0">
        <File dnOrder="0">
          <Type dnOrder="0">SOURCE</Type>
          <Name dnOrder="1">exceptions.c</Name>
          <LogicalPath dnOrder="2">config/sam_l10_xpro/</LogicalPath>
          <PhysicalPath dnOrder="3">/</PhysicalPath>
          <GeneratedChecksum dnOrder="4">3C64B0B744B67F634A4B2C0AF49B32A8</GeneratedChecksum>
          <UserChecksum dnOrder="5">3C64B0B744B67F634A4B2C0AF49B32A8</UserChecksum>
        </File>
        <File dnOrder="1">
          <Type dnOrder="0">SOURCE</Type>
          <Name dnOrder="1">initialization.c</Name>
          <LogicalPath dnOrder="2">config/sam_l10_xpro/</LogicalPath>
          <PhysicalPath dnOrder="3">/</PhysicalPath>
          <GeneratedChecksum dnOrder="4">051A45D5310BFB2E426DE35B7F54EA28</GeneratedChecksum>
          <UserChecksum dnOrder="5">CD558EDA57959449EFF378CC4438393E</UserChecksum>
        </File>
        <File dnOrder="2">
          <Type dnOrder="0">SOURCE</Type>
          <Name dnOrder="1">interrupts.c</Name>
          <LogicalPath dnOrder="2">config/sam_l10_xpro/</LogicalPath>
          <PhysicalPath dnOrder="3">/</PhysicalPath>
          <GeneratedChecksum dnOrder="4">6AB93C5923117782B9FCD87095E298E5</GeneratedChecksum>
          <UserChecksum dnOrder="5">6AB93C5923117782B9FCD87095E298E5</UserChecksum>
        </File>
        <File dnOrder="3">
          <Type dnOrder="0">SOURCE</Type>
          <Name dnOrder="1">libc_syscalls.c</Name>
          <LogicalPath dnOrder="2">config/sam_l10_xpro/</LogicalPath>
          <PhysicalPath dnOrder="3">/</PhysicalPath>
          <GeneratedChecksum dnOrder="4">0D061464696B9E5D276A90A352736879</GeneratedChecksum>
          <UserChecksum dnOrder="5">0D061464696B9E5D276A90A352736879</UserChecksum>
        </File>
        <File dnOrder="4">
          <Type dnOrder="0">SOURCE</Type>
          <Name dnOrder="1">main_l10.c</Name>
          <LogicalPath dnOrder="2"/>
          <PhysicalPath dnOrder="3">/../../</PhysicalPath>
          <GeneratedChecksum dnOrder="4"/>
          <UserChecksum dnOrder="5"/>
        </File>
        <File dnOrder="5">
          <Type dnOrder="0">SOURCE</Type>
          <Name dnOrder="1">plib_adc.c</Name>
          <LogicalPath dnOrder="2">config/sam_l10_xpro/peripheral/adc/</LogicalPath>
          <PhysicalPath dnOrder="3">/peripheral/adc/</PhysicalPath>
          <GeneratedChecksum dnOrder="4">D79B1640AD6F5E08669F14E9DA0CC428</GeneratedChecksum>
          <UserChecksum dnOrder="5">D79B1640AD6F5E08669F14E9DA0CC428</UserChecksum>
        </File>
        <File dnOrder="6">
          <Type dnOrder="0">SOURCE</Type>
          <Name dnOrder="1">plib_clock.c</Name>
          <LogicalPath dnOrder="2">config/sam_l10_xpro/peripheral/clock/</LogicalPath>
          <PhysicalPath dnOrder="3">/peripheral/clock/</PhysicalPath>
          <GeneratedChecksum dnOrder="4">76E85B92CFABFEB432DBBF19F2E14456</GeneratedChecksum>
          <UserChecksum dnOrder="5">76E85B92CFABFEB432DBBF19F2E14456</UserChecksum>
        </File>
        <File dnOrder="7">
          <Type dnOrder="0">SOURCE</Type>
          <Name dnOrder="1">plib_evsys.c</Name>
          <LogicalPath dnOrder="2">config/sam_l10_xpro/peripheral/evsys</LogicalPath>
          <PhysicalPath dnOrder="3">/peripheral/evsys/</PhysicalPath>
          <GeneratedChecksum dnOrder="4">C99E6D9B9BA371EA749B7DC16BC2C209</GeneratedChecksum>
          <UserChecksum dnOrder="5">C99E6D9B9BA371EA749B7DC16BC2C209</UserChecksum>
        </File>
        <File dnOrder="8">
          <Type dnOrder="0">SOURCE</Type>
          <Name dnOrder="1">plib_nvic.c</Name>
          <LogicalPath dnOrder="2">config/sam_l10_xpro/peripheral/nvic/</LogicalPath>
          <PhysicalPath dnOrder="3">/peripheral/nvic/</PhysicalPath>
          <GeneratedChecksum dnOrder="4">D5D72952AFB2EB630F1CCB87AA13087C</GeneratedChecksum>
          <UserChecksum dnOrder="5">D5D72952AFB2EB630F1CCB87AA13087C</UserChecksum>
        </File>
        <File dnOrder="9">
          <Type dnOrder="0">SOURCE</Type>
          <Name dnOrder="1">plib_nvmctrl.c</Name>
          <LogicalPath dnOrder="2">config/sam_l10_xpro/peripheral/nvmctrl/</LogicalPath>
          <PhysicalPath dnOrder="3">/peripheral/nvmctrl/</PhysicalPath>
          <GeneratedChecksum dnOrder="4">9A99AC06F2F6D8C6D5970F3C15C8A247</GeneratedChecksum>
          <UserChecksum dnOrder="5">9A99AC06F2F6D8C6D5970F3C15C8A247</UserChecksum>
        </File>
        <File dnOrder="10">
          <Type dnOrder="0">SOURCE</Type>
          <Name dnOrder="1">plib_opamp.c</Name>
          <LogicalPath dnOrder="2">config/sam_l10_xpro/peripheral/opamp/</LogicalPath>
          <PhysicalPath dnOrder="3">/peripheral/opamp/</PhysicalPath>
          <GeneratedChecksum dnOrder="4">33B0F617A27D7BF2B8A558B12B7A66BE</GeneratedChecksum>
          <UserChecksum dnOrder="5">93891E4BACF995C6CB4BFD494DAB3C49</UserChecksum>
        </File>
        <File dnOrder="11">
          <Type dnOrder="0">SOURCE</Type>
          <Name dnOrder="1">plib_pm.c</Name>
          <LogicalPath dnOrder="2">config/sam_l10_xpro/peripheral/pm/</LogicalPath>
          <PhysicalPath dnOrder="3">/peripheral/pm/</PhysicalPath>
          <GeneratedChecksum dnOrder="4">0BAD7EAAF0E8E55ED22EAA616638AD6B</GeneratedChecksum>
          <UserChecksum dnOrder="5">0BAD7EAAF0E8E55ED22EAA616638AD6B</UserChecksum>
        </File>
        <File dnOrder="12">
          <Type dnOrder="0">SOURCE</Type>
          <Name dnOrder="1">plib_port.c</Name>
          <LogicalPath dnOrder="2">config/sam_l10_xpro/peripheral/port/</LogicalPath>
          <PhysicalPath dnOrder="3">/peripheral/port/</PhysicalPath>
          <GeneratedChecksum dnOrder="4">74BC87551172508EEB9984C630D359EA</GeneratedChecksum>
          <UserChecksum dnOrder="5">74BC87551172508EEB9984C630D359EA</UserChecksum>
        </File>
        <File dnOrder="13">
          <Type dnOrder="0">SOURCE</Type>
          <Name dnOrder="1">plib_sercom0_usart.c</Name>
          <LogicalPath dnOrder="2">config/sam_l10_xpro/peripheral/sercom/usart/</LogicalPath>
          <PhysicalPath dnOrder="3">/peripheral/sercom/usart/</PhysicalPath>
          <GeneratedChecksum dnOrder="4">B0FAD8AEE4D9A0D16CB283CF05F213C2</GeneratedChecksum>
          <UserChecksum dnOrder="5">B0FAD8AEE4D9A0D16CB283CF05F213C2</UserChecksum>
        </File>
        <File dnOrder="14">
          <Type dnOrder="0">SOURCE</Type>
          <Name dnOrder="1">plib_systick.c</Name>
          <LogicalPath dnOrder="2">config/sam_l10_xpro/peripheral/systick/</LogicalPath>
          <PhysicalPath dnOrder="3">/peripheral/systick/</PhysicalPath>
          <GeneratedChecksum dnOrder="4">06DFFB393C8AAAB97B93378E0EFAF811</GeneratedChecksum>
          <UserChecksum dnOrder="5">06DFFB393C8AAAB97B93378E0EFAF811</UserChecksum>
        </File>
        <File dnOrder="15">
          <Type dnOrder="0">SOURCE</Type>
          <Name dnOrder="1">startup_xc32.c</Name>
          <LogicalPath dnOrder="2">config/sam_l10_xpro/</LogicalPath>
          <PhysicalPath dnOrder="3">/</PhysicalPath>
          <GeneratedChecksum dnOrder="4">7831CFB6172E0A462E6D1858094639E0</GeneratedChecksum>
          <UserChecksum dnOrder="5">7831CFB6172E0A462E6D1858094639E0</UserChecksum>
        </File>
        <File dnOrder="16">
          <Type dnOrder="0">SOURCE</Type>
          <Name dnOrder="1">xc32_monitor.c</Name>
          <LogicalPath dnOrder="2">config/sam_l10_xpro/stdio/</LogicalPath>
          <PhysicalPath dnOrder="3">/stdio/</PhysicalPath>
          <GeneratedChecksum dnOrder="4">D392058810C1F70064C11F2E93E69A3E</GeneratedChecksum>
          <UserChecksum dnOrder="5">D392058810C1F70064C11F2E93E69A3E</UserChecksum>
        </File>
        <File dnOrder="17">
          <Type dnOrder="0">HEADER</Type>
          <Name dnOrder="1">ac.h</Name>
          <LogicalPath dnOrder="2">packs/ATSAML10E16A_DFP/component/</LogicalPath>
          <PhysicalPath dnOrder="3">/../../packs/ATSAML10E16A_DFP/component/</PhysicalPath>
          <GeneratedChecksum dnOrder="4">CBE8D698CA3C476B03B17D645C235D6D</GeneratedChecksum>
          <UserChecksum dnOrder="5">CBE8D698CA3C476B03B17D645C235D6D</UserChecksum>
        </File>
        <File dnOrder="18">
          <Type dnOrder="0">HEADER</Type>
          <Name dnOrder="1">adc.h</Name>
          <LogicalPath dnOrder="2">packs/ATSAML10E16A_DFP/component/</LogicalPath>
          <PhysicalPath dnOrder="3">/../../packs/ATSAML10E16A_DFP/component/</PhysicalPath>
          <GeneratedChecksum dnOrder="4">52A707CC5692FA82823B67CA9405ADB6</GeneratedChecksum>
          <UserChecksum dnOrder="5">52A707CC5692FA82823B67CA9405ADB6</UserChecksum>
        </File>
        <File dnOrder="19">
          <Type dnOrder="0">HEADER</Type>
          <Name dnOrder="1">arm_common_tables.h</Name>
          <LogicalPath dnOrder="2">packs/CMSIS/CMSIS/DSP/Include/</LogicalPath>
          <PhysicalPath dnOrder="3">/../../packs/CMSIS/CMSIS/DSP/Include/</PhysicalPath>
          <GeneratedChecksum dnOrder="4">ECE7DC494F56CE01D96DE918E61B7C02</GeneratedChecksum>
          <UserChecksum dnOrder="5">ECE7DC494F56CE01D96DE918E61B7C02</UserChecksum>
        </File>
        <File dnOrder="20">
          <Type dnOrder="0">HEADER</Type>
          <Name dnOrder="1">arm_const_structs.h</Name>
          <LogicalPath dnOrder="2">packs/CMSIS/CMSIS/DSP/Include/</LogicalPath>
          <PhysicalPath dnOrder="3">/../../packs/CMSIS/CMSIS/DSP/Include/</PhysicalPath>
          <GeneratedChecksum dnOrder="4">B99479A6A9F72E72C614DB59601DC762</GeneratedChecksum>
          <UserChecksum dnOrder="5">B99479A6A9F72E72C614DB59601DC762</UserChecksum>
        </File>
        <File dnOrder="21">
          <Type dnOrder="0">HEADER</Type>
          <Name dnOrder="1">arm_math.h</Name>
          <LogicalPath dnOrder="2">packs/CMSIS/CMSIS/DSP/Include/</LogicalPath>
          <PhysicalPath dnOrder="3">/../../packs/CMSIS/CMSIS/DSP/Include/</PhysicalPath>
          <GeneratedChecksum dnOrder="4">27F6D2D0CB97CA5159FE0788243E978E</GeneratedChecksum>
          <UserChecksum dnOrder="5">27F6D2D0CB97CA5159FE0788243E978E</UserChecksum>
        </File>
        <File dnOrder="22">
          <Type dnOrder="0">HEADER</Type>
          <Name dnOrder="1">atsaml10e16a.h</Name>
          <LogicalPath dnOrder="2">packs/ATSAML10E16A_DFP/</LogicalPath>
          <PhysicalPath dnOrder="3">/../../packs/ATSAML10E16A_DFP/</PhysicalPath>
          <GeneratedChecksum dnOrder="4">B523D1BBEC4A9095B7B163D9234D0A8F</GeneratedChecksum>
          <UserChecksum dnOrder="5">B523D1BBEC4A9095B7B163D9234D0A8F</UserChecksum>
        </File>
        <File dnOrder="23">
          <Type dnOrder="0">HEADER</Type>
          <Name dnOrder="1">ccl.h</Name>
          <LogicalPath dnOrder="2">packs/ATSAML10E16A_DFP/component/</LogicalPath>
          <PhysicalPath dnOrder="3">/../../packs/ATSAML10E16A_DFP/component/</PhysicalPath>
          <GeneratedChecksum dnOrder="4">8A508537B0C110D2D6A107B009EC7F8D</GeneratedChecksum>
          <UserChecksum dnOrder="5">8A508537B0C110D2D6A107B009EC7F8D</UserChecksum>
        </File>
        <File dnOrder="24">
          <Type dnOrder="0">HEADER</Type>
          <Name dnOrder="1">cmsis_compiler.h</Name>
          <LogicalPath dnOrder="2">packs/CMSIS/CMSIS/Core/Include/</LogicalPath>
          <PhysicalPath dnOrder="3">/../../packs/CMSIS/CMSIS/Core/Include/</PhysicalPath>
          <GeneratedChecksum dnOrder="4">400D1CC9BE24708CF7AF1C5B9FE76E50</GeneratedChecksum>
          <UserChecksum dnOrder="5">400D1CC9BE24708CF7AF1C5B9FE76E50</UserChecksum>
        </File>
        <File dnOrder="25">
          <Type dnOrder="0">HEADER</Type>
          <Name dnOrder="1">cmsis_gcc.h</Name>
          <LogicalPath dnOrder="2">packs/CMSIS/CMSIS/Core/Include/</LogicalPath>
          <PhysicalPath dnOrder="3">/../../packs/CMSIS/CMSIS/Core/Include/</PhysicalPath>
          <GeneratedChecksum dnOrder="4">EB0729CA546715BB4BAA41AE37179D2B</GeneratedChecksum>
          <UserChecksum dnOrder="5">EB0729CA546715BB4BAA41AE37179D2B</UserChecksum>
        </File>
        <File dnOrder="26">
          <Type dnOrder="0">HEADER</Type>
          <Name dnOrder="1">cmsis_iccarm.h</Name>
          <LogicalPath dnOrder="2">packs/CMSIS/CMSIS/Core/Include/</LogicalPath>
          <PhysicalPath dnOrder="3">/../../packs/CMSIS/CMSIS/Core/Include/</PhysicalPath>
          <GeneratedChecksum dnOrder="4">07D0E0680601EE9E8A0D6506F0A556D9</GeneratedChecksum>
          <UserChecksum dnOrder="5">07D0E0680601EE9E8A0D6506F0A556D9</UserChecksum>
        </File>
        <File dnOrder="27">
          <Type dnOrder="0">HEADER</Type>
          <Name dnOrder="1">cmsis_version.h</Name>
          <LogicalPath dnOrder="2">packs/CMSIS/CMSIS/Core/Include/</LogicalPath>
          <PhysicalPath dnOrder="3">/../../packs/CMSIS/CMSIS/Core/Include/</PhysicalPath>
          <GeneratedChecksum dnOrder="4">C0876654D46C4217FC4F3AE616901992</GeneratedChecksum>
          <UserChecksum dnOrder="5">C0876654D46C4217FC4F3AE616901992</UserChecksum>
        </File>
        <File dnOrder="28">
          <Type dnOrder="0">HEADER</Type>
          <Name dnOrder="1">core_cm23.h</Name>
          <LogicalPath dnOrder="2">packs/CMSIS/CMSIS/Core/Include/</LogicalPath>
          <PhysicalPath dnOrder="3">/../../packs/CMSIS/CMSIS/Core/Include/</PhysicalPath>
          <GeneratedChecksum dnOrder="4">D0E66759FA3159D15302FD9ABDB2A4B8</GeneratedChecksum>
          <UserChecksum dnOrder="5">F4BAB870EAE98D893413E27EB3FC971B</UserChecksum>
        </File>
        <File dnOrder="29">
          <Type dnOrder="0">HEADER</Type>
          <Name dnOrder="1">coredebug.h</Name>
          <LogicalPath dnOrder="2">packs/ATSAML10E16A_DFP/component/</LogicalPath>
          <PhysicalPath dnOrder="3">/../../packs/ATSAML10E16A_DFP/component/</PhysicalPath>
          <GeneratedChecksum dnOrder="4">06150B9923BA0DEA920E44E60B677F09</GeneratedChecksum>
          <UserChecksum dnOrder="5">06150B9923BA0DEA920E44E60B677F09</UserChecksum>
        </File>
        <File dnOrder="30">
          <Type dnOrder="0">HEADER</Type>
          <Name dnOrder="1">dac.h</Name>
          <LogicalPath dnOrder="2">packs/ATSAML10E16A_DFP/component/</LogicalPath>
          <PhysicalPath dnOrder="3">/../../packs/ATSAML10E16A_DFP/component/</PhysicalPath>
          <GeneratedChecksum dnOrder="4">CB5CDE089554DC3268E61DD8E79A5539</GeneratedChecksum>
          <UserChecksum dnOrder="5">CB5CDE089554DC3268E61DD8E79A5539</UserChecksum>
        </File>
        <File dnOrder="31">
          <Type dnOrder="0">HEADER</Type>
          <Name dnOrder="1">definitions.h</Name>
          <LogicalPath dnOrder="2">config/sam_l10_xpro/</LogicalPath>
          <PhysicalPath dnOrder="3">/</PhysicalPath>
          <GeneratedChecksum dnOrder="4">47202667A81CC560F5972D3CE4BA9EC4</GeneratedChecksum>
          <UserChecksum dnOrder="5">47202667A81CC560F5972D3CE4BA9EC4</UserChecksum>
        </File>
        <File dnOrder="32">
          <Type dnOrder="0">HEADER</Type>
          <Name dnOrder="1">device.h</Name>
          <LogicalPath dnOrder="2">packs/ATSAML10E16A_DFP/</LogicalPath>
          <PhysicalPath dnOrder="3">/../../packs/ATSAML10E16A_DFP/</PhysicalPath>
          <GeneratedChecksum dnOrder="4">A54899B416A070B9D6568DA6D36B3A22</GeneratedChecksum>
          <UserChecksum dnOrder="5">A54899B416A070B9D6568DA6D36B3A22</UserChecksum>
        </File>
        <File dnOrder="33">
          <Type dnOrder="0">HEADER</Type>
          <Name dnOrder="1">device_cache.h</Name>
          <LogicalPath dnOrder="2">config/sam_l10_xpro/</LogicalPath>
          <PhysicalPath dnOrder="3">/</PhysicalPath>
          <GeneratedChecksum dnOrder="4">9ED2219AFB6FDB7A6E9A066E468DAE8B</GeneratedChecksum>
          <UserChecksum dnOrder="5">9ED2219AFB6FDB7A6E9A066E468DAE8B</UserChecksum>
        </File>
        <File dnOrder="34">
          <Type dnOrder="0">HEADER</Type>
          <Name dnOrder="1">dib.h</Name>
          <LogicalPath dnOrder="2">packs/ATSAML10E16A_DFP/component/</LogicalPath>
          <PhysicalPath dnOrder="3">/../../packs/ATSAML10E16A_DFP/component/</PhysicalPath>
          <GeneratedChecksum dnOrder="4">50BB6685CB3F3368F1DA049E9DB4C4DF</GeneratedChecksum>
          <UserChecksum dnOrder="5">50BB6685CB3F3368F1DA049E9DB4C4DF</UserChecksum>
        </File>
        <File dnOrder="35">
          <Type dnOrder="0">HEADER</Type>
          <Name dnOrder="1">dmac.h</Name>
          <LogicalPath dnOrder="2">packs/ATSAML10E16A_DFP/component/</LogicalPath>
          <PhysicalPath dnOrder="3">/../../packs/ATSAML10E16A_DFP/component/</PhysicalPath>
          <GeneratedChecksum dnOrder="4">EEB2CE3C61BFAC8042F0E8DE5786C808</GeneratedChecksum>
          <UserChecksum dnOrder="5">EEB2CE3C61BFAC8042F0E8DE5786C808</UserChecksum>
        </File>
        <File dnOrder="36">
          <Type dnOrder="0">HEADER</Type>
          <Name dnOrder="1">dsu.h</Name>
          <LogicalPath dnOrder="2">packs/ATSAML10E16A_DFP/component/</LogicalPath>
          <PhysicalPath dnOrder="3">/../../packs/ATSAML10E16A_DFP/component/</PhysicalPath>
          <GeneratedChecksum dnOrder="4">C46FAF45A20C86279CA22177D6B4CACB</GeneratedChecksum>
          <UserChecksum dnOrder="5">C46FAF45A20C86279CA22177D6B4CACB</UserChecksum>
        </File>
        <File dnOrder="37">
          <Type dnOrder="0">HEADER</Type>
          <Name dnOrder="1">dwt.h</Name>
          <LogicalPath dnOrder="2">packs/ATSAML10E16A_DFP/component/</LogicalPath>
          <PhysicalPath dnOrder="3">/../../packs/ATSAML10E16A_DFP/component/</PhysicalPath>
          <GeneratedChecksum dnOrder="4">575E1A188D217FDF76F08BC66ECF8ADC</GeneratedChecksum>
          <UserChecksum dnOrder="5">575E1A188D217FDF76F08BC66ECF8ADC</UserChecksum>
        </File>
        <File dnOrder="38">
          <Type dnOrder="0">HEADER</Type>
          <Name dnOrder="1">eic.h</Name>
          <LogicalPath dnOrder="2">packs/ATSAML10E16A_DFP/component/</LogicalPath>
          <PhysicalPath dnOrder="3">/../../packs/ATSAML10E16A_DFP/component/</PhysicalPath>
          <GeneratedChecksum dnOrder="4">B51937C0EDA9DAA06FFECF91D8C3C139</GeneratedChecksum>
          <UserChecksum dnOrder="5">B51937C0EDA9DAA06FFECF91D8C3C139</UserChecksum>
        </File>
        <File dnOrder="39">
          <Type dnOrder="0">HEADER</Type>
          <Name dnOrder="1">evsys.h</Name>
          <LogicalPath dnOrder="2">packs/ATSAML10E16A_DFP/component/</LogicalPath>
          <PhysicalPath dnOrder="3">/../../packs/ATSAML10E16A_DFP/component/</PhysicalPath>
          <GeneratedChecksum dnOrder="4">F4F7755DE7B7281D442B8F278769FFE6</GeneratedChecksum>
          <UserChecksum dnOrder="5">F4F7755DE7B7281D442B8F278769FFE6</UserChecksum>
        </File>
        <File dnOrder="40">
          <Type dnOrder="0">HEADER</Type>
          <Name dnOrder="1">fpb.h</Name>
          <LogicalPath dnOrder="2">packs/ATSAML10E16A_DFP/component/</LogicalPath>
          <PhysicalPath dnOrder="3">/../../packs/ATSAML10E16A_DFP/component/</PhysicalPath>
          <GeneratedChecksum dnOrder="4">53684E71FC461B0A7E88DFE8DFB7BB82</GeneratedChecksum>
          <UserChecksum dnOrder="5">53684E71FC461B0A7E88DFE8DFB7BB82</UserChecksum>
        </File>
        <File dnOrder="41">
          <Type dnOrder="0">HEADER</Type>
          <Name dnOrder="1">freqm.h</Name>
          <LogicalPath dnOrder="2">packs/ATSAML10E16A_DFP/component/</LogicalPath>
          <PhysicalPath dnOrder="3">/../../packs/ATSAML10E16A_DFP/component/</PhysicalPath>
          <GeneratedChecksum dnOrder="4">79665C60943483042A054E091A091AAA</GeneratedChecksum>
          <UserChecksum dnOrder="5">79665C60943483042A054E091A091AAA</UserChecksum>
        </File>
        <File dnOrder="42">
          <Type dnOrder="0">HEADER</Type>
          <Name dnOrder="1">gclk.h</Name>
          <LogicalPath dnOrder="2">packs/ATSAML10E16A_DFP/component/</LogicalPath>
          <PhysicalPath dnOrder="3">/../../packs/ATSAML10E16A_DFP/component/</PhysicalPath>
          <GeneratedChecksum dnOrder="4">C537ECEB53555F53D6877A2C7EE5A8FC</GeneratedChecksum>
          <UserChecksum dnOrder="5">C537ECEB53555F53D6877A2C7EE5A8FC</UserChecksum>
        </File>
        <File dnOrder="43">
          <Type dnOrder="0">HEADER</Type>
          <Name dnOrder="1">icb.h</Name>
          <LogicalPath dnOrder="2">packs/ATSAML10E16A_DFP/component/</LogicalPath>
          <PhysicalPath dnOrder="3">/../../packs/ATSAML10E16A_DFP/component/</PhysicalPath>
          <GeneratedChecksum dnOrder="4">F92C1680A900DAC7F75919A591419668</GeneratedChecksum>
          <UserChecksum dnOrder="5">F92C1680A900DAC7F75919A591419668</UserChecksum>
        </File>
        <File dnOrder="44">
          <Type dnOrder="0">HEADER</Type>
          <Name dnOrder="1">idau.h</Name>
          <LogicalPath dnOrder="2">packs/ATSAML10E16A_DFP/component/</LogicalPath>
          <PhysicalPath dnOrder="3">/../../packs/ATSAML10E16A_DFP/component/</PhysicalPath>
          <GeneratedChecksum dnOrder="4">D8C795E99813FCCDC209920D24E3549B</GeneratedChecksum>
          <UserChecksum dnOrder="5">D8C795E99813FCCDC209920D24E3549B</UserChecksum>
        </File>
        <File dnOrder="45">
          <Type dnOrder="0">HEADER</Type>
          <Name dnOrder="1">mclk.h</Name>
          <LogicalPath dnOrder="2">packs/ATSAML10E16A_DFP/component/</LogicalPath>
          <PhysicalPath dnOrder="3">/../../packs/ATSAML10E16A_DFP/component/</PhysicalPath>
          <GeneratedChecksum dnOrder="4">F21C65497359F644D1D9B634CC67797A</GeneratedChecksum>
          <UserChecksum dnOrder="5">F21C65497359F644D1D9B634CC67797A</UserChecksum>
        </File>
        <File dnOrder="46">
          <Type dnOrder="0">HEADER</Type>
          <Name dnOrder="1">mpu_armv8.h</Name>
          <LogicalPath dnOrder="2">packs/CMSIS/CMSIS/Core/Include/</LogicalPath>
          <PhysicalPath dnOrder="3">/../../packs/CMSIS/CMSIS/Core/Include/</PhysicalPath>
          <GeneratedChecksum dnOrder="4">EBDCCACD419C9A33F913DD317A1B75A9</GeneratedChecksum>
          <UserChecksum dnOrder="5">EBDCCACD419C9A33F913DD317A1B75A9</UserChecksum>
        </File>
        <File dnOrder="47">
          <Type dnOrder="0">HEADER</Type>
          <Name dnOrder="1">nvmctrl.h</Name>
          <LogicalPath dnOrder="2">packs/ATSAML10E16A_DFP/component/</LogicalPath>
          <PhysicalPath dnOrder="3">/../../packs/ATSAML10E16A_DFP/component/</PhysicalPath>
          <GeneratedChecksum dnOrder="4">3A63CD01F2F1435C9F8266058872D433</GeneratedChecksum>
          <UserChecksum dnOrder="5">3A63CD01F2F1435C9F8266058872D433</UserChecksum>
        </File>
        <File dnOrder="48">
          <Type dnOrder="0">HEADER</Type>
          <Name dnOrder="1">opamp.h</Name>
          <LogicalPath dnOrder="2">packs/ATSAML10E16A_DFP/component/</LogicalPath>
          <PhysicalPath dnOrder="3">/../../packs/ATSAML10E16A_DFP/component/</PhysicalPath>
          <GeneratedChecksum dnOrder="4">A05F07BE03C7F6FDE659537C959BC1F3</GeneratedChecksum>
          <UserChecksum dnOrder="5">A05F07BE03C7F6FDE659537C959BC1F3</UserChecksum>
        </File>
        <File dnOrder="49">
          <Type dnOrder="0">HEADER</Type>
          <Name dnOrder="1">osc32kctrl.h</Name>
          <LogicalPath dnOrder="2">packs/ATSAML10E16A_DFP/component/</LogicalPath>
          <PhysicalPath dnOrder="3">/../../packs/ATSAML10E16A_DFP/component/</PhysicalPath>
          <GeneratedChecksum dnOrder="4">6F75C579165D41898F6532D6E81B27CC</GeneratedChecksum>
          <UserChecksum dnOrder="5">6F75C579165D41898F6532D6E81B27CC</UserChecksum>
        </File>
        <File dnOrder="50">
          <Type dnOrder="0">HEADER</Type>
          <Name dnOrder="1">oscctrl.h</Name>
          <LogicalPath dnOrder="2">packs/ATSAML10E16A_DFP/component/</LogicalPath>
          <PhysicalPath dnOrder="3">/../../packs/ATSAML10E16A_DFP/component/</PhysicalPath>
          <GeneratedChecksum dnOrder="4">53A1CA9CB51318DB3D0C6F9B57F6AED5</GeneratedChecksum>
          <UserChecksum dnOrder="5">53A1CA9CB51318DB3D0C6F9B57F6AED5</UserChecksum>
        </File>
        <File dnOrder="51">
          <Type dnOrder="0">HEADER</Type>
          <Name dnOrder="1">pac.h</Name>
          <LogicalPath dnOrder="2">packs/ATSAML10E16A_DFP/component/</LogicalPath>
          <PhysicalPath dnOrder="3">/../../packs/ATSAML10E16A_DFP/component/</PhysicalPath>
          <GeneratedChecksum dnOrder="4">4A931DE6A068C788AD44C628E73719FD</GeneratedChecksum>
          <UserChecksum dnOrder="5">4A931DE6A068C788AD44C628E73719FD</UserChecksum>
        </File>
        <File dnOrder="52">
          <Type dnOrder="0">HEADER</Type>
          <Name dnOrder="1">plib_adc.h</Name>
          <LogicalPath dnOrder="2">config/sam_l10_xpro/peripheral/adc/</LogicalPath>
          <PhysicalPath dnOrder="3">/peripheral/adc/</PhysicalPath>
          <GeneratedChecksum dnOrder="4">B1B2B66A4648B7B3B69AB9A2B419079E</GeneratedChecksum>
          <UserChecksum dnOrder="5">B1B2B66A4648B7B3B69AB9A2B419079E</UserChecksum>
        </File>
        <File dnOrder="53">
          <Type dnOrder="0">HEADER</Type>
          <Name dnOrder="1">plib_adc_common.h</Name>
          <LogicalPath dnOrder="2">config/sam_l10_xpro/peripheral/adc/</LogicalPath>
          <PhysicalPath dnOrder="3">/peripheral/adc/</PhysicalPath>
          <GeneratedChecksum dnOrder="4">3550C9C65E6BA4486D2E1479C96C034A</GeneratedChecksum>
          <UserChecksum dnOrder="5">3550C9C65E6BA4486D2E1479C96C034A</UserChecksum>
        </File>
        <File dnOrder="54">
          <Type dnOrder="0">HEADER</Type>
          <Name dnOrder="1">plib_clock.h</Name>
          <LogicalPath dnOrder="2">config/sam_l10_xpro/peripheral/clock/</LogicalPath>
          <PhysicalPath dnOrder="3">/peripheral/clock/</PhysicalPath>
          <GeneratedChecksum dnOrder="4">BB4FAC4F00C0D5A94EC40CE92DE7B515</GeneratedChecksum>
          <UserChecksum dnOrder="5">BB4FAC4F00C0D5A94EC40CE92DE7B515</UserChecksum>
        </File>
        <File dnOrder="55">
          <Type dnOrder="0">HEADER</Type>
          <Name dnOrder="1">plib_evsys.h</Name>
          <LogicalPath dnOrder="2">config/sam_l10_xpro/peripheral/evsys</LogicalPath>
          <PhysicalPath dnOrder="3">/peripheral/evsys/</PhysicalPath>
          <GeneratedChecksum dnOrder="4">CCAEF942C66AF995876DFD85CEFF611F</GeneratedChecksum>
          <UserChecksum dnOrder="5">CCAEF942C66AF995876DFD85CEFF611F</UserChecksum>
        </File>
        <File dnOrder="56">
          <Type dnOrder="0">HEADER</Type>
          <Name dnOrder="1">plib_nvic.h</Name>
          <LogicalPath dnOrder="2">config/sam_l10_xpro/peripheral/nvic/</LogicalPath>
          <PhysicalPath dnOrder="3">/peripheral/nvic/</PhysicalPath>
          <GeneratedChecksum dnOrder="4">E95AB23B866AA0CE6F0ABF637E9E2C83</GeneratedChecksum>
          <UserChecksum dnOrder="5">E95AB23B866AA0CE6F0ABF637E9E2C83</UserChecksum>
        </File>
        <File dnOrder="57">
          <Type dnOrder="0">HEADER</Type>
          <Name dnOrder="1">plib_nvmctrl.h</Name>
          <LogicalPath dnOrder="2">config/sam_l10_xpro/peripheral/nvmctrl/</LogicalPath>
          <PhysicalPath dnOrder="3">/peripheral/nvmctrl/</PhysicalPath>
          <GeneratedChecksum dnOrder="4">A55795967233815C61593EC241932E30</GeneratedChecksum>
          <UserChecksum dnOrder="5">A55795967233815C61593EC241932E30</UserChecksum>
        </File>
        <File dnOrder="58">
          <Type dnOrder="0">HEADER</Type>
          <Name dnOrder="1">plib_opamp.h</Name>
          <LogicalPath dnOrder="2">config/sam_l10_xpro/peripheral/opamp/</LogicalPath>
          <PhysicalPath dnOrder="3">/peripheral/opamp/</PhysicalPath>
          <GeneratedChecksum dnOrder="4">239CA25BF8EFEEB9896029E61497E093</GeneratedChecksum>
          <UserChecksum dnOrder="5">239CA25BF8EFEEB9896029E61497E093</UserChecksum>
        </File>
        <File dnOrder="59">
          <Type dnOrder="0">HEADER</Type>
          <Name dnOrder="1">plib_pm.h</Name>
          <LogicalPath dnOrder="2">config/sam_l10_xpro/peripheral/pm/</LogicalPath>
          <PhysicalPath dnOrder="3">/peripheral/pm/</PhysicalPath>
          <GeneratedChecksum dnOrder="4">8C396397F7AACEFD9F327A14A8ED33F1</GeneratedChecksum>
          <UserChecksum dnOrder="5">8C396397F7AACEFD9F327A14A8ED33F1</UserChecksum>
        </File>
        <File dnOrder="60">
          <Type dnOrder="0">HEADER</Type>
          <Name dnOrder="1">plib_port.h</Name>
          <LogicalPath dnOrder="2">config/sam_l10_xpro/peripheral/port/</LogicalPath>
          <PhysicalPath dnOrder="3">/peripheral/port/</PhysicalPath>
          <GeneratedChecksum dnOrder="4">8D7D0CE25437125FAC06837CFFC9DFD7</GeneratedChecksum>
          <UserChecksum dnOrder="5">8D7D0CE25437125FAC06837CFFC9DFD7</UserChecksum>
        </File>
        <File dnOrder="61">
          <Type dnOrder="0">HEADER</Type>
          <Name dnOrder="1">plib_sercom0_usart.h</Name>
          <LogicalPath dnOrder="2">config/sam_l10_xpro/peripheral/sercom/usart/</LogicalPath>
          <PhysicalPath dnOrder="3">/peripheral/sercom/usart/</PhysicalPath>
          <GeneratedChecksum dnOrder="4">D6DE9FB45AD286A8AEC0404A95FF5250</GeneratedChecksum>
          <UserChecksum dnOrder="5">D6DE9FB45AD286A8AEC0404A95FF5250</UserChecksum>
        </File>
        <File dnOrder="62">
          <Type dnOrder="0">HEADER</Type>
          <Name dnOrder="1">plib_sercom_usart_common.h</Name>
          <LogicalPath dnOrder="2">config/sam_l10_xpro/peripheral/sercom/usart/</LogicalPath>
          <PhysicalPath dnOrder="3">/peripheral/sercom/usart/</PhysicalPath>
          <GeneratedChecksum dnOrder="4">ECBB2330CAAAF4DDF9F34EEC552438D5</GeneratedChecksum>
          <UserChecksum dnOrder="5">ECBB2330CAAAF4DDF9F34EEC552438D5</UserChecksum>
        </File>
        <File dnOrder="63">
          <Type dnOrder="0">HEADER</Type>
          <Name dnOrder="1">plib_systick.h</Name>
          <LogicalPath dnOrder="2">config/sam_l10_xpro/peripheral/systick/</LogicalPath>
          <PhysicalPath dnOrder="3">/peripheral/systick/</PhysicalPath>
          <GeneratedChecksum dnOrder="4">77CADD6383B16C0F8D79C7FDCF1A6107</GeneratedChecksum>
          <UserChecksum dnOrder="5">77CADD6383B16C0F8D79C7FDCF1A6107</UserChecksum>
        </File>
        <File dnOrder="64">
          <Type dnOrder="0">HEADER</Type>
          <Name dnOrder="1">pm.h</Name>
          <LogicalPath dnOrder="2">packs/ATSAML10E16A_DFP/component/</LogicalPath>
          <PhysicalPath dnOrder="3">/../../packs/ATSAML10E16A_DFP/component/</PhysicalPath>
          <GeneratedChecksum dnOrder="4">BB1E0A11CA539B4DBAFA7E0EE4D75CD1</GeneratedChecksum>
          <UserChecksum dnOrder="5">BB1E0A11CA539B4DBAFA7E0EE4D75CD1</UserChecksum>
        </File>
        <File dnOrder="65">
          <Type dnOrder="0">HEADER</Type>
          <Name dnOrder="1">port.h</Name>
          <LogicalPath dnOrder="2">packs/ATSAML10E16A_DFP/component/</LogicalPath>
          <PhysicalPath dnOrder="3">/../../packs/ATSAML10E16A_DFP/component/</PhysicalPath>
          <GeneratedChecksum dnOrder="4">020AF15AE19FB0E79F71D123C5212F14</GeneratedChecksum>
          <UserChecksum dnOrder="5">020AF15AE19FB0E79F71D123C5212F14</UserChecksum>
        </File>
        <File dnOrder="66">
          <Type dnOrder="0">HEADER</Type>
          <Name dnOrder="1">ptc.h</Name>
          <LogicalPath dnOrder="2">packs/ATSAML10E16A_DFP/component/</LogicalPath>
          <PhysicalPath dnOrder="3">/../../packs/ATSAML10E16A_DFP/component/</PhysicalPath>
          <GeneratedChecksum dnOrder="4">DBF179CDF124CE61A18647A6F2CADD37</GeneratedChecksum>
          <UserChecksum dnOrder="5">DBF179CDF124CE61A18647A6F2CADD37</UserChecksum>
        </File>
        <File dnOrder="67">
          <Type dnOrder="0">HEADER</Type>
          <Name dnOrder="1">rstc.h</Name>
          <LogicalPath dnOrder="2">packs/ATSAML10E16A_DFP/component/</LogicalPath>
          <PhysicalPath dnOrder="3">/../../packs/ATSAML10E16A_DFP/component/</PhysicalPath>
          <GeneratedChecksum dnOrder="4">2846856F7D30E39C3B2D5C6B6A1118CC</GeneratedChecksum>
          <UserChecksum dnOrder="5">2846856F7D30E39C3B2D5C6B6A1118CC</UserChecksum>
        </File>
        <File dnOrder="68">
          <Type dnOrder="0">HEADER</Type>
          <Name dnOrder="1">rtc.h</Name>
          <LogicalPath dnOrder="2">packs/ATSAML10E16A_DFP/component/</LogicalPath>
          <PhysicalPath dnOrder="3">/../../packs/ATSAML10E16A_DFP/component/</PhysicalPath>
          <GeneratedChecksum dnOrder="4">7E59C8749E581545FCFA2C5D7BBB0454</GeneratedChecksum>
          <UserChecksum dnOrder="5">7E59C8749E581545FCFA2C5D7BBB0454</UserChecksum>
        </File>
        <File dnOrder="69">
          <Type dnOrder="0">HEADER</Type>
          <Name dnOrder="1">saml10e16a.h</Name>
          <LogicalPath dnOrder="2">packs/ATSAML10E16A_DFP/pio/</LogicalPath>
          <PhysicalPath dnOrder="3">/../../packs/ATSAML10E16A_DFP/pio/</PhysicalPath>
          <GeneratedChecksum dnOrder="4">420B95C813AE2BAE14D684BA2D1D355E</GeneratedChecksum>
          <UserChecksum dnOrder="5">420B95C813AE2BAE14D684BA2D1D355E</UserChecksum>
        </File>
        <File dnOrder="70">
          <Type dnOrder="0">HEADER</Type>
          <Name dnOrder="1">sercom.h</Name>
          <LogicalPath dnOrder="2">packs/ATSAML10E16A_DFP/component/</LogicalPath>
          <PhysicalPath dnOrder="3">/../../packs/ATSAML10E16A_DFP/component/</PhysicalPath>
          <GeneratedChecksum dnOrder="4">1D20A1D14DA3813935E8B7261DA0F7B8</GeneratedChecksum>
          <UserChecksum dnOrder="5">1D20A1D14DA3813935E8B7261DA0F7B8</UserChecksum>
        </File>
        <File dnOrder="71">
          <Type dnOrder="0">HEADER</Type>
          <Name dnOrder="1">supc.h</Name>
          <LogicalPath dnOrder="2">packs/ATSAML10E16A_DFP/component/</LogicalPath>
          <PhysicalPath dnOrder="3">/../../packs/ATSAML10E16A_DFP/component/</PhysicalPath>
          <GeneratedChecksum dnOrder="4">65060EC40CCB89FBC59C66355B7D15BC</GeneratedChecksum>
          <UserChecksum dnOrder="5">65060EC40CCB89FBC59C66355B7D15BC</UserChecksum>
        </File>
        <File dnOrder="72">
          <Type dnOrder="0">HEADER</Type>
          <Name dnOrder="1">tc.h</Name>
          <LogicalPath dnOrder="2">packs/ATSAML10E16A_DFP/component/</LogicalPath>
          <PhysicalPath dnOrder="3">/../../packs/ATSAML10E16A_DFP/component/</PhysicalPath>
          <GeneratedChecksum dnOrder="4">6061390029BC79D4B592B7E371FD59A7</GeneratedChecksum>
          <UserChecksum dnOrder="5">6061390029BC79D4B592B7E371FD59A7</UserChecksum>
        </File>
        <File dnOrder="73">
          <Type dnOrder="0">HEADER</Type>
          <Name dnOrder="1">toolchain_specifics.h</Name>
          <LogicalPath dnOrder="2">config/sam_l10_xpro/</LogicalPath>
          <PhysicalPath dnOrder="3">/</PhysicalPath>
          <GeneratedChecksum dnOrder="4">4F3C5B6A299E310404C004FB60312B4A</GeneratedChecksum>
          <UserChecksum dnOrder="5">4F3C5B6A299E310404C004FB60312B4A</UserChecksum>
        </File>
        <File dnOrder="74">
          <Type dnOrder="0">HEADER</Type>
          <Name dnOrder="1">tram.h</Name>
          <LogicalPath dnOrder="2">packs/ATSAML10E16A_DFP/component/</LogicalPath>
          <PhysicalPath dnOrder="3">/../../packs/ATSAML10E16A_DFP/component/</PhysicalPath>
          <GeneratedChecksum dnOrder="4">F278754DF5C05391E1BCC9A853758911</GeneratedChecksum>
          <UserChecksum dnOrder="5">F278754DF5C05391E1BCC9A853758911</UserChecksum>
        </File>
        <File dnOrder="75">
          <Type dnOrder="0">HEADER</Type>
          <Name dnOrder="1">trng.h</Name>
          <LogicalPath dnOrder="2">packs/ATSAML10E16A_DFP/component/</LogicalPath>
          <PhysicalPath dnOrder="3">/../../packs/ATSAML10E16A_DFP/component/</PhysicalPath>
          <GeneratedChecksum dnOrder="4">A3ECC0734A948F72CE59F3A060CB0C0D</GeneratedChecksum>
          <UserChecksum dnOrder="5">A3ECC0734A948F72CE59F3A060CB0C0D</UserChecksum>
        </File>
        <File dnOrder="76">
          <Type dnOrder="0">HEADER</Type>
          <Name dnOrder="1">tz_context.h</Name>
          <LogicalPath dnOrder="2">packs/CMSIS/CMSIS/Core/Include/</LogicalPath>
          <PhysicalPath dnOrder="3">/../../packs/CMSIS/CMSIS/Core/Include/</PhysicalPath>
          <GeneratedChecksum dnOrder="4">8710F2682DA1C97558850902DABA38BA</GeneratedChecksum>
          <UserChecksum dnOrder="5">8710F2682DA1C97558850902DABA38BA</UserChecksum>
        </File>
        <File dnOrder="77">
          <Type dnOrder="0">HEADER</Type>
          <Name dnOrder="1">wdt.h</Name>
          <LogicalPath dnOrder="2">packs/ATSAML10E16A_DFP/component/</LogicalPath>
          <PhysicalPath dnOrder="3">/../../packs/ATSAML10E16A_DFP/component/</PhysicalPath>
          <GeneratedChecksum dnOrder="4">A813D3B943AC4E5C9B3F735E13AF1B76</GeneratedChecksum>
          <UserChecksum dnOrder="5">A813D3B943AC4E5C9B3F735E13AF1B76</UserChecksum>
        </File>
      </Files>
      <Settings dnOrder="1">
        <Setting append="true" category="C32" delimiter=";" dnOrder="0" key="extra-include-directories" value="../src;../src/config/sam_l10_xpro;../src/packs/ATSAML10E16A_DFP;../src/packs/CMSIS/CMSIS/Core/Include;../src/packs/CMSIS/;../src/arm"/>
        <Setting category="C32-LD" dnOrder="1" key="heap-size" value="0"/>
        <Setting category="C32-LD" dnOrder="2" key="no-device-startup-code" value="true"/>
        <Setting category="C32-LD" dnOrder="3" key="preprocessor-macros" value=""/>
      </Settings>
    </Manifest>
    <Settings dnOrder="4">
      <Setting dnOrder="0" key="CMSISPath" value=".\dev_packs\arm\CMSIS\5.5.1"/>
      <Setting dnOrder="1" key="DFPPath" value=".\dev_packs\Microchip\SAML10_DFP\2.0.28\atdf\ATSAML10E16A.atdf"/>
      <Setting dnOrder="2" key="FORCE_OPTIMIZATION" value="false"/>
      <Setting dnOrder="3" key="GENERATE_BACKUP" value="true"/>
      <Setting dnOrder="4" key="MERGE_STRATEGY" value="ALL"/>
      <Setting dnOrder="5" key="PackageFilter" value="csp;"/>
    </Settings>
  </Configurator>
</Configuration>
