<?xml version="1.0" encoding="UTF-8" standalone="no"?>
<Configuration>
  <Configurator>
    <Name dnOrder="0" value="sam_g55_xpro"/>
    <Processor dnOrder="1" value="ATSAMG55J19"/>
    <Harmony dnOrder="2" path="../../../.."/>
    <Manifest dnOrder="3">
      <Files dnOrder="0">
        <File dnOrder="0">
          <Type dnOrder="0">SOURCE</Type>
          <Name dnOrder="1">exceptions.c</Name>
          <LogicalPath dnOrder="2">config/sam_g55_xpro/</LogicalPath>
          <PhysicalPath dnOrder="3">/</PhysicalPath>
          <GeneratedChecksum dnOrder="4">3C64B0B744B67F634A4B2C0AF49B32A8</GeneratedChecksum>
          <UserChecksum dnOrder="5">3C64B0B744B67F634A4B2C0AF49B32A8</UserChecksum>
        </File>
        <File dnOrder="1">
          <Type dnOrder="0">SOURCE</Type>
          <Name dnOrder="1">initialization.c</Name>
          <LogicalPath dnOrder="2">config/sam_g55_xpro/</LogicalPath>
          <PhysicalPath dnOrder="3">/</PhysicalPath>
          <GeneratedChecksum dnOrder="4">5529A4A67EEA246F4D64C1E7DDE86505</GeneratedChecksum>
          <UserChecksum dnOrder="5">1B92020CF9429265D80A884F7026B21A</UserChecksum>
        </File>
        <File dnOrder="2">
          <Type dnOrder="0">SOURCE</Type>
          <Name dnOrder="1">interrupts.c</Name>
          <LogicalPath dnOrder="2">config/sam_g55_xpro/</LogicalPath>
          <PhysicalPath dnOrder="3">/</PhysicalPath>
          <GeneratedChecksum dnOrder="4">9C050D8E410DCDD8140F3040976260FB</GeneratedChecksum>
          <UserChecksum dnOrder="5">9C050D8E410DCDD8140F3040976260FB</UserChecksum>
        </File>
        <File dnOrder="3">
          <Type dnOrder="0">SOURCE</Type>
          <Name dnOrder="1">libc_syscalls.c</Name>
          <LogicalPath dnOrder="2">config/sam_g55_xpro/</LogicalPath>
          <PhysicalPath dnOrder="3">/</PhysicalPath>
          <GeneratedChecksum dnOrder="4">0D061464696B9E5D276A90A352736879</GeneratedChecksum>
          <UserChecksum dnOrder="5">0D061464696B9E5D276A90A352736879</UserChecksum>
        </File>
        <File dnOrder="4">
          <Type dnOrder="0">SOURCE</Type>
          <Name dnOrder="1">main_g55.c</Name>
          <LogicalPath dnOrder="2"/>
          <PhysicalPath dnOrder="3">/../../</PhysicalPath>
          <GeneratedChecksum dnOrder="4"/>
          <UserChecksum dnOrder="5"/>
        </File>
        <File dnOrder="5">
          <Type dnOrder="0">SOURCE</Type>
          <Name dnOrder="1">plib_clock.c</Name>
          <LogicalPath dnOrder="2">config/sam_g55_xpro/peripheral/clock/</LogicalPath>
          <PhysicalPath dnOrder="3">/peripheral/clock/</PhysicalPath>
          <GeneratedChecksum dnOrder="4">24872F9845E6D1E993BB24DDA285837B</GeneratedChecksum>
          <UserChecksum dnOrder="5">24872F9845E6D1E993BB24DDA285837B</UserChecksum>
        </File>
        <File dnOrder="6">
          <Type dnOrder="0">SOURCE</Type>
          <Name dnOrder="1">plib_cmcc.c</Name>
          <LogicalPath dnOrder="2">config/sam_g55_xpro/peripheral/cmcc/</LogicalPath>
          <PhysicalPath dnOrder="3">/peripheral/cmcc/</PhysicalPath>
          <GeneratedChecksum dnOrder="4">FD8CCFC86D63BF1AC9F15EBA909D181D</GeneratedChecksum>
          <UserChecksum dnOrder="5">FD8CCFC86D63BF1AC9F15EBA909D181D</UserChecksum>
        </File>
        <File dnOrder="7">
          <Type dnOrder="0">SOURCE</Type>
          <Name dnOrder="1">plib_efc.c</Name>
          <LogicalPath dnOrder="2">config/sam_g55_xpro/peripheral/efc/</LogicalPath>
          <PhysicalPath dnOrder="3">/peripheral/efc/</PhysicalPath>
          <GeneratedChecksum dnOrder="4">643EF542F3EEFFEBC41FE26D9231EA8A</GeneratedChecksum>
          <UserChecksum dnOrder="5">643EF542F3EEFFEBC41FE26D9231EA8A</UserChecksum>
        </File>
        <File dnOrder="8">
          <Type dnOrder="0">SOURCE</Type>
          <Name dnOrder="1">plib_flexcom7_usart.c</Name>
          <LogicalPath dnOrder="2">config/sam_g55_xpro/peripheral/flexcom/usart/</LogicalPath>
          <PhysicalPath dnOrder="3">/peripheral/flexcom/usart/</PhysicalPath>
          <GeneratedChecksum dnOrder="4">21B12F3539409F1D71F024C8E2BF95A4</GeneratedChecksum>
          <UserChecksum dnOrder="5">21B12F3539409F1D71F024C8E2BF95A4</UserChecksum>
        </File>
        <File dnOrder="9">
          <Type dnOrder="0">SOURCE</Type>
          <Name dnOrder="1">plib_nvic.c</Name>
          <LogicalPath dnOrder="2">config/sam_g55_xpro/peripheral/nvic/</LogicalPath>
          <PhysicalPath dnOrder="3">/peripheral/nvic/</PhysicalPath>
          <GeneratedChecksum dnOrder="4">636D34485C0E5A601866BA7FE96AA458</GeneratedChecksum>
          <UserChecksum dnOrder="5">636D34485C0E5A601866BA7FE96AA458</UserChecksum>
        </File>
        <File dnOrder="10">
          <Type dnOrder="0">SOURCE</Type>
          <Name dnOrder="1">plib_pio.c</Name>
          <LogicalPath dnOrder="2">config/sam_g55_xpro/peripheral/pio/</LogicalPath>
          <PhysicalPath dnOrder="3">/peripheral/pio/</PhysicalPath>
          <GeneratedChecksum dnOrder="4">4C47B30A9F5C466F8C95DF8DAC99366C</GeneratedChecksum>
          <UserChecksum dnOrder="5">4C47B30A9F5C466F8C95DF8DAC99366C</UserChecksum>
        </File>
        <File dnOrder="11">
          <Type dnOrder="0">SOURCE</Type>
          <Name dnOrder="1">plib_rtc.c</Name>
          <LogicalPath dnOrder="2">config/sam_g55_xpro/peripheral/rtc/</LogicalPath>
          <PhysicalPath dnOrder="3">/peripheral/rtc/</PhysicalPath>
          <GeneratedChecksum dnOrder="4">361D63895AF01C98468F6298F131D15C</GeneratedChecksum>
          <UserChecksum dnOrder="5">361D63895AF01C98468F6298F131D15C</UserChecksum>
        </File>
        <File dnOrder="12">
          <Type dnOrder="0">SOURCE</Type>
          <Name dnOrder="1">plib_supc.c</Name>
          <LogicalPath dnOrder="2">config/sam_g55_xpro/peripheral/supc/</LogicalPath>
          <PhysicalPath dnOrder="3">/peripheral/supc/</PhysicalPath>
          <GeneratedChecksum dnOrder="4">EDB71DFE1A956380E68A9AE436234DD6</GeneratedChecksum>
          <UserChecksum dnOrder="5">EDB71DFE1A956380E68A9AE436234DD6</UserChecksum>
        </File>
        <File dnOrder="13">
          <Type dnOrder="0">SOURCE</Type>
          <Name dnOrder="1">plib_systick.c</Name>
          <LogicalPath dnOrder="2">config/sam_g55_xpro/peripheral/systick/</LogicalPath>
          <PhysicalPath dnOrder="3">/peripheral/systick/</PhysicalPath>
          <GeneratedChecksum dnOrder="4">A61B69BED8F0844B8A0C8EFF879613D0</GeneratedChecksum>
          <UserChecksum dnOrder="5">A61B69BED8F0844B8A0C8EFF879613D0</UserChecksum>
        </File>
        <File dnOrder="14">
          <Type dnOrder="0">SOURCE</Type>
          <Name dnOrder="1">startup_xc32.c</Name>
          <LogicalPath dnOrder="2">config/sam_g55_xpro/</LogicalPath>
          <PhysicalPath dnOrder="3">/</PhysicalPath>
          <GeneratedChecksum dnOrder="4">6813F424643A4F8B4014A4396FC8B838</GeneratedChecksum>
          <UserChecksum dnOrder="5">6813F424643A4F8B4014A4396FC8B838</UserChecksum>
        </File>
        <File dnOrder="15">
          <Type dnOrder="0">SOURCE</Type>
          <Name dnOrder="1">xc32_monitor.c</Name>
          <LogicalPath dnOrder="2">config/sam_g55_xpro/stdio/</LogicalPath>
          <PhysicalPath dnOrder="3">/stdio/</PhysicalPath>
          <GeneratedChecksum dnOrder="4">07A5E756336500DB59A17709D4313BEC</GeneratedChecksum>
          <UserChecksum dnOrder="5">07A5E756336500DB59A17709D4313BEC</UserChecksum>
        </File>
        <File dnOrder="16">
          <Type dnOrder="0">HEADER</Type>
          <Name dnOrder="1">adc.h</Name>
          <LogicalPath dnOrder="2">packs/ATSAMG55J19_DFP/component/</LogicalPath>
          <PhysicalPath dnOrder="3">/../../packs/ATSAMG55J19_DFP/component/</PhysicalPath>
          <GeneratedChecksum dnOrder="4">99F9C75DC21301B46E4A010535382A44</GeneratedChecksum>
          <UserChecksum dnOrder="5">99F9C75DC21301B46E4A010535382A44</UserChecksum>
        </File>
        <File dnOrder="17">
          <Type dnOrder="0">HEADER</Type>
          <Name dnOrder="1">arm_common_tables.h</Name>
          <LogicalPath dnOrder="2">packs/CMSIS/CMSIS/DSP/Include/</LogicalPath>
          <PhysicalPath dnOrder="3">/../../packs/CMSIS/CMSIS/DSP/Include/</PhysicalPath>
          <GeneratedChecksum dnOrder="4">ECE7DC494F56CE01D96DE918E61B7C02</GeneratedChecksum>
          <UserChecksum dnOrder="5">ECE7DC494F56CE01D96DE918E61B7C02</UserChecksum>
        </File>
        <File dnOrder="18">
          <Type dnOrder="0">HEADER</Type>
          <Name dnOrder="1">arm_const_structs.h</Name>
          <LogicalPath dnOrder="2">packs/CMSIS/CMSIS/DSP/Include/</LogicalPath>
          <PhysicalPath dnOrder="3">/../../packs/CMSIS/CMSIS/DSP/Include/</PhysicalPath>
          <GeneratedChecksum dnOrder="4">B99479A6A9F72E72C614DB59601DC762</GeneratedChecksum>
          <UserChecksum dnOrder="5">B99479A6A9F72E72C614DB59601DC762</UserChecksum>
        </File>
        <File dnOrder="19">
          <Type dnOrder="0">HEADER</Type>
          <Name dnOrder="1">arm_math.h</Name>
          <LogicalPath dnOrder="2">packs/CMSIS/CMSIS/DSP/Include/</LogicalPath>
          <PhysicalPath dnOrder="3">/../../packs/CMSIS/CMSIS/DSP/Include/</PhysicalPath>
          <GeneratedChecksum dnOrder="4">27F6D2D0CB97CA5159FE0788243E978E</GeneratedChecksum>
          <UserChecksum dnOrder="5">27F6D2D0CB97CA5159FE0788243E978E</UserChecksum>
        </File>
        <File dnOrder="20">
          <Type dnOrder="0">HEADER</Type>
          <Name dnOrder="1">atsamg55j19.h</Name>
          <LogicalPath dnOrder="2">packs/ATSAMG55J19_DFP/</LogicalPath>
          <PhysicalPath dnOrder="3">/../../packs/ATSAMG55J19_DFP/</PhysicalPath>
          <GeneratedChecksum dnOrder="4">673D1972ECB410791C491665A73E6DF9</GeneratedChecksum>
          <UserChecksum dnOrder="5">673D1972ECB410791C491665A73E6DF9</UserChecksum>
        </File>
        <File dnOrder="21">
          <Type dnOrder="0">HEADER</Type>
          <Name dnOrder="1">chipid.h</Name>
          <LogicalPath dnOrder="2">packs/ATSAMG55J19_DFP/component/</LogicalPath>
          <PhysicalPath dnOrder="3">/../../packs/ATSAMG55J19_DFP/component/</PhysicalPath>
          <GeneratedChecksum dnOrder="4">0F731DE21399779C65338FD8C61A9B6F</GeneratedChecksum>
          <UserChecksum dnOrder="5">0F731DE21399779C65338FD8C61A9B6F</UserChecksum>
        </File>
        <File dnOrder="22">
          <Type dnOrder="0">HEADER</Type>
          <Name dnOrder="1">cmcc.h</Name>
          <LogicalPath dnOrder="2">packs/ATSAMG55J19_DFP/component/</LogicalPath>
          <PhysicalPath dnOrder="3">/../../packs/ATSAMG55J19_DFP/component/</PhysicalPath>
          <GeneratedChecksum dnOrder="4">985FD3B0334077251FFC05929BEEB7BF</GeneratedChecksum>
          <UserChecksum dnOrder="5">985FD3B0334077251FFC05929BEEB7BF</UserChecksum>
        </File>
        <File dnOrder="23">
          <Type dnOrder="0">HEADER</Type>
          <Name dnOrder="1">cmsis_compiler.h</Name>
          <LogicalPath dnOrder="2">packs/CMSIS/CMSIS/Core/Include/</LogicalPath>
          <PhysicalPath dnOrder="3">/../../packs/CMSIS/CMSIS/Core/Include/</PhysicalPath>
          <GeneratedChecksum dnOrder="4">400D1CC9BE24708CF7AF1C5B9FE76E50</GeneratedChecksum>
          <UserChecksum dnOrder="5">400D1CC9BE24708CF7AF1C5B9FE76E50</UserChecksum>
        </File>
        <File dnOrder="24">
          <Type dnOrder="0">HEADER</Type>
          <Name dnOrder="1">cmsis_gcc.h</Name>
          <LogicalPath dnOrder="2">packs/CMSIS/CMSIS/Core/Include/</LogicalPath>
          <PhysicalPath dnOrder="3">/../../packs/CMSIS/CMSIS/Core/Include/</PhysicalPath>
          <GeneratedChecksum dnOrder="4">EB0729CA546715BB4BAA41AE37179D2B</GeneratedChecksum>
          <UserChecksum dnOrder="5">EB0729CA546715BB4BAA41AE37179D2B</UserChecksum>
        </File>
        <File dnOrder="25">
          <Type dnOrder="0">HEADER</Type>
          <Name dnOrder="1">cmsis_iccarm.h</Name>
          <LogicalPath dnOrder="2">packs/CMSIS/CMSIS/Core/Include/</LogicalPath>
          <PhysicalPath dnOrder="3">/../../packs/CMSIS/CMSIS/Core/Include/</PhysicalPath>
          <GeneratedChecksum dnOrder="4">07D0E0680601EE9E8A0D6506F0A556D9</GeneratedChecksum>
          <UserChecksum dnOrder="5">07D0E0680601EE9E8A0D6506F0A556D9</UserChecksum>
        </File>
        <File dnOrder="26">
          <Type dnOrder="0">HEADER</Type>
          <Name dnOrder="1">cmsis_version.h</Name>
          <LogicalPath dnOrder="2">packs/CMSIS/CMSIS/Core/Include/</LogicalPath>
          <PhysicalPath dnOrder="3">/../../packs/CMSIS/CMSIS/Core/Include/</PhysicalPath>
          <GeneratedChecksum dnOrder="4">C0876654D46C4217FC4F3AE616901992</GeneratedChecksum>
          <UserChecksum dnOrder="5">C0876654D46C4217FC4F3AE616901992</UserChecksum>
        </File>
        <File dnOrder="27">
          <Type dnOrder="0">HEADER</Type>
          <Name dnOrder="1">core_cm4.h</Name>
          <LogicalPath dnOrder="2">packs/CMSIS/CMSIS/Core/Include/</LogicalPath>
          <PhysicalPath dnOrder="3">/../../packs/CMSIS/CMSIS/Core/Include/</PhysicalPath>
          <GeneratedChecksum dnOrder="4">8F7F67B70210F65569743312138D47E0</GeneratedChecksum>
          <UserChecksum dnOrder="5">8F7F67B70210F65569743312138D47E0</UserChecksum>
        </File>
        <File dnOrder="28">
          <Type dnOrder="0">HEADER</Type>
          <Name dnOrder="1">crccu.h</Name>
          <LogicalPath dnOrder="2">packs/ATSAMG55J19_DFP/component/</LogicalPath>
          <PhysicalPath dnOrder="3">/../../packs/ATSAMG55J19_DFP/component/</PhysicalPath>
          <GeneratedChecksum dnOrder="4">BBA8D8C7CB9A586E5061CE8FB1300E78</GeneratedChecksum>
          <UserChecksum dnOrder="5">BBA8D8C7CB9A586E5061CE8FB1300E78</UserChecksum>
        </File>
        <File dnOrder="29">
          <Type dnOrder="0">HEADER</Type>
          <Name dnOrder="1">definitions.h</Name>
          <LogicalPath dnOrder="2">config/sam_g55_xpro/</LogicalPath>
          <PhysicalPath dnOrder="3">/</PhysicalPath>
          <GeneratedChecksum dnOrder="4">EE59CA4CEB38A2507D852CB5CCD39E4B</GeneratedChecksum>
          <UserChecksum dnOrder="5">EE59CA4CEB38A2507D852CB5CCD39E4B</UserChecksum>
        </File>
        <File dnOrder="30">
          <Type dnOrder="0">HEADER</Type>
          <Name dnOrder="1">device.h</Name>
          <LogicalPath dnOrder="2">packs/ATSAMG55J19_DFP/</LogicalPath>
          <PhysicalPath dnOrder="3">/../../packs/ATSAMG55J19_DFP/</PhysicalPath>
          <GeneratedChecksum dnOrder="4">99C489E82D7A906D29F196320CA04135</GeneratedChecksum>
          <UserChecksum dnOrder="5">99C489E82D7A906D29F196320CA04135</UserChecksum>
        </File>
        <File dnOrder="31">
          <Type dnOrder="0">HEADER</Type>
          <Name dnOrder="1">device_cache.h</Name>
          <LogicalPath dnOrder="2">config/sam_g55_xpro/</LogicalPath>
          <PhysicalPath dnOrder="3">/</PhysicalPath>
          <GeneratedChecksum dnOrder="4">CC82571B2CBE4744FFF9561FF29FE48D</GeneratedChecksum>
          <UserChecksum dnOrder="5">CC82571B2CBE4744FFF9561FF29FE48D</UserChecksum>
        </File>
        <File dnOrder="32">
          <Type dnOrder="0">HEADER</Type>
          <Name dnOrder="1">efc.h</Name>
          <LogicalPath dnOrder="2">packs/ATSAMG55J19_DFP/component/</LogicalPath>
          <PhysicalPath dnOrder="3">/../../packs/ATSAMG55J19_DFP/component/</PhysicalPath>
          <GeneratedChecksum dnOrder="4">CB9622E31F9B613E9A775F74BE80A81B</GeneratedChecksum>
          <UserChecksum dnOrder="5">CB9622E31F9B613E9A775F74BE80A81B</UserChecksum>
        </File>
        <File dnOrder="33">
          <Type dnOrder="0">HEADER</Type>
          <Name dnOrder="1">flexcom.h</Name>
          <LogicalPath dnOrder="2">packs/ATSAMG55J19_DFP/component/</LogicalPath>
          <PhysicalPath dnOrder="3">/../../packs/ATSAMG55J19_DFP/component/</PhysicalPath>
          <GeneratedChecksum dnOrder="4">3E38820177080916577837BFA5FAC9CD</GeneratedChecksum>
          <UserChecksum dnOrder="5">3E38820177080916577837BFA5FAC9CD</UserChecksum>
        </File>
        <File dnOrder="34">
          <Type dnOrder="0">HEADER</Type>
          <Name dnOrder="1">gpbr.h</Name>
          <LogicalPath dnOrder="2">packs/ATSAMG55J19_DFP/component/</LogicalPath>
          <PhysicalPath dnOrder="3">/../../packs/ATSAMG55J19_DFP/component/</PhysicalPath>
          <GeneratedChecksum dnOrder="4">3137187BF874B54C8091D1C51E4E6094</GeneratedChecksum>
          <UserChecksum dnOrder="5">3137187BF874B54C8091D1C51E4E6094</UserChecksum>
        </File>
        <File dnOrder="35">
          <Type dnOrder="0">HEADER</Type>
          <Name dnOrder="1">i2sc.h</Name>
          <LogicalPath dnOrder="2">packs/ATSAMG55J19_DFP/component/</LogicalPath>
          <PhysicalPath dnOrder="3">/../../packs/ATSAMG55J19_DFP/component/</PhysicalPath>
          <GeneratedChecksum dnOrder="4">3C674DADF2DD205C77E7A66F185DA999</GeneratedChecksum>
          <UserChecksum dnOrder="5">3C674DADF2DD205C77E7A66F185DA999</UserChecksum>
        </File>
        <File dnOrder="36">
          <Type dnOrder="0">HEADER</Type>
          <Name dnOrder="1">matrix.h</Name>
          <LogicalPath dnOrder="2">packs/ATSAMG55J19_DFP/component/</LogicalPath>
          <PhysicalPath dnOrder="3">/../../packs/ATSAMG55J19_DFP/component/</PhysicalPath>
          <GeneratedChecksum dnOrder="4">865BC2A85E6EC471296A83745AAF170D</GeneratedChecksum>
          <UserChecksum dnOrder="5">865BC2A85E6EC471296A83745AAF170D</UserChecksum>
        </File>
        <File dnOrder="37">
          <Type dnOrder="0">HEADER</Type>
          <Name dnOrder="1">mem2mem.h</Name>
          <LogicalPath dnOrder="2">packs/ATSAMG55J19_DFP/component/</LogicalPath>
          <PhysicalPath dnOrder="3">/../../packs/ATSAMG55J19_DFP/component/</PhysicalPath>
          <GeneratedChecksum dnOrder="4">43727D05C0B1FAC06E0886A35548C452</GeneratedChecksum>
          <UserChecksum dnOrder="5">43727D05C0B1FAC06E0886A35548C452</UserChecksum>
        </File>
        <File dnOrder="38">
          <Type dnOrder="0">HEADER</Type>
          <Name dnOrder="1">mpu_armv7.h</Name>
          <LogicalPath dnOrder="2">packs/CMSIS/CMSIS/Core/Include/</LogicalPath>
          <PhysicalPath dnOrder="3">/../../packs/CMSIS/CMSIS/Core/Include/</PhysicalPath>
          <GeneratedChecksum dnOrder="4">41F5CEC00B0EF0E4774921C5BD48BCC8</GeneratedChecksum>
          <UserChecksum dnOrder="5">41F5CEC00B0EF0E4774921C5BD48BCC8</UserChecksum>
        </File>
        <File dnOrder="39">
          <Type dnOrder="0">HEADER</Type>
          <Name dnOrder="1">pdc.h</Name>
          <LogicalPath dnOrder="2">packs/ATSAMG55J19_DFP/component/</LogicalPath>
          <PhysicalPath dnOrder="3">/../../packs/ATSAMG55J19_DFP/component/</PhysicalPath>
          <GeneratedChecksum dnOrder="4">D30F2AB0BAF6C96D44789C8535BD33DC</GeneratedChecksum>
          <UserChecksum dnOrder="5">D30F2AB0BAF6C96D44789C8535BD33DC</UserChecksum>
        </File>
        <File dnOrder="40">
          <Type dnOrder="0">HEADER</Type>
          <Name dnOrder="1">pdmic.h</Name>
          <LogicalPath dnOrder="2">packs/ATSAMG55J19_DFP/component/</LogicalPath>
          <PhysicalPath dnOrder="3">/../../packs/ATSAMG55J19_DFP/component/</PhysicalPath>
          <GeneratedChecksum dnOrder="4">53CA7812B9C81A41DF1E708BD2E121CA</GeneratedChecksum>
          <UserChecksum dnOrder="5">53CA7812B9C81A41DF1E708BD2E121CA</UserChecksum>
        </File>
        <File dnOrder="41">
          <Type dnOrder="0">HEADER</Type>
          <Name dnOrder="1">pio.h</Name>
          <LogicalPath dnOrder="2">packs/ATSAMG55J19_DFP/component/</LogicalPath>
          <PhysicalPath dnOrder="3">/../../packs/ATSAMG55J19_DFP/component/</PhysicalPath>
          <GeneratedChecksum dnOrder="4">4261D444898F1045122DFE48162B36B0</GeneratedChecksum>
          <UserChecksum dnOrder="5">4261D444898F1045122DFE48162B36B0</UserChecksum>
        </File>
        <File dnOrder="42">
          <Type dnOrder="0">HEADER</Type>
          <Name dnOrder="1">plib_clock.h</Name>
          <LogicalPath dnOrder="2">config/sam_g55_xpro/peripheral/clock/</LogicalPath>
          <PhysicalPath dnOrder="3">/peripheral/clock/</PhysicalPath>
          <GeneratedChecksum dnOrder="4">78387EA60F98EE9F5602C2EB8CFEA8B3</GeneratedChecksum>
          <UserChecksum dnOrder="5">78387EA60F98EE9F5602C2EB8CFEA8B3</UserChecksum>
        </File>
        <File dnOrder="43">
          <Type dnOrder="0">HEADER</Type>
          <Name dnOrder="1">plib_cmcc.h</Name>
          <LogicalPath dnOrder="2">config/sam_g55_xpro/peripheral/cmcc/</LogicalPath>
          <PhysicalPath dnOrder="3">/peripheral/cmcc/</PhysicalPath>
          <GeneratedChecksum dnOrder="4">4209AA8D29CCA5F4F705D4A6C8722DDB</GeneratedChecksum>
          <UserChecksum dnOrder="5">4209AA8D29CCA5F4F705D4A6C8722DDB</UserChecksum>
        </File>
        <File dnOrder="44">
          <Type dnOrder="0">HEADER</Type>
          <Name dnOrder="1">plib_efc.h</Name>
          <LogicalPath dnOrder="2">config/sam_g55_xpro/peripheral/efc/</LogicalPath>
          <PhysicalPath dnOrder="3">/peripheral/efc/</PhysicalPath>
          <GeneratedChecksum dnOrder="4">FB046CED42CA3B2AE1895C186571EF71</GeneratedChecksum>
          <UserChecksum dnOrder="5">FB046CED42CA3B2AE1895C186571EF71</UserChecksum>
        </File>
        <File dnOrder="45">
          <Type dnOrder="0">HEADER</Type>
          <Name dnOrder="1">plib_flexcom7_usart.h</Name>
          <LogicalPath dnOrder="2">config/sam_g55_xpro/peripheral/flexcom/usart/</LogicalPath>
          <PhysicalPath dnOrder="3">/peripheral/flexcom/usart/</PhysicalPath>
          <GeneratedChecksum dnOrder="4">09280405E661692112D1106DBC6CDC75</GeneratedChecksum>
          <UserChecksum dnOrder="5">09280405E661692112D1106DBC6CDC75</UserChecksum>
        </File>
        <File dnOrder="46">
          <Type dnOrder="0">HEADER</Type>
          <Name dnOrder="1">plib_flexcom_usart_local.h</Name>
          <LogicalPath dnOrder="2">config/sam_g55_xpro/peripheral/flexcom/usart/</LogicalPath>
          <PhysicalPath dnOrder="3">/peripheral/flexcom/usart/</PhysicalPath>
          <GeneratedChecksum dnOrder="4">21E7A86712611A63C9C334C21FA70654</GeneratedChecksum>
          <UserChecksum dnOrder="5">21E7A86712611A63C9C334C21FA70654</UserChecksum>
        </File>
        <File dnOrder="47">
          <Type dnOrder="0">HEADER</Type>
          <Name dnOrder="1">plib_nvic.h</Name>
          <LogicalPath dnOrder="2">config/sam_g55_xpro/peripheral/nvic/</LogicalPath>
          <PhysicalPath dnOrder="3">/peripheral/nvic/</PhysicalPath>
          <GeneratedChecksum dnOrder="4">E95AB23B866AA0CE6F0ABF637E9E2C83</GeneratedChecksum>
          <UserChecksum dnOrder="5">E95AB23B866AA0CE6F0ABF637E9E2C83</UserChecksum>
        </File>
        <File dnOrder="48">
          <Type dnOrder="0">HEADER</Type>
          <Name dnOrder="1">plib_pio.h</Name>
          <LogicalPath dnOrder="2">config/sam_g55_xpro/peripheral/pio/</LogicalPath>
          <PhysicalPath dnOrder="3">/peripheral/pio/</PhysicalPath>
          <GeneratedChecksum dnOrder="4">1AEDDA1FEA5C4B041F23D488B078D9BE</GeneratedChecksum>
          <UserChecksum dnOrder="5">1AEDDA1FEA5C4B041F23D488B078D9BE</UserChecksum>
        </File>
        <File dnOrder="49">
          <Type dnOrder="0">HEADER</Type>
          <Name dnOrder="1">plib_rtc.h</Name>
          <LogicalPath dnOrder="2">config/sam_g55_xpro/peripheral/rtc/</LogicalPath>
          <PhysicalPath dnOrder="3">/peripheral/rtc/</PhysicalPath>
          <GeneratedChecksum dnOrder="4">621AE9009C9F785D735088FDD9252CDF</GeneratedChecksum>
          <UserChecksum dnOrder="5">621AE9009C9F785D735088FDD9252CDF</UserChecksum>
        </File>
        <File dnOrder="50">
          <Type dnOrder="0">HEADER</Type>
          <Name dnOrder="1">plib_rtc_common.h</Name>
          <LogicalPath dnOrder="2">config/sam_g55_xpro/peripheral/rtc/</LogicalPath>
          <PhysicalPath dnOrder="3">/peripheral/rtc/</PhysicalPath>
          <GeneratedChecksum dnOrder="4">23DD6551AAD0E0BE65CAE99ECB44BD61</GeneratedChecksum>
          <UserChecksum dnOrder="5">23DD6551AAD0E0BE65CAE99ECB44BD61</UserChecksum>
        </File>
        <File dnOrder="51">
          <Type dnOrder="0">HEADER</Type>
          <Name dnOrder="1">plib_supc.h</Name>
          <LogicalPath dnOrder="2">config/sam_g55_xpro/peripheral/supc/</LogicalPath>
          <PhysicalPath dnOrder="3">/peripheral/supc/</PhysicalPath>
          <GeneratedChecksum dnOrder="4">E5E77F5A9541903F87F7779288D4E40C</GeneratedChecksum>
          <UserChecksum dnOrder="5">E5E77F5A9541903F87F7779288D4E40C</UserChecksum>
        </File>
        <File dnOrder="52">
          <Type dnOrder="0">HEADER</Type>
          <Name dnOrder="1">plib_supc_common.h</Name>
          <LogicalPath dnOrder="2">config/sam_g55_xpro/peripheral/supc/</LogicalPath>
          <PhysicalPath dnOrder="3">/peripheral/supc/</PhysicalPath>
          <GeneratedChecksum dnOrder="4">F83CA2BC0B4AFF80012AE6BB96FE7372</GeneratedChecksum>
          <UserChecksum dnOrder="5">F83CA2BC0B4AFF80012AE6BB96FE7372</UserChecksum>
        </File>
        <File dnOrder="53">
          <Type dnOrder="0">HEADER</Type>
          <Name dnOrder="1">plib_systick.h</Name>
          <LogicalPath dnOrder="2">config/sam_g55_xpro/peripheral/systick/</LogicalPath>
          <PhysicalPath dnOrder="3">/peripheral/systick/</PhysicalPath>
          <GeneratedChecksum dnOrder="4">A70A9F84A0A886B87EC789DD7205E1E0</GeneratedChecksum>
          <UserChecksum dnOrder="5">A70A9F84A0A886B87EC789DD7205E1E0</UserChecksum>
        </File>
        <File dnOrder="54">
          <Type dnOrder="0">HEADER</Type>
          <Name dnOrder="1">pmc.h</Name>
          <LogicalPath dnOrder="2">packs/ATSAMG55J19_DFP/component/</LogicalPath>
          <PhysicalPath dnOrder="3">/../../packs/ATSAMG55J19_DFP/component/</PhysicalPath>
          <GeneratedChecksum dnOrder="4">28F8DAC139D2FB3099C47235FFF19ABE</GeneratedChecksum>
          <UserChecksum dnOrder="5">28F8DAC139D2FB3099C47235FFF19ABE</UserChecksum>
        </File>
        <File dnOrder="55">
          <Type dnOrder="0">HEADER</Type>
          <Name dnOrder="1">rstc.h</Name>
          <LogicalPath dnOrder="2">packs/ATSAMG55J19_DFP/component/</LogicalPath>
          <PhysicalPath dnOrder="3">/../../packs/ATSAMG55J19_DFP/component/</PhysicalPath>
          <GeneratedChecksum dnOrder="4">AE11B702DE6A6CE44FD37761362241AB</GeneratedChecksum>
          <UserChecksum dnOrder="5">AE11B702DE6A6CE44FD37761362241AB</UserChecksum>
        </File>
        <File dnOrder="56">
          <Type dnOrder="0">HEADER</Type>
          <Name dnOrder="1">rtc.h</Name>
          <LogicalPath dnOrder="2">packs/ATSAMG55J19_DFP/component/</LogicalPath>
          <PhysicalPath dnOrder="3">/../../packs/ATSAMG55J19_DFP/component/</PhysicalPath>
          <GeneratedChecksum dnOrder="4">4572CAB9943A0383889594C0BFC5DC13</GeneratedChecksum>
          <UserChecksum dnOrder="5">4572CAB9943A0383889594C0BFC5DC13</UserChecksum>
        </File>
        <File dnOrder="57">
          <Type dnOrder="0">HEADER</Type>
          <Name dnOrder="1">rtt.h</Name>
          <LogicalPath dnOrder="2">packs/ATSAMG55J19_DFP/component/</LogicalPath>
          <PhysicalPath dnOrder="3">/../../packs/ATSAMG55J19_DFP/component/</PhysicalPath>
          <GeneratedChecksum dnOrder="4">681909D6AE45FFC070C3449FAB29A3EA</GeneratedChecksum>
          <UserChecksum dnOrder="5">681909D6AE45FFC070C3449FAB29A3EA</UserChecksum>
        </File>
        <File dnOrder="58">
          <Type dnOrder="0">HEADER</Type>
          <Name dnOrder="1">samg55j19.h</Name>
          <LogicalPath dnOrder="2">packs/ATSAMG55J19_DFP/pio/</LogicalPath>
          <PhysicalPath dnOrder="3">/../../packs/ATSAMG55J19_DFP/pio/</PhysicalPath>
          <GeneratedChecksum dnOrder="4">CE8160B8C545FD021AA93DB578494AE1</GeneratedChecksum>
          <UserChecksum dnOrder="5">CE8160B8C545FD021AA93DB578494AE1</UserChecksum>
        </File>
        <File dnOrder="59">
          <Type dnOrder="0">HEADER</Type>
          <Name dnOrder="1">spi.h</Name>
          <LogicalPath dnOrder="2">packs/ATSAMG55J19_DFP/component/</LogicalPath>
          <PhysicalPath dnOrder="3">/../../packs/ATSAMG55J19_DFP/component/</PhysicalPath>
          <GeneratedChecksum dnOrder="4">8DAB15F45FA0AC4FEF794F3A0D6B87FD</GeneratedChecksum>
          <UserChecksum dnOrder="5">8DAB15F45FA0AC4FEF794F3A0D6B87FD</UserChecksum>
        </File>
        <File dnOrder="60">
          <Type dnOrder="0">HEADER</Type>
          <Name dnOrder="1">supc.h</Name>
          <LogicalPath dnOrder="2">packs/ATSAMG55J19_DFP/component/</LogicalPath>
          <PhysicalPath dnOrder="3">/../../packs/ATSAMG55J19_DFP/component/</PhysicalPath>
          <GeneratedChecksum dnOrder="4">D14F5FE5A73BCCF6D3D0F68AF8D382F3</GeneratedChecksum>
          <UserChecksum dnOrder="5">D14F5FE5A73BCCF6D3D0F68AF8D382F3</UserChecksum>
        </File>
        <File dnOrder="61">
          <Type dnOrder="0">HEADER</Type>
          <Name dnOrder="1">tc.h</Name>
          <LogicalPath dnOrder="2">packs/ATSAMG55J19_DFP/component/</LogicalPath>
          <PhysicalPath dnOrder="3">/../../packs/ATSAMG55J19_DFP/component/</PhysicalPath>
          <GeneratedChecksum dnOrder="4">7C4DAACB48128E2BBBD98DDC8DFA9FCC</GeneratedChecksum>
          <UserChecksum dnOrder="5">7C4DAACB48128E2BBBD98DDC8DFA9FCC</UserChecksum>
        </File>
        <File dnOrder="62">
          <Type dnOrder="0">HEADER</Type>
          <Name dnOrder="1">toolchain_specifics.h</Name>
          <LogicalPath dnOrder="2">config/sam_g55_xpro/</LogicalPath>
          <PhysicalPath dnOrder="3">/</PhysicalPath>
          <GeneratedChecksum dnOrder="4">6AFF17EB43477034115ED7E02FBB7E69</GeneratedChecksum>
          <UserChecksum dnOrder="5">6AFF17EB43477034115ED7E02FBB7E69</UserChecksum>
        </File>
        <File dnOrder="63">
          <Type dnOrder="0">HEADER</Type>
          <Name dnOrder="1">twi.h</Name>
          <LogicalPath dnOrder="2">packs/ATSAMG55J19_DFP/component/</LogicalPath>
          <PhysicalPath dnOrder="3">/../../packs/ATSAMG55J19_DFP/component/</PhysicalPath>
          <GeneratedChecksum dnOrder="4">5CDC16C0C46A0FED7615B9400C02B0DB</GeneratedChecksum>
          <UserChecksum dnOrder="5">5CDC16C0C46A0FED7615B9400C02B0DB</UserChecksum>
        </File>
        <File dnOrder="64">
          <Type dnOrder="0">HEADER</Type>
          <Name dnOrder="1">tz_context.h</Name>
          <LogicalPath dnOrder="2">packs/CMSIS/CMSIS/Core/Include/</LogicalPath>
          <PhysicalPath dnOrder="3">/../../packs/CMSIS/CMSIS/Core/Include/</PhysicalPath>
          <GeneratedChecksum dnOrder="4">8710F2682DA1C97558850902DABA38BA</GeneratedChecksum>
          <UserChecksum dnOrder="5">8710F2682DA1C97558850902DABA38BA</UserChecksum>
        </File>
        <File dnOrder="65">
          <Type dnOrder="0">HEADER</Type>
          <Name dnOrder="1">udp.h</Name>
          <LogicalPath dnOrder="2">packs/ATSAMG55J19_DFP/component/</LogicalPath>
          <PhysicalPath dnOrder="3">/../../packs/ATSAMG55J19_DFP/component/</PhysicalPath>
          <GeneratedChecksum dnOrder="4">ED6EAB868B3D64D15F6C688972CC297B</GeneratedChecksum>
          <UserChecksum dnOrder="5">ED6EAB868B3D64D15F6C688972CC297B</UserChecksum>
        </File>
        <File dnOrder="66">
          <Type dnOrder="0">HEADER</Type>
          <Name dnOrder="1">uhp.h</Name>
          <LogicalPath dnOrder="2">packs/ATSAMG55J19_DFP/component/</LogicalPath>
          <PhysicalPath dnOrder="3">/../../packs/ATSAMG55J19_DFP/component/</PhysicalPath>
          <GeneratedChecksum dnOrder="4">F5237F19EF0658FEBEBB3C69BF809EB6</GeneratedChecksum>
          <UserChecksum dnOrder="5">F5237F19EF0658FEBEBB3C69BF809EB6</UserChecksum>
        </File>
        <File dnOrder="67">
          <Type dnOrder="0">HEADER</Type>
          <Name dnOrder="1">usart.h</Name>
          <LogicalPath dnOrder="2">packs/ATSAMG55J19_DFP/component/</LogicalPath>
          <PhysicalPath dnOrder="3">/../../packs/ATSAMG55J19_DFP/component/</PhysicalPath>
          <GeneratedChecksum dnOrder="4">7398B7741AE3353D0FD6DDF6328B133E</GeneratedChecksum>
          <UserChecksum dnOrder="5">7398B7741AE3353D0FD6DDF6328B133E</UserChecksum>
        </File>
        <File dnOrder="68">
          <Type dnOrder="0">HEADER</Type>
          <Name dnOrder="1">wdt.h</Name>
          <LogicalPath dnOrder="2">packs/ATSAMG55J19_DFP/component/</LogicalPath>
          <PhysicalPath dnOrder="3">/../../packs/ATSAMG55J19_DFP/component/</PhysicalPath>
          <GeneratedChecksum dnOrder="4">0599EF18D9B5BD8E38F532FA29C0C9D3</GeneratedChecksum>
          <UserChecksum dnOrder="5">0599EF18D9B5BD8E38F532FA29C0C9D3</UserChecksum>
        </File>
      </Files>
      <Settings dnOrder="1">
        <Setting append="true" category="C32" delimiter=";" dnOrder="0" key="extra-include-directories" value="../src;../src/config/sam_g55_xpro;../src/packs/ATSAMG55J19_DFP;../src/packs/CMSIS/CMSIS/Core/Include;../src/packs/CMSIS/;../src/arm"/>
        <Setting category="C32-LD" dnOrder="1" key="heap-size" value="0"/>
        <Setting category="C32-LD" dnOrder="2" key="no-device-startup-code" value="true"/>
        <Setting category="C32-LD" dnOrder="3" key="preprocessor-macros" value=""/>
        <Setting category="C32Global" dnOrder="4" key="mdtcm" value=""/>
        <Setting category="C32Global" dnOrder="5" key="mitcm" value=""/>
        <Setting category="C32Global" dnOrder="6" key="mstacktcm" value="false"/>
      </Settings>
    </Manifest>
    <Settings dnOrder="4">
      <Setting dnOrder="0" key="CMSISPath" value=".\dev_packs\arm\CMSIS\5.4.0"/>
      <Setting dnOrder="1" key="DFPPath" value=".\dev_packs\Microchip\SAMG_DFP\3.0.9\samg55\atdf\ATSAMG55J19.atdf"/>
      <Setting dnOrder="2" key="FORCE_OPTIMIZATION" value="false"/>
      <Setting dnOrder="3" key="GENERATE_BACKUP" value="true"/>
      <Setting dnOrder="4" key="MERGE_STRATEGY" value="USER_ALL"/>
      <Setting dnOrder="5" key="PackageFilter" value="csp;"/>
    </Settings>
  </Configurator>
</Configuration>
