<?xml version="1.0" encoding="UTF-8" standalone="no"?>
<Configuration>
  <Configurator>
    <Name dnOrder="0" value="sam_a5d2_xult"/>
    <Processor dnOrder="1" value="ATSAMA5D27"/>
    <Harmony dnOrder="2" path="C:\Users\C50921\HarmonyCode"/>
    <Manifest dnOrder="3">
      <Files dnOrder="0">
        <File dnOrder="0">
          <Type dnOrder="0">SOURCE</Type>
          <Name dnOrder="1">cstartup.s</Name>
          <LogicalPath dnOrder="2">config/sam_a5d2_xult/</LogicalPath>
          <PhysicalPath dnOrder="3">/</PhysicalPath>
          <GeneratedChecksum dnOrder="4">89EBAC3608B58C7F2A73BFB09D6933CE</GeneratedChecksum>
          <UserChecksum dnOrder="5">89EBAC3608B58C7F2A73BFB09D6933CE</UserChecksum>
        </File>
        <File dnOrder="1">
          <Type dnOrder="0">SOURCE</Type>
          <Name dnOrder="1">exceptions.c</Name>
          <LogicalPath dnOrder="2">config/sam_a5d2_xult/</LogicalPath>
          <PhysicalPath dnOrder="3">/</PhysicalPath>
          <GeneratedChecksum dnOrder="4">3C64B0B744B67F634A4B2C0AF49B32A8</GeneratedChecksum>
          <UserChecksum dnOrder="5">3C64B0B744B67F634A4B2C0AF49B32A8</UserChecksum>
        </File>
        <File dnOrder="2">
          <Type dnOrder="0">SOURCE</Type>
          <Name dnOrder="1">fault_handlers.c</Name>
          <LogicalPath dnOrder="2">config/sam_a5d2_xult/</LogicalPath>
          <PhysicalPath dnOrder="3">/</PhysicalPath>
          <GeneratedChecksum dnOrder="4">9E84FBBFC8C498CF6B6DC9EBC4E3B1FE</GeneratedChecksum>
          <UserChecksum dnOrder="5">9E84FBBFC8C498CF6B6DC9EBC4E3B1FE</UserChecksum>
        </File>
        <File dnOrder="3">
          <Type dnOrder="0">SOURCE</Type>
          <Name dnOrder="1">iar_monitor.c</Name>
          <LogicalPath dnOrder="2">config/sam_a5d2_xult/stdio/</LogicalPath>
          <PhysicalPath dnOrder="3">/stdio/</PhysicalPath>
          <GeneratedChecksum dnOrder="4">51D19E2818A4282EE571C71E4EF288FB</GeneratedChecksum>
          <UserChecksum dnOrder="5">51D19E2818A4282EE571C71E4EF288FB</UserChecksum>
        </File>
        <File dnOrder="4">
          <Type dnOrder="0">SOURCE</Type>
          <Name dnOrder="1">initialization.c</Name>
          <LogicalPath dnOrder="2">config/sam_a5d2_xult/</LogicalPath>
          <PhysicalPath dnOrder="3">/</PhysicalPath>
          <GeneratedChecksum dnOrder="4">6F916F55BB03349DF1668084A40A5E62</GeneratedChecksum>
          <UserChecksum dnOrder="5">6F916F55BB03349DF1668084A40A5E62</UserChecksum>
        </File>
        <File dnOrder="5">
          <Type dnOrder="0">SOURCE</Type>
          <Name dnOrder="1">interrupts.c</Name>
          <LogicalPath dnOrder="2">config/sam_a5d2_xult/</LogicalPath>
          <PhysicalPath dnOrder="3">/</PhysicalPath>
          <GeneratedChecksum dnOrder="4">1C6CCF80BD08AC7628A13A28FDD99D11</GeneratedChecksum>
          <UserChecksum dnOrder="5">1C6CCF80BD08AC7628A13A28FDD99D11</UserChecksum>
        </File>
        <File dnOrder="6">
          <Type dnOrder="0">SOURCE</Type>
          <Name dnOrder="1">plib_aic.c</Name>
          <LogicalPath dnOrder="2">config/sam_a5d2_xult/peripheral/aic/</LogicalPath>
          <PhysicalPath dnOrder="3">/peripheral/aic/</PhysicalPath>
          <GeneratedChecksum dnOrder="4">10862E5E0B12B06E93866BED38746A18</GeneratedChecksum>
          <UserChecksum dnOrder="5">10862E5E0B12B06E93866BED38746A18</UserChecksum>
        </File>
        <File dnOrder="7">
          <Type dnOrder="0">SOURCE</Type>
          <Name dnOrder="1">plib_clk.c</Name>
          <LogicalPath dnOrder="2">config/sam_a5d2_xult/peripheral/clk/</LogicalPath>
          <PhysicalPath dnOrder="3">/peripheral/clk/</PhysicalPath>
          <GeneratedChecksum dnOrder="4">3BEA9B923298F167719809D170128473</GeneratedChecksum>
          <UserChecksum dnOrder="5">3BEA9B923298F167719809D170128473</UserChecksum>
        </File>
        <File dnOrder="8">
          <Type dnOrder="0">SOURCE</Type>
          <Name dnOrder="1">plib_matrix.c</Name>
          <LogicalPath dnOrder="2">config/sam_a5d2_xult/peripheral/matrix/</LogicalPath>
          <PhysicalPath dnOrder="3">/peripheral/matrix/</PhysicalPath>
          <GeneratedChecksum dnOrder="4">A1D44A4F1F0E0FFA06D8BF524BA8088D</GeneratedChecksum>
          <UserChecksum dnOrder="5">A1D44A4F1F0E0FFA06D8BF524BA8088D</UserChecksum>
        </File>
        <File dnOrder="9">
          <Type dnOrder="0">SOURCE</Type>
          <Name dnOrder="1">plib_mmu.c</Name>
          <LogicalPath dnOrder="2">config/sam_a5d2_xult/peripheral/mmu/</LogicalPath>
          <PhysicalPath dnOrder="3">/peripheral/mmu/</PhysicalPath>
          <GeneratedChecksum dnOrder="4">A35FB937DDD303035A8B491D5A6A2DF3</GeneratedChecksum>
          <UserChecksum dnOrder="5">A35FB937DDD303035A8B491D5A6A2DF3</UserChecksum>
        </File>
        <File dnOrder="10">
          <Type dnOrder="0">SOURCE</Type>
          <Name dnOrder="1">plib_pio.c</Name>
          <LogicalPath dnOrder="2">config/sam_a5d2_xult/peripheral/pio/</LogicalPath>
          <PhysicalPath dnOrder="3">/peripheral/pio/</PhysicalPath>
          <GeneratedChecksum dnOrder="4">96BC43B05A6C90FD29DFD5A2DEC63464</GeneratedChecksum>
          <UserChecksum dnOrder="5">96BC43B05A6C90FD29DFD5A2DEC63464</UserChecksum>
        </File>
        <File dnOrder="11">
          <Type dnOrder="0">SOURCE</Type>
          <Name dnOrder="1">plib_rstc.c</Name>
          <LogicalPath dnOrder="2">config/sam_a5d2_xult/peripheral/rstc/</LogicalPath>
          <PhysicalPath dnOrder="3">/peripheral/rstc/</PhysicalPath>
          <GeneratedChecksum dnOrder="4">4082D3651BC0A85DC07A76AA04F313E1</GeneratedChecksum>
          <UserChecksum dnOrder="5">4082D3651BC0A85DC07A76AA04F313E1</UserChecksum>
        </File>
        <File dnOrder="12">
          <Type dnOrder="0">HEADER</Type>
          <Name dnOrder="1">acc.h</Name>
          <LogicalPath dnOrder="2">packs/ATSAMA5D27_DFP/component/</LogicalPath>
          <PhysicalPath dnOrder="3">/../../packs/ATSAMA5D27_DFP/component/</PhysicalPath>
          <GeneratedChecksum dnOrder="4">CA6C4C9F24BAB982B29331CDED714AAB</GeneratedChecksum>
          <UserChecksum dnOrder="5">CA6C4C9F24BAB982B29331CDED714AAB</UserChecksum>
        </File>
        <File dnOrder="13">
          <Type dnOrder="0">HEADER</Type>
          <Name dnOrder="1">adc.h</Name>
          <LogicalPath dnOrder="2">packs/ATSAMA5D27_DFP/component/</LogicalPath>
          <PhysicalPath dnOrder="3">/../../packs/ATSAMA5D27_DFP/component/</PhysicalPath>
          <GeneratedChecksum dnOrder="4">6237FDF43B1E7622E88D9384678DA5B1</GeneratedChecksum>
          <UserChecksum dnOrder="5">6237FDF43B1E7622E88D9384678DA5B1</UserChecksum>
        </File>
        <File dnOrder="14">
          <Type dnOrder="0">HEADER</Type>
          <Name dnOrder="1">aes.h</Name>
          <LogicalPath dnOrder="2">packs/ATSAMA5D27_DFP/component/</LogicalPath>
          <PhysicalPath dnOrder="3">/../../packs/ATSAMA5D27_DFP/component/</PhysicalPath>
          <GeneratedChecksum dnOrder="4">B9B377F0F4569E345DF0BE61B37EFB1E</GeneratedChecksum>
          <UserChecksum dnOrder="5">B9B377F0F4569E345DF0BE61B37EFB1E</UserChecksum>
        </File>
        <File dnOrder="15">
          <Type dnOrder="0">HEADER</Type>
          <Name dnOrder="1">aesb.h</Name>
          <LogicalPath dnOrder="2">packs/ATSAMA5D27_DFP/component/</LogicalPath>
          <PhysicalPath dnOrder="3">/../../packs/ATSAMA5D27_DFP/component/</PhysicalPath>
          <GeneratedChecksum dnOrder="4">670EACDD3DFB8F543C6C5A4DE4D0B079</GeneratedChecksum>
          <UserChecksum dnOrder="5">670EACDD3DFB8F543C6C5A4DE4D0B079</UserChecksum>
        </File>
        <File dnOrder="16">
          <Type dnOrder="0">HEADER</Type>
          <Name dnOrder="1">aic.h</Name>
          <LogicalPath dnOrder="2">packs/ATSAMA5D27_DFP/component/</LogicalPath>
          <PhysicalPath dnOrder="3">/../../packs/ATSAMA5D27_DFP/component/</PhysicalPath>
          <GeneratedChecksum dnOrder="4">F0631F7FAA0C57382BE4F3565FAC91C4</GeneratedChecksum>
          <UserChecksum dnOrder="5">F0631F7FAA0C57382BE4F3565FAC91C4</UserChecksum>
        </File>
        <File dnOrder="17">
          <Type dnOrder="0">HEADER</Type>
          <Name dnOrder="1">arm_common_tables.h</Name>
          <LogicalPath dnOrder="2">packs/CMSIS/CMSIS/DSP/Include/</LogicalPath>
          <PhysicalPath dnOrder="3">/../../packs/CMSIS/CMSIS/DSP/Include/</PhysicalPath>
          <GeneratedChecksum dnOrder="4">ECE7DC494F56CE01D96DE918E61B7C02</GeneratedChecksum>
          <UserChecksum dnOrder="5">ECE7DC494F56CE01D96DE918E61B7C02</UserChecksum>
        </File>
        <File dnOrder="18">
          <Type dnOrder="0">HEADER</Type>
          <Name dnOrder="1">arm_const_structs.h</Name>
          <LogicalPath dnOrder="2">packs/CMSIS/CMSIS/DSP/Include/</LogicalPath>
          <PhysicalPath dnOrder="3">/../../packs/CMSIS/CMSIS/DSP/Include/</PhysicalPath>
          <GeneratedChecksum dnOrder="4">B99479A6A9F72E72C614DB59601DC762</GeneratedChecksum>
          <UserChecksum dnOrder="5">B99479A6A9F72E72C614DB59601DC762</UserChecksum>
        </File>
        <File dnOrder="19">
          <Type dnOrder="0">HEADER</Type>
          <Name dnOrder="1">arm_math.h</Name>
          <LogicalPath dnOrder="2">packs/CMSIS/CMSIS/DSP/Include/</LogicalPath>
          <PhysicalPath dnOrder="3">/../../packs/CMSIS/CMSIS/DSP/Include/</PhysicalPath>
          <GeneratedChecksum dnOrder="4">4726F6E7A3CDEDAE6075A88F3D16F093</GeneratedChecksum>
          <UserChecksum dnOrder="5">4726F6E7A3CDEDAE6075A88F3D16F093</UserChecksum>
        </File>
        <File dnOrder="20">
          <Type dnOrder="0">HEADER</Type>
          <Name dnOrder="1">atsama5d27.h</Name>
          <LogicalPath dnOrder="2">packs/ATSAMA5D27_DFP/</LogicalPath>
          <PhysicalPath dnOrder="3">/../../packs/ATSAMA5D27_DFP/</PhysicalPath>
          <GeneratedChecksum dnOrder="4">F24A23F69AF921F2803FA3F748E385FC</GeneratedChecksum>
          <UserChecksum dnOrder="5">F24A23F69AF921F2803FA3F748E385FC</UserChecksum>
        </File>
        <File dnOrder="21">
          <Type dnOrder="0">HEADER</Type>
          <Name dnOrder="1">aximx.h</Name>
          <LogicalPath dnOrder="2">packs/ATSAMA5D27_DFP/component/</LogicalPath>
          <PhysicalPath dnOrder="3">/../../packs/ATSAMA5D27_DFP/component/</PhysicalPath>
          <GeneratedChecksum dnOrder="4">ACE3CA77CB6C5AB18C37C58AC8F8D314</GeneratedChecksum>
          <UserChecksum dnOrder="5">ACE3CA77CB6C5AB18C37C58AC8F8D314</UserChecksum>
        </File>
        <File dnOrder="22">
          <Type dnOrder="0">HEADER</Type>
          <Name dnOrder="1">chipid.h</Name>
          <LogicalPath dnOrder="2">packs/ATSAMA5D27_DFP/component/</LogicalPath>
          <PhysicalPath dnOrder="3">/../../packs/ATSAMA5D27_DFP/component/</PhysicalPath>
          <GeneratedChecksum dnOrder="4">FDBF21CA973A4DA73087F7426A498F00</GeneratedChecksum>
          <UserChecksum dnOrder="5">FDBF21CA973A4DA73087F7426A498F00</UserChecksum>
        </File>
        <File dnOrder="23">
          <Type dnOrder="0">HEADER</Type>
          <Name dnOrder="1">classd.h</Name>
          <LogicalPath dnOrder="2">packs/ATSAMA5D27_DFP/component/</LogicalPath>
          <PhysicalPath dnOrder="3">/../../packs/ATSAMA5D27_DFP/component/</PhysicalPath>
          <GeneratedChecksum dnOrder="4">4307272A99092158FDD7931C60E65467</GeneratedChecksum>
          <UserChecksum dnOrder="5">4307272A99092158FDD7931C60E65467</UserChecksum>
        </File>
        <File dnOrder="24">
          <Type dnOrder="0">HEADER</Type>
          <Name dnOrder="1">cmsis_compiler.h</Name>
          <LogicalPath dnOrder="2">packs/CMSIS/CMSIS/Core_A/Include/</LogicalPath>
          <PhysicalPath dnOrder="3">/../../packs/CMSIS/CMSIS/Core_A/Include/</PhysicalPath>
          <GeneratedChecksum dnOrder="4">1A60177F0720FF6F1D979B798DF018C0</GeneratedChecksum>
          <UserChecksum dnOrder="5">1A60177F0720FF6F1D979B798DF018C0</UserChecksum>
        </File>
        <File dnOrder="25">
          <Type dnOrder="0">HEADER</Type>
          <Name dnOrder="1">cmsis_cp15.h</Name>
          <LogicalPath dnOrder="2">packs/CMSIS/CMSIS/Core_A/Include/</LogicalPath>
          <PhysicalPath dnOrder="3">/../../packs/CMSIS/CMSIS/Core_A/Include/</PhysicalPath>
          <GeneratedChecksum dnOrder="4">0A327C3031D097409B602CA5B79B1358</GeneratedChecksum>
          <UserChecksum dnOrder="5">0A327C3031D097409B602CA5B79B1358</UserChecksum>
        </File>
        <File dnOrder="26">
          <Type dnOrder="0">HEADER</Type>
          <Name dnOrder="1">cmsis_gcc.h</Name>
          <LogicalPath dnOrder="2">packs/CMSIS/CMSIS/Core_A/Include/</LogicalPath>
          <PhysicalPath dnOrder="3">/../../packs/CMSIS/CMSIS/Core_A/Include/</PhysicalPath>
          <GeneratedChecksum dnOrder="4">25431DA0E64D60CDB443B02ABAC00FC8</GeneratedChecksum>
          <UserChecksum dnOrder="5">25431DA0E64D60CDB443B02ABAC00FC8</UserChecksum>
        </File>
        <File dnOrder="27">
          <Type dnOrder="0">HEADER</Type>
          <Name dnOrder="1">cmsis_iccarm.h</Name>
          <LogicalPath dnOrder="2">packs/CMSIS/CMSIS/Core_A/Include/</LogicalPath>
          <PhysicalPath dnOrder="3">/../../packs/CMSIS/CMSIS/Core_A/Include/</PhysicalPath>
          <GeneratedChecksum dnOrder="4">A194C342920D5CD34C03C2E40907D2E6</GeneratedChecksum>
          <UserChecksum dnOrder="5">A194C342920D5CD34C03C2E40907D2E6</UserChecksum>
        </File>
        <File dnOrder="28">
          <Type dnOrder="0">HEADER</Type>
          <Name dnOrder="1">core_ca.h</Name>
          <LogicalPath dnOrder="2">packs/CMSIS/CMSIS/Core_A/Include/</LogicalPath>
          <PhysicalPath dnOrder="3">/../../packs/CMSIS/CMSIS/Core_A/Include/</PhysicalPath>
          <GeneratedChecksum dnOrder="4">789BC94E81700B86004C6A43BAC0EFF2</GeneratedChecksum>
          <UserChecksum dnOrder="5">789BC94E81700B86004C6A43BAC0EFF2</UserChecksum>
        </File>
        <File dnOrder="29">
          <Type dnOrder="0">HEADER</Type>
          <Name dnOrder="1">definitions.h</Name>
          <LogicalPath dnOrder="2">config/sam_a5d2_xult/</LogicalPath>
          <PhysicalPath dnOrder="3">/</PhysicalPath>
          <GeneratedChecksum dnOrder="4">14955189C16F48861F5F531EFCEFE036</GeneratedChecksum>
          <UserChecksum dnOrder="5">14955189C16F48861F5F531EFCEFE036</UserChecksum>
        </File>
        <File dnOrder="30">
          <Type dnOrder="0">HEADER</Type>
          <Name dnOrder="1">device.h</Name>
          <LogicalPath dnOrder="2">packs/ATSAMA5D27_DFP/</LogicalPath>
          <PhysicalPath dnOrder="3">/../../packs/ATSAMA5D27_DFP/</PhysicalPath>
          <GeneratedChecksum dnOrder="4">FAA04921E75A13B8730954676182E8F1</GeneratedChecksum>
          <UserChecksum dnOrder="5">FAA04921E75A13B8730954676182E8F1</UserChecksum>
        </File>
        <File dnOrder="31">
          <Type dnOrder="0">HEADER</Type>
          <Name dnOrder="1">device_cache.h</Name>
          <LogicalPath dnOrder="2">config/sam_a5d2_xult/</LogicalPath>
          <PhysicalPath dnOrder="3">/</PhysicalPath>
          <GeneratedChecksum dnOrder="4">7E30F1CAF8F797233371500699C48DBE</GeneratedChecksum>
          <UserChecksum dnOrder="5">7E30F1CAF8F797233371500699C48DBE</UserChecksum>
        </File>
        <File dnOrder="32">
          <Type dnOrder="0">HEADER</Type>
          <Name dnOrder="1">flexcom.h</Name>
          <LogicalPath dnOrder="2">packs/ATSAMA5D27_DFP/component/</LogicalPath>
          <PhysicalPath dnOrder="3">/../../packs/ATSAMA5D27_DFP/component/</PhysicalPath>
          <GeneratedChecksum dnOrder="4">4E243D3278CDE7B37E2A085FE72439F4</GeneratedChecksum>
          <UserChecksum dnOrder="5">4E243D3278CDE7B37E2A085FE72439F4</UserChecksum>
        </File>
        <File dnOrder="33">
          <Type dnOrder="0">HEADER</Type>
          <Name dnOrder="1">gmac.h</Name>
          <LogicalPath dnOrder="2">packs/ATSAMA5D27_DFP/component/</LogicalPath>
          <PhysicalPath dnOrder="3">/../../packs/ATSAMA5D27_DFP/component/</PhysicalPath>
          <GeneratedChecksum dnOrder="4">B50365835745CCB61A3ED5F508C00E8C</GeneratedChecksum>
          <UserChecksum dnOrder="5">B50365835745CCB61A3ED5F508C00E8C</UserChecksum>
        </File>
        <File dnOrder="34">
          <Type dnOrder="0">HEADER</Type>
          <Name dnOrder="1">i2sc.h</Name>
          <LogicalPath dnOrder="2">packs/ATSAMA5D27_DFP/component/</LogicalPath>
          <PhysicalPath dnOrder="3">/../../packs/ATSAMA5D27_DFP/component/</PhysicalPath>
          <GeneratedChecksum dnOrder="4">38EF349D6F6B52FFB77D5340BF50787D</GeneratedChecksum>
          <UserChecksum dnOrder="5">38EF349D6F6B52FFB77D5340BF50787D</UserChecksum>
        </File>
        <File dnOrder="35">
          <Type dnOrder="0">HEADER</Type>
          <Name dnOrder="1">icm.h</Name>
          <LogicalPath dnOrder="2">packs/ATSAMA5D27_DFP/component/</LogicalPath>
          <PhysicalPath dnOrder="3">/../../packs/ATSAMA5D27_DFP/component/</PhysicalPath>
          <GeneratedChecksum dnOrder="4">C0948D61713C45DBF035C94A508EB5EB</GeneratedChecksum>
          <UserChecksum dnOrder="5">C0948D61713C45DBF035C94A508EB5EB</UserChecksum>
        </File>
        <File dnOrder="36">
          <Type dnOrder="0">HEADER</Type>
          <Name dnOrder="1">isc.h</Name>
          <LogicalPath dnOrder="2">packs/ATSAMA5D27_DFP/component/</LogicalPath>
          <PhysicalPath dnOrder="3">/../../packs/ATSAMA5D27_DFP/component/</PhysicalPath>
          <GeneratedChecksum dnOrder="4">C36398F7831C0F732801071DB86C96C3</GeneratedChecksum>
          <UserChecksum dnOrder="5">C36398F7831C0F732801071DB86C96C3</UserChecksum>
        </File>
        <File dnOrder="37">
          <Type dnOrder="0">HEADER</Type>
          <Name dnOrder="1">l2cc.h</Name>
          <LogicalPath dnOrder="2">packs/ATSAMA5D27_DFP/component/</LogicalPath>
          <PhysicalPath dnOrder="3">/../../packs/ATSAMA5D27_DFP/component/</PhysicalPath>
          <GeneratedChecksum dnOrder="4">036A751068A0A04C109779296384B871</GeneratedChecksum>
          <UserChecksum dnOrder="5">036A751068A0A04C109779296384B871</UserChecksum>
        </File>
        <File dnOrder="38">
          <Type dnOrder="0">HEADER</Type>
          <Name dnOrder="1">lcdc.h</Name>
          <LogicalPath dnOrder="2">packs/ATSAMA5D27_DFP/component/</LogicalPath>
          <PhysicalPath dnOrder="3">/../../packs/ATSAMA5D27_DFP/component/</PhysicalPath>
          <GeneratedChecksum dnOrder="4">900EBCCAB58EE56233D497F66CA67DDD</GeneratedChecksum>
          <UserChecksum dnOrder="5">900EBCCAB58EE56233D497F66CA67DDD</UserChecksum>
        </File>
        <File dnOrder="39">
          <Type dnOrder="0">HEADER</Type>
          <Name dnOrder="1">matrix.h</Name>
          <LogicalPath dnOrder="2">packs/ATSAMA5D27_DFP/component/</LogicalPath>
          <PhysicalPath dnOrder="3">/../../packs/ATSAMA5D27_DFP/component/</PhysicalPath>
          <GeneratedChecksum dnOrder="4">37B32886738F803469CC706F0B1BD7B9</GeneratedChecksum>
          <UserChecksum dnOrder="5">37B32886738F803469CC706F0B1BD7B9</UserChecksum>
        </File>
        <File dnOrder="40">
          <Type dnOrder="0">HEADER</Type>
          <Name dnOrder="1">mcan.h</Name>
          <LogicalPath dnOrder="2">packs/ATSAMA5D27_DFP/component/</LogicalPath>
          <PhysicalPath dnOrder="3">/../../packs/ATSAMA5D27_DFP/component/</PhysicalPath>
          <GeneratedChecksum dnOrder="4">F4D87F41A515522F5542FF4FF8E873B1</GeneratedChecksum>
          <UserChecksum dnOrder="5">F4D87F41A515522F5542FF4FF8E873B1</UserChecksum>
        </File>
        <File dnOrder="41">
          <Type dnOrder="0">HEADER</Type>
          <Name dnOrder="1">mpddrc.h</Name>
          <LogicalPath dnOrder="2">packs/ATSAMA5D27_DFP/component/</LogicalPath>
          <PhysicalPath dnOrder="3">/../../packs/ATSAMA5D27_DFP/component/</PhysicalPath>
          <GeneratedChecksum dnOrder="4">A3E4A2708BEEDB7D2D92C9C5CAC2A2E7</GeneratedChecksum>
          <UserChecksum dnOrder="5">A3E4A2708BEEDB7D2D92C9C5CAC2A2E7</UserChecksum>
        </File>
        <File dnOrder="42">
          <Type dnOrder="0">HEADER</Type>
          <Name dnOrder="1">pdmic.h</Name>
          <LogicalPath dnOrder="2">packs/ATSAMA5D27_DFP/component/</LogicalPath>
          <PhysicalPath dnOrder="3">/../../packs/ATSAMA5D27_DFP/component/</PhysicalPath>
          <GeneratedChecksum dnOrder="4">7BF18650232B8FEEB716960F74024A46</GeneratedChecksum>
          <UserChecksum dnOrder="5">7BF18650232B8FEEB716960F74024A46</UserChecksum>
        </File>
        <File dnOrder="43">
          <Type dnOrder="0">HEADER</Type>
          <Name dnOrder="1">pio.h</Name>
          <LogicalPath dnOrder="2">packs/ATSAMA5D27_DFP/component/</LogicalPath>
          <PhysicalPath dnOrder="3">/../../packs/ATSAMA5D27_DFP/component/</PhysicalPath>
          <GeneratedChecksum dnOrder="4">E79DC46CF7648CF39BBBDBDF6869C56D</GeneratedChecksum>
          <UserChecksum dnOrder="5">E79DC46CF7648CF39BBBDBDF6869C56D</UserChecksum>
        </File>
        <File dnOrder="44">
          <Type dnOrder="0">HEADER</Type>
          <Name dnOrder="1">pio_ctrl.h</Name>
          <LogicalPath dnOrder="2">packs/ATSAMA5D27_DFP/component/</LogicalPath>
          <PhysicalPath dnOrder="3">/../../packs/ATSAMA5D27_DFP/component/</PhysicalPath>
          <GeneratedChecksum dnOrder="4">A6971BCFA5BD142A0B1453FE9D22F3DB</GeneratedChecksum>
          <UserChecksum dnOrder="5">A6971BCFA5BD142A0B1453FE9D22F3DB</UserChecksum>
        </File>
        <File dnOrder="45">
          <Type dnOrder="0">HEADER</Type>
          <Name dnOrder="1">pit.h</Name>
          <LogicalPath dnOrder="2">packs/ATSAMA5D27_DFP/component/</LogicalPath>
          <PhysicalPath dnOrder="3">/../../packs/ATSAMA5D27_DFP/component/</PhysicalPath>
          <GeneratedChecksum dnOrder="4">903924B4003A9C82EE621D696B866DBF</GeneratedChecksum>
          <UserChecksum dnOrder="5">903924B4003A9C82EE621D696B866DBF</UserChecksum>
        </File>
        <File dnOrder="46">
          <Type dnOrder="0">HEADER</Type>
          <Name dnOrder="1">plib_aic.h</Name>
          <LogicalPath dnOrder="2">config/sam_a5d2_xult/peripheral/aic/</LogicalPath>
          <PhysicalPath dnOrder="3">/peripheral/aic/</PhysicalPath>
          <GeneratedChecksum dnOrder="4">7A8398DAB4C77A530FAFB842EFE6D1A2</GeneratedChecksum>
          <UserChecksum dnOrder="5">7A8398DAB4C77A530FAFB842EFE6D1A2</UserChecksum>
        </File>
        <File dnOrder="47">
          <Type dnOrder="0">HEADER</Type>
          <Name dnOrder="1">plib_clk.h</Name>
          <LogicalPath dnOrder="2">config/sam_a5d2_xult/peripheral/clk/</LogicalPath>
          <PhysicalPath dnOrder="3">/peripheral/clk/</PhysicalPath>
          <GeneratedChecksum dnOrder="4">3176DF5386ABD348A93A3A6169F52E8B</GeneratedChecksum>
          <UserChecksum dnOrder="5">3176DF5386ABD348A93A3A6169F52E8B</UserChecksum>
        </File>
        <File dnOrder="48">
          <Type dnOrder="0">HEADER</Type>
          <Name dnOrder="1">plib_matrix.h</Name>
          <LogicalPath dnOrder="2">config/sam_a5d2_xult/peripheral/matrix/</LogicalPath>
          <PhysicalPath dnOrder="3">/peripheral/matrix/</PhysicalPath>
          <GeneratedChecksum dnOrder="4">E8167D30D019275C8F2EEA14CD0EBC42</GeneratedChecksum>
          <UserChecksum dnOrder="5">E8167D30D019275C8F2EEA14CD0EBC42</UserChecksum>
        </File>
        <File dnOrder="49">
          <Type dnOrder="0">HEADER</Type>
          <Name dnOrder="1">plib_mmu.h</Name>
          <LogicalPath dnOrder="2">config/sam_a5d2_xult/peripheral/mmu/</LogicalPath>
          <PhysicalPath dnOrder="3">/peripheral/mmu/</PhysicalPath>
          <GeneratedChecksum dnOrder="4">8F51CEC29136EC3A2254C193BC4819FE</GeneratedChecksum>
          <UserChecksum dnOrder="5">8F51CEC29136EC3A2254C193BC4819FE</UserChecksum>
        </File>
        <File dnOrder="50">
          <Type dnOrder="0">HEADER</Type>
          <Name dnOrder="1">plib_pio.h</Name>
          <LogicalPath dnOrder="2">config/sam_a5d2_xult/peripheral/pio/</LogicalPath>
          <PhysicalPath dnOrder="3">/peripheral/pio/</PhysicalPath>
          <GeneratedChecksum dnOrder="4">0ECC8C36D25EE2458B2F00DFAD12E36B</GeneratedChecksum>
          <UserChecksum dnOrder="5">0ECC8C36D25EE2458B2F00DFAD12E36B</UserChecksum>
        </File>
        <File dnOrder="51">
          <Type dnOrder="0">HEADER</Type>
          <Name dnOrder="1">plib_rstc.h</Name>
          <LogicalPath dnOrder="2">config/sam_a5d2_xult/peripheral/rstc/</LogicalPath>
          <PhysicalPath dnOrder="3">/peripheral/rstc/</PhysicalPath>
          <GeneratedChecksum dnOrder="4">D4535077E429B5402A2B84239C6FCFAE</GeneratedChecksum>
          <UserChecksum dnOrder="5">D4535077E429B5402A2B84239C6FCFAE</UserChecksum>
        </File>
        <File dnOrder="52">
          <Type dnOrder="0">HEADER</Type>
          <Name dnOrder="1">plib_rstc_common.h</Name>
          <LogicalPath dnOrder="2">config/sam_a5d2_xult/peripheral/rstc/</LogicalPath>
          <PhysicalPath dnOrder="3">/peripheral/rstc/</PhysicalPath>
          <GeneratedChecksum dnOrder="4">D3CCCA533E0810BC26C12C80A0002E80</GeneratedChecksum>
          <UserChecksum dnOrder="5">D3CCCA533E0810BC26C12C80A0002E80</UserChecksum>
        </File>
        <File dnOrder="53">
          <Type dnOrder="0">HEADER</Type>
          <Name dnOrder="1">pmc.h</Name>
          <LogicalPath dnOrder="2">packs/ATSAMA5D27_DFP/component/</LogicalPath>
          <PhysicalPath dnOrder="3">/../../packs/ATSAMA5D27_DFP/component/</PhysicalPath>
          <GeneratedChecksum dnOrder="4">6DAB7DC729D2ADBA6014A5B5FA154CB9</GeneratedChecksum>
          <UserChecksum dnOrder="5">6DAB7DC729D2ADBA6014A5B5FA154CB9</UserChecksum>
        </File>
        <File dnOrder="54">
          <Type dnOrder="0">HEADER</Type>
          <Name dnOrder="1">ptc.h</Name>
          <LogicalPath dnOrder="2">packs/ATSAMA5D27_DFP/component/</LogicalPath>
          <PhysicalPath dnOrder="3">/../../packs/ATSAMA5D27_DFP/component/</PhysicalPath>
          <GeneratedChecksum dnOrder="4">E5B61DEE296573A2EFF07704827868B7</GeneratedChecksum>
          <UserChecksum dnOrder="5">E5B61DEE296573A2EFF07704827868B7</UserChecksum>
        </File>
        <File dnOrder="55">
          <Type dnOrder="0">HEADER</Type>
          <Name dnOrder="1">pwm.h</Name>
          <LogicalPath dnOrder="2">packs/ATSAMA5D27_DFP/component/</LogicalPath>
          <PhysicalPath dnOrder="3">/../../packs/ATSAMA5D27_DFP/component/</PhysicalPath>
          <GeneratedChecksum dnOrder="4">8217053C99F24F885BCD95DC4BCC32A5</GeneratedChecksum>
          <UserChecksum dnOrder="5">8217053C99F24F885BCD95DC4BCC32A5</UserChecksum>
        </File>
        <File dnOrder="56">
          <Type dnOrder="0">HEADER</Type>
          <Name dnOrder="1">qspi.h</Name>
          <LogicalPath dnOrder="2">packs/ATSAMA5D27_DFP/component/</LogicalPath>
          <PhysicalPath dnOrder="3">/../../packs/ATSAMA5D27_DFP/component/</PhysicalPath>
          <GeneratedChecksum dnOrder="4">E161D3555907427C79CB2E855E9672F9</GeneratedChecksum>
          <UserChecksum dnOrder="5">E161D3555907427C79CB2E855E9672F9</UserChecksum>
        </File>
        <File dnOrder="57">
          <Type dnOrder="0">HEADER</Type>
          <Name dnOrder="1">rstc.h</Name>
          <LogicalPath dnOrder="2">packs/ATSAMA5D27_DFP/component/</LogicalPath>
          <PhysicalPath dnOrder="3">/../../packs/ATSAMA5D27_DFP/component/</PhysicalPath>
          <GeneratedChecksum dnOrder="4">EFAA31DF78CD9BA84A835ABD9664FBCA</GeneratedChecksum>
          <UserChecksum dnOrder="5">EFAA31DF78CD9BA84A835ABD9664FBCA</UserChecksum>
        </File>
        <File dnOrder="58">
          <Type dnOrder="0">HEADER</Type>
          <Name dnOrder="1">rtc.h</Name>
          <LogicalPath dnOrder="2">packs/ATSAMA5D27_DFP/component/</LogicalPath>
          <PhysicalPath dnOrder="3">/../../packs/ATSAMA5D27_DFP/component/</PhysicalPath>
          <GeneratedChecksum dnOrder="4">6BA8C64C3112EF7087ACFB75ED24D6E7</GeneratedChecksum>
          <UserChecksum dnOrder="5">6BA8C64C3112EF7087ACFB75ED24D6E7</UserChecksum>
        </File>
        <File dnOrder="59">
          <Type dnOrder="0">HEADER</Type>
          <Name dnOrder="1">rxlp.h</Name>
          <LogicalPath dnOrder="2">packs/ATSAMA5D27_DFP/component/</LogicalPath>
          <PhysicalPath dnOrder="3">/../../packs/ATSAMA5D27_DFP/component/</PhysicalPath>
          <GeneratedChecksum dnOrder="4">F4315B0A715844734EE03E5682F19F10</GeneratedChecksum>
          <UserChecksum dnOrder="5">F4315B0A715844734EE03E5682F19F10</UserChecksum>
        </File>
        <File dnOrder="60">
          <Type dnOrder="0">HEADER</Type>
          <Name dnOrder="1">sama5d27.h</Name>
          <LogicalPath dnOrder="2">packs/ATSAMA5D27_DFP/pio/</LogicalPath>
          <PhysicalPath dnOrder="3">/../../packs/ATSAMA5D27_DFP/pio/</PhysicalPath>
          <GeneratedChecksum dnOrder="4">4D6624899814F04B6C08AB4756B11BD1</GeneratedChecksum>
          <UserChecksum dnOrder="5">4D6624899814F04B6C08AB4756B11BD1</UserChecksum>
        </File>
        <File dnOrder="61">
          <Type dnOrder="0">HEADER</Type>
          <Name dnOrder="1">sckc.h</Name>
          <LogicalPath dnOrder="2">packs/ATSAMA5D27_DFP/component/</LogicalPath>
          <PhysicalPath dnOrder="3">/../../packs/ATSAMA5D27_DFP/component/</PhysicalPath>
          <GeneratedChecksum dnOrder="4">54CEAD0D20187239B14D3BBB08104211</GeneratedChecksum>
          <UserChecksum dnOrder="5">54CEAD0D20187239B14D3BBB08104211</UserChecksum>
        </File>
        <File dnOrder="62">
          <Type dnOrder="0">HEADER</Type>
          <Name dnOrder="1">sdmmc.h</Name>
          <LogicalPath dnOrder="2">packs/ATSAMA5D27_DFP/component/</LogicalPath>
          <PhysicalPath dnOrder="3">/../../packs/ATSAMA5D27_DFP/component/</PhysicalPath>
          <GeneratedChecksum dnOrder="4">0C346858E13BC4CF88B655C34438BD39</GeneratedChecksum>
          <UserChecksum dnOrder="5">0C346858E13BC4CF88B655C34438BD39</UserChecksum>
        </File>
        <File dnOrder="63">
          <Type dnOrder="0">HEADER</Type>
          <Name dnOrder="1">secumod.h</Name>
          <LogicalPath dnOrder="2">packs/ATSAMA5D27_DFP/component/</LogicalPath>
          <PhysicalPath dnOrder="3">/../../packs/ATSAMA5D27_DFP/component/</PhysicalPath>
          <GeneratedChecksum dnOrder="4">7FBD3768C66BDEA0594387B7A481C449</GeneratedChecksum>
          <UserChecksum dnOrder="5">7FBD3768C66BDEA0594387B7A481C449</UserChecksum>
        </File>
        <File dnOrder="64">
          <Type dnOrder="0">HEADER</Type>
          <Name dnOrder="1">sfc.h</Name>
          <LogicalPath dnOrder="2">packs/ATSAMA5D27_DFP/component/</LogicalPath>
          <PhysicalPath dnOrder="3">/../../packs/ATSAMA5D27_DFP/component/</PhysicalPath>
          <GeneratedChecksum dnOrder="4">90CB22563EB1331ED48E9FD9FF01350B</GeneratedChecksum>
          <UserChecksum dnOrder="5">90CB22563EB1331ED48E9FD9FF01350B</UserChecksum>
        </File>
        <File dnOrder="65">
          <Type dnOrder="0">HEADER</Type>
          <Name dnOrder="1">sfr.h</Name>
          <LogicalPath dnOrder="2">packs/ATSAMA5D27_DFP/component/</LogicalPath>
          <PhysicalPath dnOrder="3">/../../packs/ATSAMA5D27_DFP/component/</PhysicalPath>
          <GeneratedChecksum dnOrder="4">C54F6389C0E8A4885876F66941966EBF</GeneratedChecksum>
          <UserChecksum dnOrder="5">C54F6389C0E8A4885876F66941966EBF</UserChecksum>
        </File>
        <File dnOrder="66">
          <Type dnOrder="0">HEADER</Type>
          <Name dnOrder="1">sfrbu.h</Name>
          <LogicalPath dnOrder="2">packs/ATSAMA5D27_DFP/component/</LogicalPath>
          <PhysicalPath dnOrder="3">/../../packs/ATSAMA5D27_DFP/component/</PhysicalPath>
          <GeneratedChecksum dnOrder="4">81E324269EE4D7BE232CA1AC00596E00</GeneratedChecksum>
          <UserChecksum dnOrder="5">81E324269EE4D7BE232CA1AC00596E00</UserChecksum>
        </File>
        <File dnOrder="67">
          <Type dnOrder="0">HEADER</Type>
          <Name dnOrder="1">sha.h</Name>
          <LogicalPath dnOrder="2">packs/ATSAMA5D27_DFP/component/</LogicalPath>
          <PhysicalPath dnOrder="3">/../../packs/ATSAMA5D27_DFP/component/</PhysicalPath>
          <GeneratedChecksum dnOrder="4">0273FE1B9EEF46739A0787A476C7C711</GeneratedChecksum>
          <UserChecksum dnOrder="5">0273FE1B9EEF46739A0787A476C7C711</UserChecksum>
        </File>
        <File dnOrder="68">
          <Type dnOrder="0">HEADER</Type>
          <Name dnOrder="1">shdwc.h</Name>
          <LogicalPath dnOrder="2">packs/ATSAMA5D27_DFP/component/</LogicalPath>
          <PhysicalPath dnOrder="3">/../../packs/ATSAMA5D27_DFP/component/</PhysicalPath>
          <GeneratedChecksum dnOrder="4">1605D3102C3E6FBD072929C8364C9B9A</GeneratedChecksum>
          <UserChecksum dnOrder="5">1605D3102C3E6FBD072929C8364C9B9A</UserChecksum>
        </File>
        <File dnOrder="69">
          <Type dnOrder="0">HEADER</Type>
          <Name dnOrder="1">smc.h</Name>
          <LogicalPath dnOrder="2">packs/ATSAMA5D27_DFP/component/</LogicalPath>
          <PhysicalPath dnOrder="3">/../../packs/ATSAMA5D27_DFP/component/</PhysicalPath>
          <GeneratedChecksum dnOrder="4">460B26C29FF9053374677BD6B6FF9A8E</GeneratedChecksum>
          <UserChecksum dnOrder="5">460B26C29FF9053374677BD6B6FF9A8E</UserChecksum>
        </File>
        <File dnOrder="70">
          <Type dnOrder="0">HEADER</Type>
          <Name dnOrder="1">spi.h</Name>
          <LogicalPath dnOrder="2">packs/ATSAMA5D27_DFP/component/</LogicalPath>
          <PhysicalPath dnOrder="3">/../../packs/ATSAMA5D27_DFP/component/</PhysicalPath>
          <GeneratedChecksum dnOrder="4">AF385ECB2B94CAD0EF0D30140F69A239</GeneratedChecksum>
          <UserChecksum dnOrder="5">AF385ECB2B94CAD0EF0D30140F69A239</UserChecksum>
        </File>
        <File dnOrder="71">
          <Type dnOrder="0">HEADER</Type>
          <Name dnOrder="1">ssc.h</Name>
          <LogicalPath dnOrder="2">packs/ATSAMA5D27_DFP/component/</LogicalPath>
          <PhysicalPath dnOrder="3">/../../packs/ATSAMA5D27_DFP/component/</PhysicalPath>
          <GeneratedChecksum dnOrder="4">B800732AB611B4F0D4C9CECCC3B44889</GeneratedChecksum>
          <UserChecksum dnOrder="5">B800732AB611B4F0D4C9CECCC3B44889</UserChecksum>
        </File>
        <File dnOrder="72">
          <Type dnOrder="0">HEADER</Type>
          <Name dnOrder="1">tc.h</Name>
          <LogicalPath dnOrder="2">packs/ATSAMA5D27_DFP/component/</LogicalPath>
          <PhysicalPath dnOrder="3">/../../packs/ATSAMA5D27_DFP/component/</PhysicalPath>
          <GeneratedChecksum dnOrder="4">0702EDD6E1634201BE33630C84E0ACD8</GeneratedChecksum>
          <UserChecksum dnOrder="5">0702EDD6E1634201BE33630C84E0ACD8</UserChecksum>
        </File>
        <File dnOrder="73">
          <Type dnOrder="0">HEADER</Type>
          <Name dnOrder="1">tdes.h</Name>
          <LogicalPath dnOrder="2">packs/ATSAMA5D27_DFP/component/</LogicalPath>
          <PhysicalPath dnOrder="3">/../../packs/ATSAMA5D27_DFP/component/</PhysicalPath>
          <GeneratedChecksum dnOrder="4">D850162DCCF8C83521D15E33F453A0E0</GeneratedChecksum>
          <UserChecksum dnOrder="5">D850162DCCF8C83521D15E33F453A0E0</UserChecksum>
        </File>
        <File dnOrder="74">
          <Type dnOrder="0">HEADER</Type>
          <Name dnOrder="1">toolchain_specifics.h</Name>
          <LogicalPath dnOrder="2">config/sam_a5d2_xult/</LogicalPath>
          <PhysicalPath dnOrder="3">/</PhysicalPath>
          <GeneratedChecksum dnOrder="4">0EAC3A85FB97F7922EACDDEB885A0230</GeneratedChecksum>
          <UserChecksum dnOrder="5">0EAC3A85FB97F7922EACDDEB885A0230</UserChecksum>
        </File>
        <File dnOrder="75">
          <Type dnOrder="0">HEADER</Type>
          <Name dnOrder="1">trng.h</Name>
          <LogicalPath dnOrder="2">packs/ATSAMA5D27_DFP/component/</LogicalPath>
          <PhysicalPath dnOrder="3">/../../packs/ATSAMA5D27_DFP/component/</PhysicalPath>
          <GeneratedChecksum dnOrder="4">05A48E2769497BEFF4CD12D57E027EA2</GeneratedChecksum>
          <UserChecksum dnOrder="5">05A48E2769497BEFF4CD12D57E027EA2</UserChecksum>
        </File>
        <File dnOrder="76">
          <Type dnOrder="0">HEADER</Type>
          <Name dnOrder="1">twihs.h</Name>
          <LogicalPath dnOrder="2">packs/ATSAMA5D27_DFP/component/</LogicalPath>
          <PhysicalPath dnOrder="3">/../../packs/ATSAMA5D27_DFP/component/</PhysicalPath>
          <GeneratedChecksum dnOrder="4">2D106DD02110DA4BAA92984924DA83D1</GeneratedChecksum>
          <UserChecksum dnOrder="5">2D106DD02110DA4BAA92984924DA83D1</UserChecksum>
        </File>
        <File dnOrder="77">
          <Type dnOrder="0">HEADER</Type>
          <Name dnOrder="1">uart.h</Name>
          <LogicalPath dnOrder="2">packs/ATSAMA5D27_DFP/component/</LogicalPath>
          <PhysicalPath dnOrder="3">/../../packs/ATSAMA5D27_DFP/component/</PhysicalPath>
          <GeneratedChecksum dnOrder="4">5DF8884F67A662C042BA0AAB3C60F699</GeneratedChecksum>
          <UserChecksum dnOrder="5">5DF8884F67A662C042BA0AAB3C60F699</UserChecksum>
        </File>
        <File dnOrder="78">
          <Type dnOrder="0">HEADER</Type>
          <Name dnOrder="1">udphs.h</Name>
          <LogicalPath dnOrder="2">packs/ATSAMA5D27_DFP/component/</LogicalPath>
          <PhysicalPath dnOrder="3">/../../packs/ATSAMA5D27_DFP/component/</PhysicalPath>
          <GeneratedChecksum dnOrder="4">D293C9C9BCD25AEE02282235265A3061</GeneratedChecksum>
          <UserChecksum dnOrder="5">D293C9C9BCD25AEE02282235265A3061</UserChecksum>
        </File>
        <File dnOrder="79">
          <Type dnOrder="0">HEADER</Type>
          <Name dnOrder="1">uhphs.h</Name>
          <LogicalPath dnOrder="2">packs/ATSAMA5D27_DFP/component/</LogicalPath>
          <PhysicalPath dnOrder="3">/../../packs/ATSAMA5D27_DFP/component/</PhysicalPath>
          <GeneratedChecksum dnOrder="4">4F0434C8FAED28FD8DC2913C760BF431</GeneratedChecksum>
          <UserChecksum dnOrder="5">4F0434C8FAED28FD8DC2913C760BF431</UserChecksum>
        </File>
        <File dnOrder="80">
          <Type dnOrder="0">HEADER</Type>
          <Name dnOrder="1">wdt.h</Name>
          <LogicalPath dnOrder="2">packs/ATSAMA5D27_DFP/component/</LogicalPath>
          <PhysicalPath dnOrder="3">/../../packs/ATSAMA5D27_DFP/component/</PhysicalPath>
          <GeneratedChecksum dnOrder="4">AF9041491EC49D2F59E6EAD60471B8F4</GeneratedChecksum>
          <UserChecksum dnOrder="5">AF9041491EC49D2F59E6EAD60471B8F4</UserChecksum>
        </File>
        <File dnOrder="81">
          <Type dnOrder="0">HEADER</Type>
          <Name dnOrder="1">xdmac.h</Name>
          <LogicalPath dnOrder="2">packs/ATSAMA5D27_DFP/component/</LogicalPath>
          <PhysicalPath dnOrder="3">/../../packs/ATSAMA5D27_DFP/component/</PhysicalPath>
          <GeneratedChecksum dnOrder="4">AA4804D2AEEE7CA559B6D0F9E90037E6</GeneratedChecksum>
          <UserChecksum dnOrder="5">AA4804D2AEEE7CA559B6D0F9E90037E6</UserChecksum>
        </File>
        <File dnOrder="82">
          <Type dnOrder="0">LINKER</Type>
          <Name dnOrder="1">ddr.icf</Name>
          <LogicalPath dnOrder="2">config/sam_a5d2_xult/</LogicalPath>
          <PhysicalPath dnOrder="3">/</PhysicalPath>
          <GeneratedChecksum dnOrder="4">56BE2067B4D1FF799C847BF9543C9137</GeneratedChecksum>
          <UserChecksum dnOrder="5">56BE2067B4D1FF799C847BF9543C9137</UserChecksum>
        </File>
      </Files>
    </Manifest>
    <Settings dnOrder="4">
      <Setting dnOrder="0" key="CMSISPath" value=".\dev_packs\arm\CMSIS\5.5.1"/>
      <Setting dnOrder="1" key="DFPPath" value=".\dev_packs\Microchip\SAMA5D2_DFP\0.1.18\atdf\ATSAMA5D27.atdf"/>
      <Setting dnOrder="2" key="FORCE_OPTIMIZATION" value="false"/>
      <Setting dnOrder="3" key="GENERATE_BACKUP" value="true"/>
      <Setting dnOrder="4" key="MERGE_STRATEGY" value="OVERWRITE"/>
      <Setting dnOrder="5" key="PackageFilter" value="csp;"/>
    </Settings>
  </Configurator>
</Configuration>
