<?xml version="1.0" encoding="UTF-8" standalone="no"?>
<Configuration>
  <Configurator>
    <Name dnOrder="0" value="pic32mz_ef_sk"/>
    <Processor dnOrder="1" value="PIC32MZ2048EFH144"/>
    <Harmony dnOrder="2" path="../../../.."/>
    <Manifest dnOrder="3">
      <Files dnOrder="0">
        <File dnOrder="0">
          <Type dnOrder="0">SOURCE</Type>
          <Name dnOrder="1">exceptions.c</Name>
          <LogicalPath dnOrder="2">config/pic32mz_ef_sk/</LogicalPath>
          <PhysicalPath dnOrder="3">/</PhysicalPath>
          <GeneratedChecksum dnOrder="4">3477C6F788508451FADB8F17D7E78273</GeneratedChecksum>
          <UserChecksum dnOrder="5">3477C6F788508451FADB8F17D7E78273</UserChecksum>
        </File>
        <File dnOrder="1">
          <Type dnOrder="0">SOURCE</Type>
          <Name dnOrder="1">initialization.c</Name>
          <LogicalPath dnOrder="2">config/pic32mz_ef_sk/</LogicalPath>
          <PhysicalPath dnOrder="3">/</PhysicalPath>
          <GeneratedChecksum dnOrder="4">15AF88CA7245C4FCB200672AC83E3DD1</GeneratedChecksum>
          <UserChecksum dnOrder="5">15AF88CA7245C4FCB200672AC83E3DD1</UserChecksum>
        </File>
        <File dnOrder="2">
          <Type dnOrder="0">SOURCE</Type>
          <Name dnOrder="1">interrupts.c</Name>
          <LogicalPath dnOrder="2">config/pic32mz_ef_sk/</LogicalPath>
          <PhysicalPath dnOrder="3">/</PhysicalPath>
          <GeneratedChecksum dnOrder="4">15F12CF529AD04AD6FA65F678765767F</GeneratedChecksum>
          <UserChecksum dnOrder="5">15F12CF529AD04AD6FA65F678765767F</UserChecksum>
        </File>
        <File dnOrder="3">
          <Type dnOrder="0">SOURCE</Type>
          <Name dnOrder="1">main.c</Name>
          <LogicalPath dnOrder="2"/>
          <PhysicalPath dnOrder="3">/../../</PhysicalPath>
          <GeneratedChecksum dnOrder="4"/>
          <UserChecksum dnOrder="5"/>
        </File>
        <File dnOrder="4">
          <Type dnOrder="0">SOURCE</Type>
          <Name dnOrder="1">plib_clk.c</Name>
          <LogicalPath dnOrder="2">config/pic32mz_ef_sk/peripheral/clk/</LogicalPath>
          <PhysicalPath dnOrder="3">/peripheral/clk/</PhysicalPath>
          <GeneratedChecksum dnOrder="4">F4B7A6B6C0171A35FB59692E8D0556A6</GeneratedChecksum>
          <UserChecksum dnOrder="5">F4B7A6B6C0171A35FB59692E8D0556A6</UserChecksum>
        </File>
        <File dnOrder="5">
          <Type dnOrder="0">SOURCE</Type>
          <Name dnOrder="1">plib_evic.c</Name>
          <LogicalPath dnOrder="2">config/pic32mz_ef_sk/peripheral/evic/</LogicalPath>
          <PhysicalPath dnOrder="3">/peripheral/evic/</PhysicalPath>
          <GeneratedChecksum dnOrder="4">1D61E7BB3CB89E2F2B538D63212CA04A</GeneratedChecksum>
          <UserChecksum dnOrder="5">1D61E7BB3CB89E2F2B538D63212CA04A</UserChecksum>
        </File>
        <File dnOrder="6">
          <Type dnOrder="0">SOURCE</Type>
          <Name dnOrder="1">plib_gpio.c</Name>
          <LogicalPath dnOrder="2">config/pic32mz_ef_sk/peripheral/gpio/</LogicalPath>
          <PhysicalPath dnOrder="3">/peripheral/gpio/</PhysicalPath>
          <GeneratedChecksum dnOrder="4">F315D438D23229A55B302190B16DD88F</GeneratedChecksum>
          <UserChecksum dnOrder="5">F315D438D23229A55B302190B16DD88F</UserChecksum>
        </File>
        <File dnOrder="7">
          <Type dnOrder="0">SOURCE</Type>
          <Name dnOrder="1">plib_sqi1.c</Name>
          <LogicalPath dnOrder="2">config/pic32mz_ef_sk/peripheral/sqi/</LogicalPath>
          <PhysicalPath dnOrder="3">/peripheral/sqi/</PhysicalPath>
          <GeneratedChecksum dnOrder="4">07AE8FD0FF67938DACB7A4D9DF5BCDA7</GeneratedChecksum>
          <UserChecksum dnOrder="5">07AE8FD0FF67938DACB7A4D9DF5BCDA7</UserChecksum>
        </File>
        <File dnOrder="8">
          <Type dnOrder="0">SOURCE</Type>
          <Name dnOrder="1">xc32_monitor.c</Name>
          <LogicalPath dnOrder="2">config/pic32mz_ef_sk/stdio/</LogicalPath>
          <PhysicalPath dnOrder="3">/stdio/</PhysicalPath>
          <GeneratedChecksum dnOrder="4">0CDCE9B6891797FCD2AEA243F841353F</GeneratedChecksum>
          <UserChecksum dnOrder="5">0CDCE9B6891797FCD2AEA243F841353F</UserChecksum>
        </File>
        <File dnOrder="9">
          <Type dnOrder="0">HEADER</Type>
          <Name dnOrder="1">definitions.h</Name>
          <LogicalPath dnOrder="2">config/pic32mz_ef_sk/</LogicalPath>
          <PhysicalPath dnOrder="3">/</PhysicalPath>
          <GeneratedChecksum dnOrder="4">D094B06475361C22E70464A59C8BC00A</GeneratedChecksum>
          <UserChecksum dnOrder="5">D094B06475361C22E70464A59C8BC00A</UserChecksum>
        </File>
        <File dnOrder="10">
          <Type dnOrder="0">HEADER</Type>
          <Name dnOrder="1">device.h</Name>
          <LogicalPath dnOrder="2">packs/PIC32MZ2048EFH144_DFP/</LogicalPath>
          <PhysicalPath dnOrder="3">/../../packs/PIC32MZ2048EFH144_DFP/</PhysicalPath>
          <GeneratedChecksum dnOrder="4">5D5C52527AB1435153DB9B50ADE6B79D</GeneratedChecksum>
          <UserChecksum dnOrder="5">5D5C52527AB1435153DB9B50ADE6B79D</UserChecksum>
        </File>
        <File dnOrder="11">
          <Type dnOrder="0">HEADER</Type>
          <Name dnOrder="1">plib_clk.h</Name>
          <LogicalPath dnOrder="2">config/pic32mz_ef_sk/peripheral/clk/</LogicalPath>
          <PhysicalPath dnOrder="3">/peripheral/clk/</PhysicalPath>
          <GeneratedChecksum dnOrder="4">7066CC390335CF75126E2A50C46E3BDD</GeneratedChecksum>
          <UserChecksum dnOrder="5">7066CC390335CF75126E2A50C46E3BDD</UserChecksum>
        </File>
        <File dnOrder="12">
          <Type dnOrder="0">HEADER</Type>
          <Name dnOrder="1">plib_evic.h</Name>
          <LogicalPath dnOrder="2">config/pic32mz_ef_sk/peripheral/evic/</LogicalPath>
          <PhysicalPath dnOrder="3">/peripheral/evic/</PhysicalPath>
          <GeneratedChecksum dnOrder="4">0718C4C8BAA47288E82FE9CCD4854832</GeneratedChecksum>
          <UserChecksum dnOrder="5">0718C4C8BAA47288E82FE9CCD4854832</UserChecksum>
        </File>
        <File dnOrder="13">
          <Type dnOrder="0">HEADER</Type>
          <Name dnOrder="1">plib_gpio.h</Name>
          <LogicalPath dnOrder="2">config/pic32mz_ef_sk/peripheral/gpio/</LogicalPath>
          <PhysicalPath dnOrder="3">/peripheral/gpio/</PhysicalPath>
          <GeneratedChecksum dnOrder="4">77AC9E8B924C7F764B404EB6BC0AA484</GeneratedChecksum>
          <UserChecksum dnOrder="5">77AC9E8B924C7F764B404EB6BC0AA484</UserChecksum>
        </File>
        <File dnOrder="14">
          <Type dnOrder="0">HEADER</Type>
          <Name dnOrder="1">plib_sqi1.h</Name>
          <LogicalPath dnOrder="2">config/pic32mz_ef_sk/peripheral/sqi/</LogicalPath>
          <PhysicalPath dnOrder="3">/peripheral/sqi/</PhysicalPath>
          <GeneratedChecksum dnOrder="4">83A29BB1714DD4AF71B7176C4A487262</GeneratedChecksum>
          <UserChecksum dnOrder="5">83A29BB1714DD4AF71B7176C4A487262</UserChecksum>
        </File>
        <File dnOrder="15">
          <Type dnOrder="0">HEADER</Type>
          <Name dnOrder="1">plib_sqi_common.h</Name>
          <LogicalPath dnOrder="2">config/pic32mz_ef_sk/peripheral/sqi/</LogicalPath>
          <PhysicalPath dnOrder="3">/peripheral/sqi/</PhysicalPath>
          <GeneratedChecksum dnOrder="4">BA2AAEA19E581F59C1E78E73982F7C78</GeneratedChecksum>
          <UserChecksum dnOrder="5">BA2AAEA19E581F59C1E78E73982F7C78</UserChecksum>
        </File>
        <File dnOrder="16">
          <Type dnOrder="0">HEADER</Type>
          <Name dnOrder="1">toolchain_specifics.h</Name>
          <LogicalPath dnOrder="2">config/pic32mz_ef_sk/</LogicalPath>
          <PhysicalPath dnOrder="3">/</PhysicalPath>
          <GeneratedChecksum dnOrder="4">F7924D60AC5CC08996AB2DAEC62D3C54</GeneratedChecksum>
          <UserChecksum dnOrder="5">F7924D60AC5CC08996AB2DAEC62D3C54</UserChecksum>
        </File>
      </Files>
      <Settings dnOrder="1">
        <Setting append="true" category="C32" delimiter=";" dnOrder="0" key="extra-include-directories" value="../src;../src/config/pic32mz_ef_sk;../src/packs/PIC32MZ2048EFH144_DFP;;../src/mips"/>
        <Setting category="C32-LD" dnOrder="1" key="heap-size" value="512"/>
        <Setting category="C32-LD" dnOrder="2" key="no-device-startup-code" value="true"/>
        <Setting category="C32-LD" dnOrder="3" key="preprocessor-macros" value=""/>
      </Settings>
    </Manifest>
    <Settings dnOrder="4">
      <Setting dnOrder="0" key="CMSISPath" value=".\dev_packs\arm\CMSIS\5.5.1"/>
      <Setting dnOrder="1" key="DFPPath" value=".\dev_packs\Microchip\PIC32MZ_EF_DFP\1.0.29\atdf\PIC32MZ2048EFH144.atdf"/>
      <Setting dnOrder="2" key="FORCE_OPTIMIZATION" value="false"/>
      <Setting dnOrder="3" key="GENERATE_BACKUP" value="true"/>
      <Setting dnOrder="4" key="MERGE_STRATEGY" value="USER_ALL"/>
      <Setting dnOrder="5" key="PackageFilter" value="csp;"/>
    </Settings>
  </Configurator>
</Configuration>
