<?xml version="1.0" encoding="UTF-8" standalone="no"?>
<Configuration>
  <Configurator>
    <Name dnOrder="0" value="sam_l21_xpro"/>
    <Processor dnOrder="1" value="ATSAML21J18B"/>
    <Harmony dnOrder="2" path="../../H3_SAME54"/>
    <Manifest dnOrder="3">
      <Files dnOrder="0">
        <File dnOrder="0">
          <Type dnOrder="0">SOURCE</Type>
          <Name dnOrder="1">exceptions.c</Name>
          <LogicalPath dnOrder="2">config/sam_l21_xpro/</LogicalPath>
          <PhysicalPath dnOrder="3">/</PhysicalPath>
          <GeneratedChecksum dnOrder="4">9DE4051D799EAFEBF2B648E71E7FCDAA</GeneratedChecksum>
          <UserChecksum dnOrder="5">9DE4051D799EAFEBF2B648E71E7FCDAA</UserChecksum>
        </File>
        <File dnOrder="1">
          <Type dnOrder="0">SOURCE</Type>
          <Name dnOrder="1">initialization.c</Name>
          <LogicalPath dnOrder="2">config/sam_l21_xpro/</LogicalPath>
          <PhysicalPath dnOrder="3">/</PhysicalPath>
          <GeneratedChecksum dnOrder="4">19327D668F93A0BA66362EC26F0BF88B</GeneratedChecksum>
          <UserChecksum dnOrder="5">19327D668F93A0BA66362EC26F0BF88B</UserChecksum>
        </File>
        <File dnOrder="2">
          <Type dnOrder="0">SOURCE</Type>
          <Name dnOrder="1">interrupts.c</Name>
          <LogicalPath dnOrder="2">config/sam_l21_xpro/</LogicalPath>
          <PhysicalPath dnOrder="3">/</PhysicalPath>
          <GeneratedChecksum dnOrder="4">1B3F2D5703A724BF9E7F034A88E3F14B</GeneratedChecksum>
          <UserChecksum dnOrder="5">1B3F2D5703A724BF9E7F034A88E3F14B</UserChecksum>
        </File>
        <File dnOrder="3">
          <Type dnOrder="0">SOURCE</Type>
          <Name dnOrder="1">libc_syscalls.c</Name>
          <LogicalPath dnOrder="2">config/sam_l21_xpro/</LogicalPath>
          <PhysicalPath dnOrder="3">/</PhysicalPath>
          <GeneratedChecksum dnOrder="4">0D061464696B9E5D276A90A352736879</GeneratedChecksum>
          <UserChecksum dnOrder="5">0D061464696B9E5D276A90A352736879</UserChecksum>
        </File>
        <File dnOrder="4">
          <Type dnOrder="0">SOURCE</Type>
          <Name dnOrder="1">main_l21.c</Name>
          <LogicalPath dnOrder="2"/>
          <PhysicalPath dnOrder="3">/../../</PhysicalPath>
          <GeneratedChecksum dnOrder="4"/>
          <UserChecksum dnOrder="5"/>
        </File>
        <File dnOrder="5">
          <Type dnOrder="0">SOURCE</Type>
          <Name dnOrder="1">plib_ccl.c</Name>
          <LogicalPath dnOrder="2">config/sam_l21_xpro/peripheral/ccl/</LogicalPath>
          <PhysicalPath dnOrder="3">/peripheral/ccl/</PhysicalPath>
          <GeneratedChecksum dnOrder="4">C27BD43AB4D03BA8D7165FDC0F7DE465</GeneratedChecksum>
          <UserChecksum dnOrder="5">C27BD43AB4D03BA8D7165FDC0F7DE465</UserChecksum>
        </File>
        <File dnOrder="6">
          <Type dnOrder="0">SOURCE</Type>
          <Name dnOrder="1">plib_clock.c</Name>
          <LogicalPath dnOrder="2">config/sam_l21_xpro/peripheral/clock/</LogicalPath>
          <PhysicalPath dnOrder="3">/peripheral/clock/</PhysicalPath>
          <GeneratedChecksum dnOrder="4">3306B887ED0C896D74A6A76E26397989</GeneratedChecksum>
          <UserChecksum dnOrder="5">3306B887ED0C896D74A6A76E26397989</UserChecksum>
        </File>
        <File dnOrder="7">
          <Type dnOrder="0">SOURCE</Type>
          <Name dnOrder="1">plib_evsys.c</Name>
          <LogicalPath dnOrder="2">config/sam_l21_xpro/peripheral/evsys</LogicalPath>
          <PhysicalPath dnOrder="3">/peripheral/evsys/</PhysicalPath>
          <GeneratedChecksum dnOrder="4">C99E6D9B9BA371EA749B7DC16BC2C209</GeneratedChecksum>
          <UserChecksum dnOrder="5">C99E6D9B9BA371EA749B7DC16BC2C209</UserChecksum>
        </File>
        <File dnOrder="8">
          <Type dnOrder="0">SOURCE</Type>
          <Name dnOrder="1">plib_nvic.c</Name>
          <LogicalPath dnOrder="2">config/sam_l21_xpro/peripheral/nvic/</LogicalPath>
          <PhysicalPath dnOrder="3">/peripheral/nvic/</PhysicalPath>
          <GeneratedChecksum dnOrder="4">1D29BD0564CC39FA7AEB50C9493A079C</GeneratedChecksum>
          <UserChecksum dnOrder="5">1D29BD0564CC39FA7AEB50C9493A079C</UserChecksum>
        </File>
        <File dnOrder="9">
          <Type dnOrder="0">SOURCE</Type>
          <Name dnOrder="1">plib_nvmctrl.c</Name>
          <LogicalPath dnOrder="2">config/sam_l21_xpro/peripheral/nvmctrl/</LogicalPath>
          <PhysicalPath dnOrder="3">/peripheral/nvmctrl/</PhysicalPath>
          <GeneratedChecksum dnOrder="4">1A276F1056D0517E6CEDAD9C16DBD026</GeneratedChecksum>
          <UserChecksum dnOrder="5">1A276F1056D0517E6CEDAD9C16DBD026</UserChecksum>
        </File>
        <File dnOrder="10">
          <Type dnOrder="0">SOURCE</Type>
          <Name dnOrder="1">plib_pm.c</Name>
          <LogicalPath dnOrder="2">config/sam_l21_xpro/peripheral/pm/</LogicalPath>
          <PhysicalPath dnOrder="3">/peripheral/pm/</PhysicalPath>
          <GeneratedChecksum dnOrder="4">86046DCDD50479F5218553279E51C61C</GeneratedChecksum>
          <UserChecksum dnOrder="5">86046DCDD50479F5218553279E51C61C</UserChecksum>
        </File>
        <File dnOrder="11">
          <Type dnOrder="0">SOURCE</Type>
          <Name dnOrder="1">plib_port.c</Name>
          <LogicalPath dnOrder="2">config/sam_l21_xpro/peripheral/port/</LogicalPath>
          <PhysicalPath dnOrder="3">/peripheral/port/</PhysicalPath>
          <GeneratedChecksum dnOrder="4">BCA16EBE3A313776E7064BD3D2F419CC</GeneratedChecksum>
          <UserChecksum dnOrder="5">BCA16EBE3A313776E7064BD3D2F419CC</UserChecksum>
        </File>
        <File dnOrder="12">
          <Type dnOrder="0">SOURCE</Type>
          <Name dnOrder="1">plib_sercom0_spi.c</Name>
          <LogicalPath dnOrder="2">config/sam_l21_xpro/peripheral/sercom/spim/</LogicalPath>
          <PhysicalPath dnOrder="3">/peripheral/sercom/spim/</PhysicalPath>
          <GeneratedChecksum dnOrder="4">8E7064BA81EA185D3CF8084D8B70E628</GeneratedChecksum>
          <UserChecksum dnOrder="5">8E7064BA81EA185D3CF8084D8B70E628</UserChecksum>
        </File>
        <File dnOrder="13">
          <Type dnOrder="0">SOURCE</Type>
          <Name dnOrder="1">startup_xc32.c</Name>
          <LogicalPath dnOrder="2">config/sam_l21_xpro/</LogicalPath>
          <PhysicalPath dnOrder="3">/</PhysicalPath>
          <GeneratedChecksum dnOrder="4">1D663AF01040F617CC298F9373DE9B57</GeneratedChecksum>
          <UserChecksum dnOrder="5">1D663AF01040F617CC298F9373DE9B57</UserChecksum>
        </File>
        <File dnOrder="14">
          <Type dnOrder="0">SOURCE</Type>
          <Name dnOrder="1">xc32_monitor.c</Name>
          <LogicalPath dnOrder="2">config/sam_l21_xpro/stdio/</LogicalPath>
          <PhysicalPath dnOrder="3">/stdio/</PhysicalPath>
          <GeneratedChecksum dnOrder="4">0CDCE9B6891797FCD2AEA243F841353F</GeneratedChecksum>
          <UserChecksum dnOrder="5">0CDCE9B6891797FCD2AEA243F841353F</UserChecksum>
        </File>
        <File dnOrder="15">
          <Type dnOrder="0">HEADER</Type>
          <Name dnOrder="1">ac.h</Name>
          <LogicalPath dnOrder="2">packs/ATSAML21J18B_DFP/component/</LogicalPath>
          <PhysicalPath dnOrder="3">/../../packs/ATSAML21J18B_DFP/component/</PhysicalPath>
          <GeneratedChecksum dnOrder="4">A9174884EF4459D4D56E4C5D71E27A6B</GeneratedChecksum>
          <UserChecksum dnOrder="5">A9174884EF4459D4D56E4C5D71E27A6B</UserChecksum>
        </File>
        <File dnOrder="16">
          <Type dnOrder="0">HEADER</Type>
          <Name dnOrder="1">adc.h</Name>
          <LogicalPath dnOrder="2">packs/ATSAML21J18B_DFP/component/</LogicalPath>
          <PhysicalPath dnOrder="3">/../../packs/ATSAML21J18B_DFP/component/</PhysicalPath>
          <GeneratedChecksum dnOrder="4">82D128374EDF78D80A74A56212D13782</GeneratedChecksum>
          <UserChecksum dnOrder="5">82D128374EDF78D80A74A56212D13782</UserChecksum>
        </File>
        <File dnOrder="17">
          <Type dnOrder="0">HEADER</Type>
          <Name dnOrder="1">aes.h</Name>
          <LogicalPath dnOrder="2">packs/ATSAML21J18B_DFP/component/</LogicalPath>
          <PhysicalPath dnOrder="3">/../../packs/ATSAML21J18B_DFP/component/</PhysicalPath>
          <GeneratedChecksum dnOrder="4">5A3782BEAC352896EA4A9E33BF0F13CD</GeneratedChecksum>
          <UserChecksum dnOrder="5">5A3782BEAC352896EA4A9E33BF0F13CD</UserChecksum>
        </File>
        <File dnOrder="18">
          <Type dnOrder="0">HEADER</Type>
          <Name dnOrder="1">arm_common_tables.h</Name>
          <LogicalPath dnOrder="2">packs/CMSIS/CMSIS/DSP/Include/</LogicalPath>
          <PhysicalPath dnOrder="3">/../../packs/CMSIS/CMSIS/DSP/Include/</PhysicalPath>
          <GeneratedChecksum dnOrder="4">ECE7DC494F56CE01D96DE918E61B7C02</GeneratedChecksum>
          <UserChecksum dnOrder="5">ECE7DC494F56CE01D96DE918E61B7C02</UserChecksum>
        </File>
        <File dnOrder="19">
          <Type dnOrder="0">HEADER</Type>
          <Name dnOrder="1">arm_const_structs.h</Name>
          <LogicalPath dnOrder="2">packs/CMSIS/CMSIS/DSP/Include/</LogicalPath>
          <PhysicalPath dnOrder="3">/../../packs/CMSIS/CMSIS/DSP/Include/</PhysicalPath>
          <GeneratedChecksum dnOrder="4">B99479A6A9F72E72C614DB59601DC762</GeneratedChecksum>
          <UserChecksum dnOrder="5">B99479A6A9F72E72C614DB59601DC762</UserChecksum>
        </File>
        <File dnOrder="20">
          <Type dnOrder="0">HEADER</Type>
          <Name dnOrder="1">arm_math.h</Name>
          <LogicalPath dnOrder="2">packs/CMSIS/CMSIS/DSP/Include/</LogicalPath>
          <PhysicalPath dnOrder="3">/../../packs/CMSIS/CMSIS/DSP/Include/</PhysicalPath>
          <GeneratedChecksum dnOrder="4">4726F6E7A3CDEDAE6075A88F3D16F093</GeneratedChecksum>
          <UserChecksum dnOrder="5">4726F6E7A3CDEDAE6075A88F3D16F093</UserChecksum>
        </File>
        <File dnOrder="21">
          <Type dnOrder="0">HEADER</Type>
          <Name dnOrder="1">atsaml21j18b.h</Name>
          <LogicalPath dnOrder="2">packs/ATSAML21J18B_DFP/</LogicalPath>
          <PhysicalPath dnOrder="3">/../../packs/ATSAML21J18B_DFP/</PhysicalPath>
          <GeneratedChecksum dnOrder="4">5CBA35218B213993AB7069AC226A64C5</GeneratedChecksum>
          <UserChecksum dnOrder="5">5CBA35218B213993AB7069AC226A64C5</UserChecksum>
        </File>
        <File dnOrder="22">
          <Type dnOrder="0">HEADER</Type>
          <Name dnOrder="1">ccl.h</Name>
          <LogicalPath dnOrder="2">packs/ATSAML21J18B_DFP/component/</LogicalPath>
          <PhysicalPath dnOrder="3">/../../packs/ATSAML21J18B_DFP/component/</PhysicalPath>
          <GeneratedChecksum dnOrder="4">0448843CCA8E5655A3C5C527E118C582</GeneratedChecksum>
          <UserChecksum dnOrder="5">0448843CCA8E5655A3C5C527E118C582</UserChecksum>
        </File>
        <File dnOrder="23">
          <Type dnOrder="0">HEADER</Type>
          <Name dnOrder="1">cmsis_compiler.h</Name>
          <LogicalPath dnOrder="2">packs/CMSIS/CMSIS/Core/Include/</LogicalPath>
          <PhysicalPath dnOrder="3">/../../packs/CMSIS/CMSIS/Core/Include/</PhysicalPath>
          <GeneratedChecksum dnOrder="4">365C5BBEA54A0D27134F48D8CA4CAF51</GeneratedChecksum>
          <UserChecksum dnOrder="5">365C5BBEA54A0D27134F48D8CA4CAF51</UserChecksum>
        </File>
        <File dnOrder="24">
          <Type dnOrder="0">HEADER</Type>
          <Name dnOrder="1">cmsis_gcc.h</Name>
          <LogicalPath dnOrder="2">packs/CMSIS/CMSIS/Core/Include/</LogicalPath>
          <PhysicalPath dnOrder="3">/../../packs/CMSIS/CMSIS/Core/Include/</PhysicalPath>
          <GeneratedChecksum dnOrder="4">84913DBF2CD848CDB8F892E2ADC7EE77</GeneratedChecksum>
          <UserChecksum dnOrder="5">84913DBF2CD848CDB8F892E2ADC7EE77</UserChecksum>
        </File>
        <File dnOrder="25">
          <Type dnOrder="0">HEADER</Type>
          <Name dnOrder="1">cmsis_iccarm.h</Name>
          <LogicalPath dnOrder="2">packs/CMSIS/CMSIS/Core/Include/</LogicalPath>
          <PhysicalPath dnOrder="3">/../../packs/CMSIS/CMSIS/Core/Include/</PhysicalPath>
          <GeneratedChecksum dnOrder="4">200BD202EF9D260096788CB11E4BBA43</GeneratedChecksum>
          <UserChecksum dnOrder="5">200BD202EF9D260096788CB11E4BBA43</UserChecksum>
        </File>
        <File dnOrder="26">
          <Type dnOrder="0">HEADER</Type>
          <Name dnOrder="1">cmsis_version.h</Name>
          <LogicalPath dnOrder="2">packs/CMSIS/CMSIS/Core/Include/</LogicalPath>
          <PhysicalPath dnOrder="3">/../../packs/CMSIS/CMSIS/Core/Include/</PhysicalPath>
          <GeneratedChecksum dnOrder="4">C0876654D46C4217FC4F3AE616901992</GeneratedChecksum>
          <UserChecksum dnOrder="5">C0876654D46C4217FC4F3AE616901992</UserChecksum>
        </File>
        <File dnOrder="27">
          <Type dnOrder="0">HEADER</Type>
          <Name dnOrder="1">core_cm0plus.h</Name>
          <LogicalPath dnOrder="2">packs/CMSIS/CMSIS/Core/Include/</LogicalPath>
          <PhysicalPath dnOrder="3">/../../packs/CMSIS/CMSIS/Core/Include/</PhysicalPath>
          <GeneratedChecksum dnOrder="4">63779BE6AD357096992A29D1F2B4A359</GeneratedChecksum>
          <UserChecksum dnOrder="5">63779BE6AD357096992A29D1F2B4A359</UserChecksum>
        </File>
        <File dnOrder="28">
          <Type dnOrder="0">HEADER</Type>
          <Name dnOrder="1">dac.h</Name>
          <LogicalPath dnOrder="2">packs/ATSAML21J18B_DFP/component/</LogicalPath>
          <PhysicalPath dnOrder="3">/../../packs/ATSAML21J18B_DFP/component/</PhysicalPath>
          <GeneratedChecksum dnOrder="4">0FD8F0E89D3869C4D71D16B95A2FC72E</GeneratedChecksum>
          <UserChecksum dnOrder="5">0FD8F0E89D3869C4D71D16B95A2FC72E</UserChecksum>
        </File>
        <File dnOrder="29">
          <Type dnOrder="0">HEADER</Type>
          <Name dnOrder="1">definitions.h</Name>
          <LogicalPath dnOrder="2">config/sam_l21_xpro/</LogicalPath>
          <PhysicalPath dnOrder="3">/</PhysicalPath>
          <GeneratedChecksum dnOrder="4">63547508F036286709D30A80B17EA171</GeneratedChecksum>
          <UserChecksum dnOrder="5">63547508F036286709D30A80B17EA171</UserChecksum>
        </File>
        <File dnOrder="30">
          <Type dnOrder="0">HEADER</Type>
          <Name dnOrder="1">device.h</Name>
          <LogicalPath dnOrder="2">packs/ATSAML21J18B_DFP/</LogicalPath>
          <PhysicalPath dnOrder="3">/../../packs/ATSAML21J18B_DFP/</PhysicalPath>
          <GeneratedChecksum dnOrder="4">2DEFC243061644CB9EE51572913780B6</GeneratedChecksum>
          <UserChecksum dnOrder="5">2DEFC243061644CB9EE51572913780B6</UserChecksum>
        </File>
        <File dnOrder="31">
          <Type dnOrder="0">HEADER</Type>
          <Name dnOrder="1">device_cache.h</Name>
          <LogicalPath dnOrder="2">config/sam_l21_xpro/</LogicalPath>
          <PhysicalPath dnOrder="3">/</PhysicalPath>
          <GeneratedChecksum dnOrder="4">9ED2219AFB6FDB7A6E9A066E468DAE8B</GeneratedChecksum>
          <UserChecksum dnOrder="5">9ED2219AFB6FDB7A6E9A066E468DAE8B</UserChecksum>
        </File>
        <File dnOrder="32">
          <Type dnOrder="0">HEADER</Type>
          <Name dnOrder="1">dmac.h</Name>
          <LogicalPath dnOrder="2">packs/ATSAML21J18B_DFP/component/</LogicalPath>
          <PhysicalPath dnOrder="3">/../../packs/ATSAML21J18B_DFP/component/</PhysicalPath>
          <GeneratedChecksum dnOrder="4">81C806314776123EE9FCE03AB7AAE694</GeneratedChecksum>
          <UserChecksum dnOrder="5">81C806314776123EE9FCE03AB7AAE694</UserChecksum>
        </File>
        <File dnOrder="33">
          <Type dnOrder="0">HEADER</Type>
          <Name dnOrder="1">dsu.h</Name>
          <LogicalPath dnOrder="2">packs/ATSAML21J18B_DFP/component/</LogicalPath>
          <PhysicalPath dnOrder="3">/../../packs/ATSAML21J18B_DFP/component/</PhysicalPath>
          <GeneratedChecksum dnOrder="4">6E6A00BB6EA4FE26AF0CE1737CF2B4ED</GeneratedChecksum>
          <UserChecksum dnOrder="5">6E6A00BB6EA4FE26AF0CE1737CF2B4ED</UserChecksum>
        </File>
        <File dnOrder="34">
          <Type dnOrder="0">HEADER</Type>
          <Name dnOrder="1">eic.h</Name>
          <LogicalPath dnOrder="2">packs/ATSAML21J18B_DFP/component/</LogicalPath>
          <PhysicalPath dnOrder="3">/../../packs/ATSAML21J18B_DFP/component/</PhysicalPath>
          <GeneratedChecksum dnOrder="4">55BEECBCE401EE0442DF359BCC20588B</GeneratedChecksum>
          <UserChecksum dnOrder="5">55BEECBCE401EE0442DF359BCC20588B</UserChecksum>
        </File>
        <File dnOrder="35">
          <Type dnOrder="0">HEADER</Type>
          <Name dnOrder="1">evsys.h</Name>
          <LogicalPath dnOrder="2">packs/ATSAML21J18B_DFP/component/</LogicalPath>
          <PhysicalPath dnOrder="3">/../../packs/ATSAML21J18B_DFP/component/</PhysicalPath>
          <GeneratedChecksum dnOrder="4">23F57E89805C86BD63643C1CDF6F5AC4</GeneratedChecksum>
          <UserChecksum dnOrder="5">23F57E89805C86BD63643C1CDF6F5AC4</UserChecksum>
        </File>
        <File dnOrder="36">
          <Type dnOrder="0">HEADER</Type>
          <Name dnOrder="1">gclk.h</Name>
          <LogicalPath dnOrder="2">packs/ATSAML21J18B_DFP/component/</LogicalPath>
          <PhysicalPath dnOrder="3">/../../packs/ATSAML21J18B_DFP/component/</PhysicalPath>
          <GeneratedChecksum dnOrder="4">2C52131925444DD56E806D6DA7A00843</GeneratedChecksum>
          <UserChecksum dnOrder="5">2C52131925444DD56E806D6DA7A00843</UserChecksum>
        </File>
        <File dnOrder="37">
          <Type dnOrder="0">HEADER</Type>
          <Name dnOrder="1">mclk.h</Name>
          <LogicalPath dnOrder="2">packs/ATSAML21J18B_DFP/component/</LogicalPath>
          <PhysicalPath dnOrder="3">/../../packs/ATSAML21J18B_DFP/component/</PhysicalPath>
          <GeneratedChecksum dnOrder="4">9AAE27B71B01C2123EEE4B8BC9434524</GeneratedChecksum>
          <UserChecksum dnOrder="5">9AAE27B71B01C2123EEE4B8BC9434524</UserChecksum>
        </File>
        <File dnOrder="38">
          <Type dnOrder="0">HEADER</Type>
          <Name dnOrder="1">mpu_armv7.h</Name>
          <LogicalPath dnOrder="2">packs/CMSIS/CMSIS/Core/Include/</LogicalPath>
          <PhysicalPath dnOrder="3">/../../packs/CMSIS/CMSIS/Core/Include/</PhysicalPath>
          <GeneratedChecksum dnOrder="4">A0246C3B848A6A45D54CE5DA8DF3B9C8</GeneratedChecksum>
          <UserChecksum dnOrder="5">A0246C3B848A6A45D54CE5DA8DF3B9C8</UserChecksum>
        </File>
        <File dnOrder="39">
          <Type dnOrder="0">HEADER</Type>
          <Name dnOrder="1">mtb.h</Name>
          <LogicalPath dnOrder="2">packs/ATSAML21J18B_DFP/component/</LogicalPath>
          <PhysicalPath dnOrder="3">/../../packs/ATSAML21J18B_DFP/component/</PhysicalPath>
          <GeneratedChecksum dnOrder="4">6035455F24E406526441FA3D48E01074</GeneratedChecksum>
          <UserChecksum dnOrder="5">6035455F24E406526441FA3D48E01074</UserChecksum>
        </File>
        <File dnOrder="40">
          <Type dnOrder="0">HEADER</Type>
          <Name dnOrder="1">nvmctrl.h</Name>
          <LogicalPath dnOrder="2">packs/ATSAML21J18B_DFP/component/</LogicalPath>
          <PhysicalPath dnOrder="3">/../../packs/ATSAML21J18B_DFP/component/</PhysicalPath>
          <GeneratedChecksum dnOrder="4">7C715825D7824C17246FEC62B50E0D99</GeneratedChecksum>
          <UserChecksum dnOrder="5">7C715825D7824C17246FEC62B50E0D99</UserChecksum>
        </File>
        <File dnOrder="41">
          <Type dnOrder="0">HEADER</Type>
          <Name dnOrder="1">opamp.h</Name>
          <LogicalPath dnOrder="2">packs/ATSAML21J18B_DFP/component/</LogicalPath>
          <PhysicalPath dnOrder="3">/../../packs/ATSAML21J18B_DFP/component/</PhysicalPath>
          <GeneratedChecksum dnOrder="4">A037C9C29037EED34C4FE76E901C37F7</GeneratedChecksum>
          <UserChecksum dnOrder="5">A037C9C29037EED34C4FE76E901C37F7</UserChecksum>
        </File>
        <File dnOrder="42">
          <Type dnOrder="0">HEADER</Type>
          <Name dnOrder="1">osc32kctrl.h</Name>
          <LogicalPath dnOrder="2">packs/ATSAML21J18B_DFP/component/</LogicalPath>
          <PhysicalPath dnOrder="3">/../../packs/ATSAML21J18B_DFP/component/</PhysicalPath>
          <GeneratedChecksum dnOrder="4">51AA471DE52354C1CE8F5910433E5FB1</GeneratedChecksum>
          <UserChecksum dnOrder="5">51AA471DE52354C1CE8F5910433E5FB1</UserChecksum>
        </File>
        <File dnOrder="43">
          <Type dnOrder="0">HEADER</Type>
          <Name dnOrder="1">oscctrl.h</Name>
          <LogicalPath dnOrder="2">packs/ATSAML21J18B_DFP/component/</LogicalPath>
          <PhysicalPath dnOrder="3">/../../packs/ATSAML21J18B_DFP/component/</PhysicalPath>
          <GeneratedChecksum dnOrder="4">BB1F20A82E879E83CE1F0F5A929CBD11</GeneratedChecksum>
          <UserChecksum dnOrder="5">BB1F20A82E879E83CE1F0F5A929CBD11</UserChecksum>
        </File>
        <File dnOrder="44">
          <Type dnOrder="0">HEADER</Type>
          <Name dnOrder="1">pac.h</Name>
          <LogicalPath dnOrder="2">packs/ATSAML21J18B_DFP/component/</LogicalPath>
          <PhysicalPath dnOrder="3">/../../packs/ATSAML21J18B_DFP/component/</PhysicalPath>
          <GeneratedChecksum dnOrder="4">6B9844EECAD3EE97B0676EAF7BA18099</GeneratedChecksum>
          <UserChecksum dnOrder="5">6B9844EECAD3EE97B0676EAF7BA18099</UserChecksum>
        </File>
        <File dnOrder="45">
          <Type dnOrder="0">HEADER</Type>
          <Name dnOrder="1">plib_ccl.h</Name>
          <LogicalPath dnOrder="2">config/sam_l21_xpro/peripheral/ccl/</LogicalPath>
          <PhysicalPath dnOrder="3">/peripheral/ccl/</PhysicalPath>
          <GeneratedChecksum dnOrder="4">550622C61F7164B3DBB20D380B088BFC</GeneratedChecksum>
          <UserChecksum dnOrder="5">550622C61F7164B3DBB20D380B088BFC</UserChecksum>
        </File>
        <File dnOrder="46">
          <Type dnOrder="0">HEADER</Type>
          <Name dnOrder="1">plib_clock.h</Name>
          <LogicalPath dnOrder="2">config/sam_l21_xpro/peripheral/clock/</LogicalPath>
          <PhysicalPath dnOrder="3">/peripheral/clock/</PhysicalPath>
          <GeneratedChecksum dnOrder="4">78387EA60F98EE9F5602C2EB8CFEA8B3</GeneratedChecksum>
          <UserChecksum dnOrder="5">78387EA60F98EE9F5602C2EB8CFEA8B3</UserChecksum>
        </File>
        <File dnOrder="47">
          <Type dnOrder="0">HEADER</Type>
          <Name dnOrder="1">plib_evsys.h</Name>
          <LogicalPath dnOrder="2">config/sam_l21_xpro/peripheral/evsys</LogicalPath>
          <PhysicalPath dnOrder="3">/peripheral/evsys/</PhysicalPath>
          <GeneratedChecksum dnOrder="4">CCAEF942C66AF995876DFD85CEFF611F</GeneratedChecksum>
          <UserChecksum dnOrder="5">CCAEF942C66AF995876DFD85CEFF611F</UserChecksum>
        </File>
        <File dnOrder="48">
          <Type dnOrder="0">HEADER</Type>
          <Name dnOrder="1">plib_nvic.h</Name>
          <LogicalPath dnOrder="2">config/sam_l21_xpro/peripheral/nvic/</LogicalPath>
          <PhysicalPath dnOrder="3">/peripheral/nvic/</PhysicalPath>
          <GeneratedChecksum dnOrder="4">E95AB23B866AA0CE6F0ABF637E9E2C83</GeneratedChecksum>
          <UserChecksum dnOrder="5">E95AB23B866AA0CE6F0ABF637E9E2C83</UserChecksum>
        </File>
        <File dnOrder="49">
          <Type dnOrder="0">HEADER</Type>
          <Name dnOrder="1">plib_nvmctrl.h</Name>
          <LogicalPath dnOrder="2">config/sam_l21_xpro/peripheral/nvmctrl/</LogicalPath>
          <PhysicalPath dnOrder="3">/peripheral/nvmctrl/</PhysicalPath>
          <GeneratedChecksum dnOrder="4">0F7D56F0E33B753C6C49F69172992D46</GeneratedChecksum>
          <UserChecksum dnOrder="5">0F7D56F0E33B753C6C49F69172992D46</UserChecksum>
        </File>
        <File dnOrder="50">
          <Type dnOrder="0">HEADER</Type>
          <Name dnOrder="1">plib_pm.h</Name>
          <LogicalPath dnOrder="2">config/sam_l21_xpro/peripheral/pm/</LogicalPath>
          <PhysicalPath dnOrder="3">/peripheral/pm/</PhysicalPath>
          <GeneratedChecksum dnOrder="4">2C6F9BA1BFA523200ED784A7D4FC3C81</GeneratedChecksum>
          <UserChecksum dnOrder="5">2C6F9BA1BFA523200ED784A7D4FC3C81</UserChecksum>
        </File>
        <File dnOrder="51">
          <Type dnOrder="0">HEADER</Type>
          <Name dnOrder="1">plib_port.h</Name>
          <LogicalPath dnOrder="2">config/sam_l21_xpro/peripheral/port/</LogicalPath>
          <PhysicalPath dnOrder="3">/peripheral/port/</PhysicalPath>
          <GeneratedChecksum dnOrder="4">AC5665936239CEDFF65333BF0FD34FB4</GeneratedChecksum>
          <UserChecksum dnOrder="5">AC5665936239CEDFF65333BF0FD34FB4</UserChecksum>
        </File>
        <File dnOrder="52">
          <Type dnOrder="0">HEADER</Type>
          <Name dnOrder="1">plib_sercom0_spi.h</Name>
          <LogicalPath dnOrder="2">config/sam_l21_xpro/peripheral/sercom/spim/</LogicalPath>
          <PhysicalPath dnOrder="3">/peripheral/sercom/spim/</PhysicalPath>
          <GeneratedChecksum dnOrder="4">24020C6F870EC9C16B0B8FAF499BE0EB</GeneratedChecksum>
          <UserChecksum dnOrder="5">24020C6F870EC9C16B0B8FAF499BE0EB</UserChecksum>
        </File>
        <File dnOrder="53">
          <Type dnOrder="0">HEADER</Type>
          <Name dnOrder="1">plib_sercom_spi_common.h</Name>
          <LogicalPath dnOrder="2">config/sam_l21_xpro/peripheral/sercom/spim/</LogicalPath>
          <PhysicalPath dnOrder="3">/peripheral/sercom/spim/</PhysicalPath>
          <GeneratedChecksum dnOrder="4">EC6705B0D355601CE62F39DD261EEE63</GeneratedChecksum>
          <UserChecksum dnOrder="5">EC6705B0D355601CE62F39DD261EEE63</UserChecksum>
        </File>
        <File dnOrder="54">
          <Type dnOrder="0">HEADER</Type>
          <Name dnOrder="1">pm.h</Name>
          <LogicalPath dnOrder="2">packs/ATSAML21J18B_DFP/component/</LogicalPath>
          <PhysicalPath dnOrder="3">/../../packs/ATSAML21J18B_DFP/component/</PhysicalPath>
          <GeneratedChecksum dnOrder="4">78C9411CBF688331809B6C66608B84D5</GeneratedChecksum>
          <UserChecksum dnOrder="5">78C9411CBF688331809B6C66608B84D5</UserChecksum>
        </File>
        <File dnOrder="55">
          <Type dnOrder="0">HEADER</Type>
          <Name dnOrder="1">port.h</Name>
          <LogicalPath dnOrder="2">packs/ATSAML21J18B_DFP/component/</LogicalPath>
          <PhysicalPath dnOrder="3">/../../packs/ATSAML21J18B_DFP/component/</PhysicalPath>
          <GeneratedChecksum dnOrder="4">FB2B89F6D057AEA6DA86990A95ECCDB6</GeneratedChecksum>
          <UserChecksum dnOrder="5">FB2B89F6D057AEA6DA86990A95ECCDB6</UserChecksum>
        </File>
        <File dnOrder="56">
          <Type dnOrder="0">HEADER</Type>
          <Name dnOrder="1">ptc.h</Name>
          <LogicalPath dnOrder="2">packs/ATSAML21J18B_DFP/component/</LogicalPath>
          <PhysicalPath dnOrder="3">/../../packs/ATSAML21J18B_DFP/component/</PhysicalPath>
          <GeneratedChecksum dnOrder="4">B12F829161CCFAF29B13594292FB50C4</GeneratedChecksum>
          <UserChecksum dnOrder="5">B12F829161CCFAF29B13594292FB50C4</UserChecksum>
        </File>
        <File dnOrder="57">
          <Type dnOrder="0">HEADER</Type>
          <Name dnOrder="1">rstc.h</Name>
          <LogicalPath dnOrder="2">packs/ATSAML21J18B_DFP/component/</LogicalPath>
          <PhysicalPath dnOrder="3">/../../packs/ATSAML21J18B_DFP/component/</PhysicalPath>
          <GeneratedChecksum dnOrder="4">37C82D67E8BE520B9545F4FA5BC4764B</GeneratedChecksum>
          <UserChecksum dnOrder="5">37C82D67E8BE520B9545F4FA5BC4764B</UserChecksum>
        </File>
        <File dnOrder="58">
          <Type dnOrder="0">HEADER</Type>
          <Name dnOrder="1">rtc.h</Name>
          <LogicalPath dnOrder="2">packs/ATSAML21J18B_DFP/component/</LogicalPath>
          <PhysicalPath dnOrder="3">/../../packs/ATSAML21J18B_DFP/component/</PhysicalPath>
          <GeneratedChecksum dnOrder="4">B0A145CFA33EFB134C3D34AB78EC4EEC</GeneratedChecksum>
          <UserChecksum dnOrder="5">B0A145CFA33EFB134C3D34AB78EC4EEC</UserChecksum>
        </File>
        <File dnOrder="59">
          <Type dnOrder="0">HEADER</Type>
          <Name dnOrder="1">saml21j18b.h</Name>
          <LogicalPath dnOrder="2">packs/ATSAML21J18B_DFP/pio/</LogicalPath>
          <PhysicalPath dnOrder="3">/../../packs/ATSAML21J18B_DFP/pio/</PhysicalPath>
          <GeneratedChecksum dnOrder="4">D7E341EF54675A8C9BAD7C4405D17BD6</GeneratedChecksum>
          <UserChecksum dnOrder="5">D7E341EF54675A8C9BAD7C4405D17BD6</UserChecksum>
        </File>
        <File dnOrder="60">
          <Type dnOrder="0">HEADER</Type>
          <Name dnOrder="1">sercom.h</Name>
          <LogicalPath dnOrder="2">packs/ATSAML21J18B_DFP/component/</LogicalPath>
          <PhysicalPath dnOrder="3">/../../packs/ATSAML21J18B_DFP/component/</PhysicalPath>
          <GeneratedChecksum dnOrder="4">8672E023F9F2414F916DB26B8F67511E</GeneratedChecksum>
          <UserChecksum dnOrder="5">8672E023F9F2414F916DB26B8F67511E</UserChecksum>
        </File>
        <File dnOrder="61">
          <Type dnOrder="0">HEADER</Type>
          <Name dnOrder="1">supc.h</Name>
          <LogicalPath dnOrder="2">packs/ATSAML21J18B_DFP/component/</LogicalPath>
          <PhysicalPath dnOrder="3">/../../packs/ATSAML21J18B_DFP/component/</PhysicalPath>
          <GeneratedChecksum dnOrder="4">DD388E3C4816A2D4C971C42947D64B18</GeneratedChecksum>
          <UserChecksum dnOrder="5">DD388E3C4816A2D4C971C42947D64B18</UserChecksum>
        </File>
        <File dnOrder="62">
          <Type dnOrder="0">HEADER</Type>
          <Name dnOrder="1">tc.h</Name>
          <LogicalPath dnOrder="2">packs/ATSAML21J18B_DFP/component/</LogicalPath>
          <PhysicalPath dnOrder="3">/../../packs/ATSAML21J18B_DFP/component/</PhysicalPath>
          <GeneratedChecksum dnOrder="4">F52CB72FBB3F674EE1910A222DF60E13</GeneratedChecksum>
          <UserChecksum dnOrder="5">F52CB72FBB3F674EE1910A222DF60E13</UserChecksum>
        </File>
        <File dnOrder="63">
          <Type dnOrder="0">HEADER</Type>
          <Name dnOrder="1">tcc.h</Name>
          <LogicalPath dnOrder="2">packs/ATSAML21J18B_DFP/component/</LogicalPath>
          <PhysicalPath dnOrder="3">/../../packs/ATSAML21J18B_DFP/component/</PhysicalPath>
          <GeneratedChecksum dnOrder="4">2CC6B53A00761F322F8D27C7B43D79EF</GeneratedChecksum>
          <UserChecksum dnOrder="5">2CC6B53A00761F322F8D27C7B43D79EF</UserChecksum>
        </File>
        <File dnOrder="64">
          <Type dnOrder="0">HEADER</Type>
          <Name dnOrder="1">toolchain_specifics.h</Name>
          <LogicalPath dnOrder="2">config/sam_l21_xpro/</LogicalPath>
          <PhysicalPath dnOrder="3">/</PhysicalPath>
          <GeneratedChecksum dnOrder="4">4F3C5B6A299E310404C004FB60312B4A</GeneratedChecksum>
          <UserChecksum dnOrder="5">4F3C5B6A299E310404C004FB60312B4A</UserChecksum>
        </File>
        <File dnOrder="65">
          <Type dnOrder="0">HEADER</Type>
          <Name dnOrder="1">trng.h</Name>
          <LogicalPath dnOrder="2">packs/ATSAML21J18B_DFP/component/</LogicalPath>
          <PhysicalPath dnOrder="3">/../../packs/ATSAML21J18B_DFP/component/</PhysicalPath>
          <GeneratedChecksum dnOrder="4">EB6C34A3A3460C1396E2289CDF18A627</GeneratedChecksum>
          <UserChecksum dnOrder="5">EB6C34A3A3460C1396E2289CDF18A627</UserChecksum>
        </File>
        <File dnOrder="66">
          <Type dnOrder="0">HEADER</Type>
          <Name dnOrder="1">tz_context.h</Name>
          <LogicalPath dnOrder="2">packs/CMSIS/CMSIS/Core/Include/</LogicalPath>
          <PhysicalPath dnOrder="3">/../../packs/CMSIS/CMSIS/Core/Include/</PhysicalPath>
          <GeneratedChecksum dnOrder="4">8710F2682DA1C97558850902DABA38BA</GeneratedChecksum>
          <UserChecksum dnOrder="5">8710F2682DA1C97558850902DABA38BA</UserChecksum>
        </File>
        <File dnOrder="67">
          <Type dnOrder="0">HEADER</Type>
          <Name dnOrder="1">usb.h</Name>
          <LogicalPath dnOrder="2">packs/ATSAML21J18B_DFP/component/</LogicalPath>
          <PhysicalPath dnOrder="3">/../../packs/ATSAML21J18B_DFP/component/</PhysicalPath>
          <GeneratedChecksum dnOrder="4">E8CD063C39DB4AFD7B5B06DF35313235</GeneratedChecksum>
          <UserChecksum dnOrder="5">E8CD063C39DB4AFD7B5B06DF35313235</UserChecksum>
        </File>
        <File dnOrder="68">
          <Type dnOrder="0">HEADER</Type>
          <Name dnOrder="1">wdt.h</Name>
          <LogicalPath dnOrder="2">packs/ATSAML21J18B_DFP/component/</LogicalPath>
          <PhysicalPath dnOrder="3">/../../packs/ATSAML21J18B_DFP/component/</PhysicalPath>
          <GeneratedChecksum dnOrder="4">41174879B03A092CAD91A76B53FEC8AD</GeneratedChecksum>
          <UserChecksum dnOrder="5">41174879B03A092CAD91A76B53FEC8AD</UserChecksum>
        </File>
      </Files>
      <Settings dnOrder="1">
        <Setting append="true" category="C32" delimiter=";" dnOrder="0" key="extra-include-directories" value="../src;../src/config/sam_l21_xpro;../src/packs/ATSAML21J18B_DFP;../src/packs/CMSIS/CMSIS/Core/Include;../src/packs/CMSIS/;../src/arm"/>
        <Setting category="C32-LD" dnOrder="1" key="heap-size" value="512"/>
        <Setting category="C32-LD" dnOrder="2" key="no-device-startup-code" value="true"/>
        <Setting category="C32-LD" dnOrder="3" key="preprocessor-macros" value=""/>
      </Settings>
    </Manifest>
    <Settings dnOrder="4">
      <Setting dnOrder="0" key="CMSISPath" value=".\dev_packs\arm\CMSIS\5.5.1"/>
      <Setting dnOrder="1" key="DFPPath" value=".\dev_packs\Microchip\SAML21_DFP\3.0.26\saml21b\atdf\ATSAML21J18B.atdf"/>
      <Setting dnOrder="2" key="FORCE_OPTIMIZATION" value="false"/>
      <Setting dnOrder="3" key="GENERATE_BACKUP" value="true"/>
      <Setting dnOrder="4" key="MERGE_STRATEGY" value="USER_ALL"/>
      <Setting dnOrder="5" key="PackageFilter" value="csp;"/>
    </Settings>
  </Configurator>
</Configuration>
