<?xml version="1.0" encoding="UTF-8" standalone="no"?>
<Configuration>
  <Configurator>
    <Name dnOrder="0" value="pic32mk_gp_db"/>
    <Processor dnOrder="1" value="PIC32MK1024GPE100"/>
    <Harmony dnOrder="2" path="../../../.."/>
    <Manifest dnOrder="3">
      <Files dnOrder="0">
        <File dnOrder="0">
          <Type dnOrder="0">SOURCE</Type>
          <Name dnOrder="1">exceptions.c</Name>
          <LogicalPath dnOrder="2">config/pic32mk_gp_db/</LogicalPath>
          <PhysicalPath dnOrder="3">/</PhysicalPath>
          <GeneratedChecksum dnOrder="4">3477C6F788508451FADB8F17D7E78273</GeneratedChecksum>
          <UserChecksum dnOrder="5">3477C6F788508451FADB8F17D7E78273</UserChecksum>
        </File>
        <File dnOrder="1">
          <Type dnOrder="0">SOURCE</Type>
          <Name dnOrder="1">initialization.c</Name>
          <LogicalPath dnOrder="2">config/pic32mk_gp_db/</LogicalPath>
          <PhysicalPath dnOrder="3">/</PhysicalPath>
          <GeneratedChecksum dnOrder="4">EC172CFAB1EC7942BD5892389E34E1EF</GeneratedChecksum>
          <UserChecksum dnOrder="5">EC172CFAB1EC7942BD5892389E34E1EF</UserChecksum>
        </File>
        <File dnOrder="2">
          <Type dnOrder="0">SOURCE</Type>
          <Name dnOrder="1">interrupts.c</Name>
          <LogicalPath dnOrder="2">config/pic32mk_gp_db/</LogicalPath>
          <PhysicalPath dnOrder="3">/</PhysicalPath>
          <GeneratedChecksum dnOrder="4">52571F34418EAD4BC92E0BEBF41A326D</GeneratedChecksum>
          <UserChecksum dnOrder="5">52571F34418EAD4BC92E0BEBF41A326D</UserChecksum>
        </File>
        <File dnOrder="3">
          <Type dnOrder="0">SOURCE</Type>
          <Name dnOrder="1">main.c</Name>
          <LogicalPath dnOrder="2"/>
          <PhysicalPath dnOrder="3">/../../</PhysicalPath>
          <GeneratedChecksum dnOrder="4"/>
          <UserChecksum dnOrder="5"/>
        </File>
        <File dnOrder="4">
          <Type dnOrder="0">SOURCE</Type>
          <Name dnOrder="1">plib_clk.c</Name>
          <LogicalPath dnOrder="2">config/pic32mk_gp_db/peripheral/clk/</LogicalPath>
          <PhysicalPath dnOrder="3">/peripheral/clk/</PhysicalPath>
          <GeneratedChecksum dnOrder="4">30C0563B582D57E290A15886F6FCBDD1</GeneratedChecksum>
          <UserChecksum dnOrder="5">30C0563B582D57E290A15886F6FCBDD1</UserChecksum>
        </File>
        <File dnOrder="5">
          <Type dnOrder="0">SOURCE</Type>
          <Name dnOrder="1">plib_evic.c</Name>
          <LogicalPath dnOrder="2">config/pic32mk_gp_db/peripheral/evic/</LogicalPath>
          <PhysicalPath dnOrder="3">/peripheral/evic/</PhysicalPath>
          <GeneratedChecksum dnOrder="4">82C0AAA7B55DF3D5A54982FBA5F4FF8C</GeneratedChecksum>
          <UserChecksum dnOrder="5">82C0AAA7B55DF3D5A54982FBA5F4FF8C</UserChecksum>
        </File>
        <File dnOrder="6">
          <Type dnOrder="0">SOURCE</Type>
          <Name dnOrder="1">plib_gpio.c</Name>
          <LogicalPath dnOrder="2">config/pic32mk_gp_db/peripheral/gpio/</LogicalPath>
          <PhysicalPath dnOrder="3">/peripheral/gpio/</PhysicalPath>
          <GeneratedChecksum dnOrder="4">92C02D3E07505850568B82786D8EC653</GeneratedChecksum>
          <UserChecksum dnOrder="5">92C02D3E07505850568B82786D8EC653</UserChecksum>
        </File>
        <File dnOrder="7">
          <Type dnOrder="0">SOURCE</Type>
          <Name dnOrder="1">plib_tmr2.c</Name>
          <LogicalPath dnOrder="2">config/pic32mk_gp_db/peripheral/tmr/</LogicalPath>
          <PhysicalPath dnOrder="3">/peripheral/tmr/</PhysicalPath>
          <GeneratedChecksum dnOrder="4">810F966768289A641A8A07AB8D85E8E5</GeneratedChecksum>
          <UserChecksum dnOrder="5">810F966768289A641A8A07AB8D85E8E5</UserChecksum>
        </File>
        <File dnOrder="8">
          <Type dnOrder="0">SOURCE</Type>
          <Name dnOrder="1">xc32_monitor.c</Name>
          <LogicalPath dnOrder="2">config/pic32mk_gp_db/stdio/</LogicalPath>
          <PhysicalPath dnOrder="3">/stdio/</PhysicalPath>
          <GeneratedChecksum dnOrder="4">0CDCE9B6891797FCD2AEA243F841353F</GeneratedChecksum>
          <UserChecksum dnOrder="5">0CDCE9B6891797FCD2AEA243F841353F</UserChecksum>
        </File>
        <File dnOrder="9">
          <Type dnOrder="0">HEADER</Type>
          <Name dnOrder="1">definitions.h</Name>
          <LogicalPath dnOrder="2">config/pic32mk_gp_db/</LogicalPath>
          <PhysicalPath dnOrder="3">/</PhysicalPath>
          <GeneratedChecksum dnOrder="4">0A2CB7652AEB6CFA321837326A048B78</GeneratedChecksum>
          <UserChecksum dnOrder="5">0A2CB7652AEB6CFA321837326A048B78</UserChecksum>
        </File>
        <File dnOrder="10">
          <Type dnOrder="0">HEADER</Type>
          <Name dnOrder="1">device.h</Name>
          <LogicalPath dnOrder="2">packs/PIC32MK1024GPE100_DFP/</LogicalPath>
          <PhysicalPath dnOrder="3">/../../packs/PIC32MK1024GPE100_DFP/</PhysicalPath>
          <GeneratedChecksum dnOrder="4">5D5C52527AB1435153DB9B50ADE6B79D</GeneratedChecksum>
          <UserChecksum dnOrder="5">5D5C52527AB1435153DB9B50ADE6B79D</UserChecksum>
        </File>
        <File dnOrder="11">
          <Type dnOrder="0">HEADER</Type>
          <Name dnOrder="1">plib_clk.h</Name>
          <LogicalPath dnOrder="2">config/pic32mk_gp_db/peripheral/clk/</LogicalPath>
          <PhysicalPath dnOrder="3">/peripheral/clk/</PhysicalPath>
          <GeneratedChecksum dnOrder="4">7066CC390335CF75126E2A50C46E3BDD</GeneratedChecksum>
          <UserChecksum dnOrder="5">7066CC390335CF75126E2A50C46E3BDD</UserChecksum>
        </File>
        <File dnOrder="12">
          <Type dnOrder="0">HEADER</Type>
          <Name dnOrder="1">plib_evic.h</Name>
          <LogicalPath dnOrder="2">config/pic32mk_gp_db/peripheral/evic/</LogicalPath>
          <PhysicalPath dnOrder="3">/peripheral/evic/</PhysicalPath>
          <GeneratedChecksum dnOrder="4">A1364CE634E5EDFC0CD338822137A62D</GeneratedChecksum>
          <UserChecksum dnOrder="5">A1364CE634E5EDFC0CD338822137A62D</UserChecksum>
        </File>
        <File dnOrder="13">
          <Type dnOrder="0">HEADER</Type>
          <Name dnOrder="1">plib_gpio.h</Name>
          <LogicalPath dnOrder="2">config/pic32mk_gp_db/peripheral/gpio/</LogicalPath>
          <PhysicalPath dnOrder="3">/peripheral/gpio/</PhysicalPath>
          <GeneratedChecksum dnOrder="4">C4EF40311FE46FB9E8F87B2E72213804</GeneratedChecksum>
          <UserChecksum dnOrder="5">C4EF40311FE46FB9E8F87B2E72213804</UserChecksum>
        </File>
        <File dnOrder="14">
          <Type dnOrder="0">HEADER</Type>
          <Name dnOrder="1">plib_tmr2.h</Name>
          <LogicalPath dnOrder="2">config/pic32mk_gp_db/peripheral/tmr/</LogicalPath>
          <PhysicalPath dnOrder="3">/peripheral/tmr/</PhysicalPath>
          <GeneratedChecksum dnOrder="4">951CB6B720EFCD3044875413BC7D7773</GeneratedChecksum>
          <UserChecksum dnOrder="5">951CB6B720EFCD3044875413BC7D7773</UserChecksum>
        </File>
        <File dnOrder="15">
          <Type dnOrder="0">HEADER</Type>
          <Name dnOrder="1">plib_tmr_common.h</Name>
          <LogicalPath dnOrder="2">config/pic32mk_gp_db/peripheral/tmr/</LogicalPath>
          <PhysicalPath dnOrder="3">/peripheral/tmr/</PhysicalPath>
          <GeneratedChecksum dnOrder="4">D948F2CE092CAB556EF299D3CCD83A55</GeneratedChecksum>
          <UserChecksum dnOrder="5">D948F2CE092CAB556EF299D3CCD83A55</UserChecksum>
        </File>
        <File dnOrder="16">
          <Type dnOrder="0">HEADER</Type>
          <Name dnOrder="1">toolchain_specifics.h</Name>
          <LogicalPath dnOrder="2">config/pic32mk_gp_db/</LogicalPath>
          <PhysicalPath dnOrder="3">/</PhysicalPath>
          <GeneratedChecksum dnOrder="4">5F0B87C955FBF569CBD67F4861B6B7AD</GeneratedChecksum>
          <UserChecksum dnOrder="5">5F0B87C955FBF569CBD67F4861B6B7AD</UserChecksum>
        </File>
      </Files>
      <Settings dnOrder="1">
        <Setting append="true" category="C32" delimiter=";" dnOrder="0" key="extra-include-directories" value="../src;../src/config/pic32mk_gp_db;../src/packs/PIC32MK1024GPE100_DFP;;../src/mips"/>
        <Setting category="C32-LD" dnOrder="1" key="heap-size" value="512"/>
        <Setting category="C32-LD" dnOrder="2" key="no-device-startup-code" value="true"/>
        <Setting category="C32-LD" dnOrder="3" key="preprocessor-macros" value=""/>
      </Settings>
    </Manifest>
    <Settings dnOrder="4">
      <Setting dnOrder="0" key="CMSISPath" value=".\dev_packs\arm\CMSIS\5.5.1"/>
      <Setting dnOrder="1" key="DFPPath" value=".\dev_packs\Microchip\PIC32MK-GP_DFP\1.0.44\atdf\PIC32MK1024GPE100.atdf"/>
      <Setting dnOrder="2" key="FORCE_OPTIMIZATION" value="false"/>
      <Setting dnOrder="3" key="GENERATE_BACKUP" value="true"/>
      <Setting dnOrder="4" key="MERGE_STRATEGY" value="USER_ALL"/>
      <Setting dnOrder="5" key="PackageFilter" value="csp;"/>
    </Settings>
  </Configurator>
</Configuration>
